<?xml version="1.0" encoding="UTF-8"?>
<svg width="400px" height="402px" viewBox="0 0 400 402" version="1.1" xmlns="http://www.w3.org/2000/svg" xmlns:xlink="http://www.w3.org/1999/xlink">
    <!-- Generator: Sketch 53.2 (72643) - https://sketchapp.com -->
    <title>tabliz-logo-round 2</title>
    <desc>Created with Sketch.</desc>
    <g id="Page-1" stroke="none" stroke-width="1" fill="none" fill-rule="evenodd">
        <g id="tabliz-logo-round" fill="#000000">
            <path d="M185.85,1.365 C183.658,1.53 179.533,1.971 176.683,2.346 C173.832,2.721 171.05,3.081 170.5,3.147 C164.851,3.821 154.048,6.1 146,8.314 C141.315,9.603 131.322,12.941 130.75,13.408 C130.521,13.595 130.333,13.65 130.333,13.529 C130.333,13.409 129.996,13.495 129.583,13.722 C129.171,13.949 128.582,14.176 128.275,14.228 C126.328,14.555 109.515,22.305 104.166,25.342 C103.433,25.758 102.008,26.547 101,27.095 C99.992,27.643 98.857,28.371 98.479,28.712 C98.1,29.054 97.663,29.333 97.508,29.333 C97.197,29.333 94.846,30.755 92,32.663 C90.992,33.339 89.529,34.244 88.75,34.674 C87.971,35.104 87.333,35.568 87.333,35.706 C87.333,35.843 87.06,36.042 86.725,36.148 C86.391,36.254 85.825,36.614 85.467,36.947 C85.109,37.281 84.37,37.84 83.825,38.19 C83.279,38.54 82.158,39.329 81.333,39.942 C80.508,40.556 79.397,41.383 78.864,41.779 C78.331,42.176 77.731,42.65 77.531,42.833 C77.33,43.017 76.567,43.614 75.833,44.161 C73.877,45.62 73.49,45.939 70.559,48.5 C69.09,49.783 66.976,51.604 65.861,52.545 C63.435,54.594 52.491,65.591 50.933,67.546 C50.328,68.305 48.849,70.03 47.645,71.379 C46.442,72.729 44.717,74.807 43.812,75.996 C42.907,77.186 42.017,78.325 41.833,78.527 C41.39,79.016 40.395,80.345 38.358,83.167 C37.432,84.45 36.541,85.662 36.378,85.859 C36.089,86.209 35.787,86.654 33.009,90.833 C32.278,91.933 31.677,93.021 31.673,93.25 C31.67,93.479 31.534,93.667 31.372,93.667 C31.124,93.667 30.367,94.86 27.985,99 C27.827,99.275 26.728,101.15 25.545,103.167 C21.487,110.078 13.908,126.293 14.032,127.796 C14.046,127.959 13.932,128.184 13.778,128.296 C12.629,129.138 5.193,153.312 4.526,158.377 C4.468,158.811 4.338,159.392 4.237,159.667 C4.135,159.942 3.95,160.767 3.825,161.5 C3.701,162.233 3.544,163.133 3.477,163.5 C3.41,163.867 3.287,164.724 3.204,165.406 C3.121,166.087 2.982,166.762 2.896,166.906 C2.809,167.049 2.648,167.842 2.537,168.667 C2.427,169.492 2.051,172.267 1.702,174.833 C1.352,177.4 1.057,179.725 1.044,180 C1.032,180.275 0.839,181.925 0.615,183.667 C0.152,187.27 0.006,212.501 0.428,216 C0.572,217.192 0.748,218.917 0.819,219.833 C1.08,223.173 2.009,230.255 2.655,233.833 C3.02,235.85 3.401,238.025 3.503,238.667 C4,241.793 4.69,245.082 4.933,245.486 C5.038,245.661 5.158,246.111 5.198,246.486 C5.314,247.556 7.027,254.37 7.418,255.315 C7.612,255.783 7.828,256.542 7.897,257 C8.203,259.023 13.946,275.158 15.727,279 C16.11,279.825 16.936,281.7 17.563,283.167 C19.115,286.795 24.241,296.933 25.147,298.167 C25.552,298.717 25.994,299.467 26.129,299.833 C26.422,300.625 29.673,306.093 29.993,306.333 C30.115,306.425 30.308,306.752 30.421,307.06 C30.535,307.368 31.643,309.168 32.884,311.06 C35.261,314.683 35.484,314.996 36.417,316.024 C36.738,316.377 36.899,316.667 36.775,316.667 C36.652,316.667 36.851,317.004 37.218,317.417 C37.585,317.829 38.689,319.292 39.672,320.667 C40.654,322.042 41.667,323.377 41.923,323.634 C42.178,323.891 43.005,324.941 43.76,325.968 C44.515,326.994 45.291,327.996 45.483,328.195 C45.676,328.394 46.507,329.369 47.33,330.362 C48.154,331.354 49.381,332.737 50.058,333.434 C50.735,334.131 51.337,334.826 51.395,334.98 C51.779,335.996 68.105,352 68.757,352 C68.839,352 69.424,352.487 70.056,353.083 C70.688,353.679 71.852,354.692 72.642,355.333 C73.432,355.975 74.248,356.66 74.456,356.855 C74.663,357.051 75.438,357.651 76.177,358.189 C76.916,358.727 78.213,359.748 79.059,360.458 C79.905,361.169 80.688,361.731 80.799,361.708 C80.909,361.685 81.282,361.929 81.627,362.25 C82.656,363.207 96.123,372.333 96.507,372.333 C96.553,372.333 97.996,373.157 99.712,374.163 C101.429,375.169 102.972,375.994 103.14,375.996 C103.309,375.998 103.684,376.213 103.974,376.473 C104.552,376.993 114.702,382.204 116.833,383.076 C117.567,383.375 119.742,384.31 121.667,385.152 C123.592,385.995 125.392,386.73 125.667,386.785 C125.942,386.841 126.692,387.131 127.333,387.43 C128.931,388.176 134.795,390.3 135.735,390.475 C136.156,390.553 136.537,390.647 136.583,390.684 C136.629,390.72 136.779,390.782 136.917,390.822 C137.054,390.861 137.692,391.128 138.333,391.415 C138.975,391.702 139.95,392.011 140.5,392.101 C141.05,392.192 141.912,392.428 142.417,392.625 C142.921,392.822 143.333,392.92 143.333,392.842 C143.333,392.764 143.858,392.92 144.5,393.188 C145.142,393.456 145.667,393.593 145.667,393.493 C145.667,393.392 145.943,393.458 146.282,393.639 C146.62,393.82 147.258,394.053 147.698,394.157 C148.139,394.26 150.225,394.792 152.333,395.337 C154.442,395.883 158.117,396.707 160.5,397.169 C162.883,397.631 165.583,398.155 166.5,398.333 C180.478,401.058 207.745,401.873 221,399.963 C222.375,399.765 223.725,399.598 224,399.593 C225.982,399.555 236.49,397.881 238.055,397.354 C238.544,397.189 239.013,397.124 239.098,397.209 C239.247,397.358 241.972,396.806 243,396.419 C243.275,396.316 243.65,396.21 243.833,396.183 C245.961,395.877 247.375,395.535 247.527,395.289 C247.629,395.124 247.832,395.063 247.977,395.153 C248.207,395.294 257.957,392.673 259.333,392.099 C259.608,391.985 259.946,391.859 260.083,391.82 C260.221,391.782 260.408,391.712 260.5,391.667 C260.592,391.621 260.817,391.546 261,391.5 C261.183,391.454 261.408,391.379 261.5,391.333 C261.592,391.287 261.817,391.212 262,391.167 C262.183,391.121 262.408,391.046 262.5,391 C262.592,390.954 262.817,390.879 263,390.833 C263.183,390.787 263.371,390.72 263.417,390.683 C263.462,390.646 263.78,390.563 264.122,390.498 C265.329,390.271 270.168,388.507 270.278,388.255 C270.339,388.115 270.751,388 271.194,388 C271.637,388 272,387.825 272,387.611 C272,387.397 272.101,387.323 272.223,387.446 C272.346,387.568 272.796,387.44 273.223,387.16 C273.651,386.88 274,386.735 274,386.837 C274,386.94 274.337,386.838 274.75,386.611 C275.162,386.385 275.769,386.154 276.097,386.1 C276.426,386.045 277.657,385.55 278.833,385 C280.01,384.45 281.11,384 281.279,384 C281.447,384 281.768,383.78 281.991,383.511 C282.215,383.242 282.495,383.049 282.615,383.082 C283.023,383.196 286,381.911 286,381.621 C286,381.463 286.228,381.333 286.507,381.333 C286.785,381.333 287.594,380.967 288.303,380.519 C289.013,380.071 289.685,379.796 289.797,379.908 C289.909,380.02 290,379.927 290,379.703 C290,379.478 290.15,379.387 290.333,379.5 C290.517,379.613 290.667,379.577 290.667,379.42 C290.667,379.263 291.229,378.937 291.917,378.695 C293.604,378.104 297.821,375.784 298.335,375.165 C298.562,374.891 299.007,374.667 299.322,374.667 C299.638,374.667 300.168,374.367 300.5,374 C300.832,373.633 301.371,373.333 301.699,373.333 C302.026,373.333 302.379,373.195 302.483,373.027 C302.587,372.859 303.646,372.176 304.836,371.511 C306.026,370.845 307,370.158 307,369.984 C307,369.809 307.166,369.667 307.368,369.667 C307.571,369.667 308.358,369.247 309.118,368.734 C309.878,368.221 310.762,367.701 311.083,367.578 C311.404,367.455 311.667,367.2 311.667,367.01 C311.667,366.821 311.856,366.667 312.087,366.667 C312.318,366.667 312.911,366.292 313.406,365.833 C313.9,365.375 314.439,365 314.603,365 C314.768,365 315.307,364.625 315.802,364.167 C316.296,363.708 316.821,363.333 316.968,363.333 C317.116,363.333 317.641,362.958 318.135,362.5 C318.63,362.042 319.124,361.667 319.233,361.667 C319.504,361.667 322.4,359.346 322.917,358.715 C323.146,358.435 323.333,358.32 323.333,358.46 C323.333,358.6 323.581,358.466 323.884,358.163 C324.187,357.86 325.237,357.02 326.218,356.296 C327.198,355.572 328,354.809 328,354.601 C328,354.392 328.077,354.299 328.171,354.394 C328.351,354.573 329.87,353.351 332.048,351.276 C332.755,350.603 333.333,350.128 333.333,350.22 C333.333,350.312 334.346,349.372 335.583,348.131 C336.821,346.889 337.908,345.861 338,345.844 C338.182,345.813 345,338.951 345,338.8 C345,338.749 346.012,337.684 347.25,336.432 C349.288,334.372 351.696,331.667 351.492,331.667 C351.448,331.667 351.956,331.093 352.622,330.391 C354.576,328.333 355.292,327.403 355.084,327.195 C354.977,327.088 355.059,327 355.267,327 C355.475,327 356.277,326.138 357.05,325.083 C357.822,324.029 358.614,323.056 358.81,322.922 C359.028,322.772 359.037,322.671 358.833,322.662 C358.65,322.653 358.747,322.502 359.049,322.326 C359.626,321.989 363.579,316.621 363.928,315.701 C364.039,315.407 364.553,314.717 365.069,314.167 C365.585,313.617 366.192,312.754 366.418,312.25 C366.644,311.746 366.943,311.333 367.081,311.333 C367.22,311.333 367.333,311.127 367.333,310.874 C367.333,310.622 367.562,310.225 367.841,309.993 C368.121,309.761 368.28,309.502 368.194,309.417 C368.109,309.331 368.406,308.867 368.853,308.384 C369.301,307.902 369.667,307.369 369.667,307.202 C369.667,307.034 370.049,306.395 370.517,305.781 C370.985,305.168 371.258,304.667 371.126,304.667 C370.993,304.667 371.221,304.308 371.633,303.869 C372.045,303.431 372.419,302.819 372.464,302.509 C372.51,302.2 372.695,301.846 372.875,301.723 C373.572,301.249 378.905,291.333 378.463,291.333 C378.347,291.333 378.398,291.146 378.578,290.917 C378.976,290.409 382.337,284.069 382.333,283.833 C382.332,283.741 382.649,282.953 383.037,282.083 C384.471,278.872 384.692,278.34 384.696,278.089 C384.698,277.949 384.92,277.496 385.191,277.083 C385.461,276.671 385.586,276.333 385.469,276.333 C385.352,276.333 385.476,275.996 385.744,275.583 C386.241,274.82 387.146,272.439 387.171,271.833 C387.178,271.65 387.326,271.275 387.499,271 C387.673,270.725 387.856,270.313 387.907,270.083 C388.126,269.102 388.287,268.494 388.349,268.417 C388.386,268.371 388.454,268.183 388.5,268 C388.546,267.817 388.621,267.592 388.667,267.5 C388.712,267.408 388.787,267.183 388.833,267 C388.879,266.817 388.954,266.592 389,266.5 C389.046,266.408 389.121,266.183 389.167,266 C389.212,265.817 389.287,265.592 389.333,265.5 C389.379,265.408 389.448,265.221 389.487,265.083 C389.569,264.793 389.87,264.031 390.641,262.167 C390.944,261.433 391.181,260.608 391.168,260.333 C391.155,260.058 391.266,259.747 391.415,259.641 C391.564,259.535 391.719,259.01 391.76,258.474 C391.8,257.938 391.95,257.413 392.093,257.308 C392.236,257.202 392.386,256.677 392.426,256.141 C392.467,255.605 392.617,255.08 392.76,254.974 C392.902,254.869 393.052,254.344 393.093,253.808 C393.133,253.272 393.27,252.755 393.396,252.66 C393.523,252.564 393.702,252.114 393.796,251.66 C393.889,251.205 394.063,250.458 394.183,250 C394.302,249.542 394.422,248.792 394.45,248.333 C394.477,247.875 394.598,247.425 394.717,247.333 C394.955,247.151 395.353,245.321 395.443,244 C395.474,243.542 395.607,243.086 395.738,242.988 C395.869,242.889 396.055,242.289 396.152,241.654 C396.249,241.019 396.489,239.696 396.686,238.714 C396.882,237.731 396.963,236.719 396.866,236.464 C396.768,236.209 396.824,236 396.99,236 C397.156,236 397.293,235.737 397.295,235.417 C397.296,235.096 397.467,234.022 397.674,233.03 C397.881,232.038 397.978,230.95 397.889,230.613 C397.801,230.276 397.863,230 398.027,230 C398.192,230 398.312,229.662 398.295,229.25 C398.268,228.578 398.408,227.251 398.832,224.167 C399.494,219.345 399.71,217.054 399.605,215.956 C399.538,215.247 399.586,214.667 399.712,214.667 C399.839,214.667 399.953,208.667 399.966,201.333 C399.979,194 399.88,188 399.745,188 C399.61,188 399.528,187.025 399.563,185.834 C399.598,184.642 399.523,183.667 399.396,183.667 C399.27,183.667 399.199,182.842 399.238,181.834 C399.277,180.825 399.178,180 399.019,180 C398.859,180 398.801,179.724 398.889,179.387 C398.977,179.05 398.885,177.663 398.684,176.304 C398.483,174.945 398.238,173.233 398.141,172.5 C398.044,171.767 397.896,170.717 397.812,170.167 C397.729,169.617 397.653,168.904 397.643,168.583 C397.633,168.263 397.522,168 397.396,168 C397.27,168 397.141,167.512 397.109,166.917 C397.078,166.321 396.974,165.383 396.879,164.833 C396.784,164.283 396.617,163.158 396.509,162.333 C396.4,161.508 396.226,160.608 396.123,160.333 C396.02,160.058 395.86,159.383 395.768,158.833 C395.676,158.283 395.503,157.758 395.384,157.667 C395.264,157.575 395.143,157.125 395.114,156.667 C395.033,155.38 394.625,153.519 394.384,153.333 C394.264,153.242 394.145,152.792 394.119,152.333 C394.051,151.163 393.694,149.673 393.306,148.948 C393.125,148.61 393.059,148.333 393.159,148.333 C393.26,148.333 393.123,147.808 392.855,147.167 C392.587,146.525 392.431,146 392.509,146 C392.587,146 392.49,145.587 392.294,145.083 C392.099,144.579 391.87,143.806 391.787,143.365 C391.703,142.924 391.46,142.249 391.246,141.865 C391.032,141.481 390.833,141.054 390.803,140.917 C390.774,140.779 390.712,140.592 390.667,140.5 C390.621,140.408 390.546,140.183 390.5,140 C390.454,139.817 390.379,139.592 390.333,139.5 C390.287,139.408 390.212,139.183 390.167,139 C390.121,138.817 390.046,138.592 390,138.5 C389.954,138.408 389.879,138.183 389.833,138 C389.787,137.817 389.719,137.629 389.681,137.583 C389.642,137.537 389.575,137.2 389.531,136.833 C389.411,135.844 388.295,132.563 387.915,132.083 C387.734,131.854 387.682,131.667 387.8,131.667 C387.919,131.667 387.77,131.292 387.469,130.833 C387.169,130.375 387.019,130 387.136,130 C387.253,130 387.103,129.625 386.803,129.167 C386.502,128.708 386.372,128.333 386.513,128.333 C386.654,128.333 386.521,128.059 386.218,127.723 C385.914,127.387 385.765,127.013 385.886,126.892 C386.008,126.77 385.858,126.395 385.553,126.058 C385.248,125.721 385.085,125.359 385.191,125.254 C385.297,125.148 384.904,124.035 384.319,122.781 C382.831,119.591 381.829,117.389 381.157,115.833 C380.841,115.1 380.352,114.237 380.072,113.917 C379.792,113.596 379.663,113.333 379.784,113.333 C379.906,113.333 379.1,111.571 377.994,109.417 C376.063,105.655 375.268,104.204 373.745,101.667 C373.36,101.025 372.646,99.75 372.159,98.833 C371.671,97.917 371.099,97.016 370.886,96.833 C370.674,96.649 370.128,95.787 369.674,94.916 C369.219,94.046 368.732,93.333 368.59,93.333 C368.449,93.333 368.333,93.116 368.333,92.85 C368.333,92.584 368.146,92.247 367.917,92.1 C367.688,91.953 367.227,91.296 366.894,90.639 C366.561,89.982 365.952,89.082 365.541,88.639 C365.13,88.196 364.803,87.735 364.814,87.615 C364.825,87.495 364.386,86.895 363.84,86.282 C363.293,85.668 362.872,85.092 362.904,85 C362.936,84.908 362.595,84.422 362.148,83.92 C361.7,83.417 361.333,82.93 361.333,82.837 C361.333,82.454 358.912,79.333 358.616,79.333 C358.439,79.333 358.379,79.196 358.482,79.028 C358.586,78.861 358.549,78.673 358.399,78.612 C358.25,78.55 357.481,77.637 356.69,76.583 C355.9,75.529 355.096,74.667 354.904,74.667 C354.713,74.667 354.648,74.574 354.76,74.462 C354.873,74.349 354.385,73.637 353.677,72.879 C352.968,72.12 352.046,71.05 351.628,70.5 C351.211,69.95 350.381,69.012 349.784,68.417 C349.188,67.821 348.759,67.333 348.832,67.333 C348.905,67.333 347.698,66.037 346.149,64.453 C344.6,62.869 343.333,61.51 343.333,61.432 C343.333,61.239 339.876,57.852 339.667,57.84 C339.575,57.835 338.675,57.003 337.667,55.992 C335.341,53.659 331.333,49.956 331.333,50.141 C331.333,50.218 330.763,49.73 330.066,49.057 C328.844,47.876 328.243,47.371 325,44.8 C324.175,44.146 323.197,43.361 322.826,43.055 C321.083,41.62 318.414,39.667 318.195,39.667 C318.062,39.667 317.763,39.479 317.531,39.25 C317.3,39.021 316.695,38.533 316.188,38.167 C315.682,37.8 314.736,37.087 314.088,36.583 C313.439,36.079 312.704,35.667 312.454,35.667 C312.204,35.667 312,35.517 312,35.333 C312,35.15 311.843,35 311.652,35 C311.461,35 310.938,34.661 310.491,34.246 C310.044,33.832 308.968,33.119 308.099,32.663 C307.231,32.207 306.216,31.562 305.844,31.231 C305.224,30.68 302.076,28.787 298.815,27.005 C298.092,26.61 296.825,25.908 296,25.444 C292.107,23.256 284.221,19.364 283.981,19.512 C283.833,19.603 283.617,19.523 283.5,19.334 C283.294,19 281.224,18.007 280.45,17.871 C280.24,17.834 279.865,17.655 279.617,17.473 C279.134,17.117 273.895,14.98 273.232,14.868 C273.013,14.832 272.516,14.626 272.127,14.412 C271.739,14.198 271.326,14.118 271.21,14.234 C271.095,14.35 271,14.287 271,14.094 C271,13.902 270.662,13.665 270.25,13.569 C269.837,13.472 267.475,12.691 265,11.833 C258.784,9.678 248.422,6.673 246.661,6.514 C246.383,6.489 246.008,6.38 245.827,6.273 C245.553,6.108 243.342,5.629 242.167,5.478 C241.983,5.455 241.608,5.342 241.333,5.227 C241.058,5.112 239.933,4.873 238.833,4.695 C237.733,4.518 235.108,4.072 233,3.705 C219.884,1.42 198.934,0.381 185.85,1.365 M83.333,149.5 L83.333,191.667 L122.5,191.667 L161.667,191.667 L161.667,243 L161.667,294.333 L149.833,294.333 L138,294.333 L138,290.167 L138,286 L110.667,286 L83.333,286 L83.333,290.167 L83.333,294.333 L71.5,294.333 L59.667,294.333 L59.667,200.833 L59.667,107.333 L71.5,107.333 L83.333,107.333 L83.333,149.5 M340.333,200.833 L340.333,294.333 L328.333,294.333 L316.333,294.333 L316.333,290.167 L316.333,286 L289.167,286 L262,286 L262,290.167 L262,294.333 L250,294.333 L238,294.333 L238,243.5 L238,192.667 L277.167,192.667 L316.333,192.667 L316.333,150 L316.333,107.333 L328.333,107.333 L340.333,107.333 L340.333,200.833 M273.334,143.667 L242.5,143.667 L211.667,143.667 L211.667,219.167 L211.667,294.667 L199.667,294.667 L187.667,294.667 L187.667,219.167 L187.667,143.667 L156.834,143.667 L126,143.667 L126,131.834 L126,120 L199.667,120 L273.334,120 L273.334,131.834 L273.334,143.667 Z" id="Logo"></path>
        </g>
    </g>
</svg>