{
  "pages": [
    {
      "id": "0",
      "title": "Vorspeisen",
      "desc": "",
      "items": [
        {
          "type": "item",
          "title": "Hausgemachte Felsen Fischsuppe",
          "desc": "",
          "price": "15,00",
          "cover": "",
          "id": "0",
          "score": {
            "stars": 0,
            "votes": 0,
            "dist": {
              "1": 0,
              "2": 0,
              "3": 0,
              "4": 0,
              "5": 0
            }
          }
        },
        {
          "type": "item",
          "title": "Zwiebelsuppe",
          "desc": "",
          "price": "12,00",
          "cover": "",
          "id": "1",
          "score": {
            "stars": 0,
            "votes": 0,
            "dist": {
              "1": 0,
              "2": 0,
              "3": 0,
              "4": 0,
              "5": 0
            }
          }
        },
        {
          "type": "item",
          "title": "Norwegischer Lachs und Toast",
          "desc": "",
          "price": "16,00",
          "cover": "",
          "id": "2",
          "score": {
            "stars": 0,
            "votes": 0,
            "dist": {
              "1": 0,
              "2": 0,
              "3": 0,
              "4": 0,
              "5": 0
            }
          }
        },
        {
          "type": "item",
          "title": "Hausgemachte Ente Foie Gras und Feigenmarmelade",
          "desc": "",
          "price": "22,00",
          "cover": "",
          "id": "3",
          "score": {
            "stars": 0,
            "votes": 0,
            "dist": {
              "1": 0,
              "2": 0,
              "3": 0,
              "4": 0,
              "5": 0
            }
          }
        },
        {
          "type": "item",
          "title": "Kleiner gefüllter Niçois",
          "desc": "",
          "price": "13,50",
          "cover": "",
          "id": "4",
          "score": {
            "stars": 0,
            "votes": 0,
            "dist": {
              "1": 0,
              "2": 0,
              "3": 0,
              "4": 0,
              "5": 0
            }
          }
        },
        {
          "type": "item",
          "title": "Niçoise-Platte",
          "desc": "",
          "price": "14,50",
          "cover": "",
          "id": "5",
          "score": {
            "stars": 0,
            "votes": 0,
            "dist": {
              "1": 0,
              "2": 0,
              "3": 0,
              "4": 0,
              "5": 0
            }
          }
        },
        {
          "type": "item",
          "title": "Carpaccio vom Rind",
          "desc": "",
          "price": "16,50",
          "cover": "",
          "id": "6",
          "score": {
            "stars": 0,
            "votes": 0,
            "dist": {
              "1": 0,
              "2": 0,
              "3": 0,
              "4": 0,
              "5": 0
            }
          }
        },
        {
          "type": "item",
          "title": "Hausgemachtes Tintenfisch-Carpaccio",
          "desc": "",
          "price": "17",
          "cover": "",
          "id": "7",
          "score": {
            "stars": 0,
            "votes": 0,
            "dist": {
              "1": 0,
              "2": 0,
              "3": 0,
              "4": 0,
              "5": 0
            }
          }
        },
        {
          "type": "item",
          "title": "Schinken aus Parma Melone",
          "desc": "",
          "price": "16,00",
          "cover": "",
          "id": "8",
          "score": {
            "stars": 0,
            "votes": 0,
            "dist": {
              "1": 0,
              "2": 0,
              "3": 0,
              "4": 0,
              "5": 0
            }
          }
        },
        {
          "type": "item",
          "title": "Caesar-Salat",
          "desc": "",
          "price": "14,50",
          "cover": "",
          "id": "9",
          "score": {
            "stars": 0,
            "votes": 0,
            "dist": {
              "1": 0,
              "2": 0,
              "3": 0,
              "4": 0,
              "5": 0
            }
          }
        },
        {
          "type": "item",
          "title": "Salat Niçoise",
          "desc": "",
          "price": "14,50",
          "cover": "",
          "id": "10",
          "score": {
            "stars": 0,
            "votes": 0,
            "dist": {
              "1": 0,
              "2": 0,
              "3": 0,
              "4": 0,
              "5": 0
            }
          }
        },
        {
          "type": "item",
          "title": "Oktopussalat",
          "desc": "",
          "price": "16,50",
          "cover": "",
          "id": "11",
          "score": {
            "stars": 0,
            "votes": 0,
            "dist": {
              "1": 0,
              "2": 0,
              "3": 0,
              "4": 0,
              "5": 0
            }
          }
        },
        {
          "type": "item",
          "title": "Artischockensalat",
          "desc": "",
          "price": "14,50",
          "cover": "",
          "id": "12",
          "score": {
            "stars": 0,
            "votes": 0,
            "dist": {
              "1": 0,
              "2": 0,
              "3": 0,
              "4": 0,
              "5": 0
            }
          }
        },
        {
          "type": "item",
          "title": "Warmer Ziegenkäsesalat mit Walnusskruste",
          "desc": "",
          "price": "12",
          "cover": "",
          "id": "13",
          "score": {
            "stars": 0,
            "votes": 0,
            "dist": {
              "1": 0,
              "2": 0,
              "3": 0,
              "4": 0,
              "5": 0
            }
          }
        },
        {
          "type": "item",
          "title": "Caprese-Salat",
          "desc": "",
          "price": "14",
          "cover": "",
          "id": "14",
          "score": {
            "stars": 0,
            "votes": 0,
            "dist": {
              "1": 0,
              "2": 0,
              "3": 0,
              "4": 0,
              "5": 0
            }
          }
        },
        {
          "type": "item",
          "title": "Gegrillter Paprika-Salat",
          "desc": "",
          "price": "9,50",
          "cover": "",
          "id": "15",
          "score": {
            "stars": 0,
            "votes": 0,
            "dist": {
              "1": 0,
              "2": 0,
              "3": 0,
              "4": 0,
              "5": 0
            }
          }
        },
        {
          "type": "item",
          "title": "Gemischter Salat",
          "desc": "",
          "price": "7,50",
          "cover": "",
          "id": "16",
          "score": {
            "stars": 0,
            "votes": 0,
            "dist": {
              "1": 0,
              "2": 0,
              "3": 0,
              "4": 0,
              "5": 0
            }
          }
        }
      ]
    },
    {
      "id": "1",
      "title": "UNSERE PASTA UND RISOTTO",
      "desc": "",
      "items": [
        {
          "type": "item",
          "title": "Fruchtrisotto zu verleugnen",
          "desc": "",
          "price": "17,5",
          "cover": "",
          "id": "0",
          "score": {
            "stars": 0,
            "votes": 0,
            "dist": {
              "1": 0,
              "2": 0,
              "3": 0,
              "4": 0,
              "5": 0
            }
          }
        },
        {
          "type": "item",
          "title": "Linguine mit Meeresfrüchten",
          "desc": "",
          "price": "19,5",
          "cover": "",
          "id": "1",
          "score": {
            "stars": 0,
            "votes": 0,
            "dist": {
              "1": 0,
              "2": 0,
              "3": 0,
              "4": 0,
              "5": 0
            }
          }
        },
        {
          "type": "item",
          "title": "Linguine mit Venusmuscheln (Vongole)",
          "desc": "",
          "price": "18,5",
          "cover": "",
          "id": "2",
          "score": {
            "stars": 0,
            "votes": 0,
            "dist": {
              "1": 0,
              "2": 0,
              "3": 0,
              "4": 0,
              "5": 0
            }
          }
        },
        {
          "type": "item",
          "title": "Linguine mit Garnelen",
          "desc": "",
          "price": "22",
          "cover": "",
          "id": "3",
          "score": {
            "stars": 0,
            "votes": 0,
            "dist": {
              "1": 0,
              "2": 0,
              "3": 0,
              "4": 0,
              "5": 0
            }
          }
        },
        {
          "type": "item",
          "title": "Tagliatelle mit Lachs und Zucchini",
          "desc": "",
          "price": "18",
          "cover": "",
          "id": "4",
          "score": {
            "stars": 0,
            "votes": 0,
            "dist": {
              "1": 0,
              "2": 0,
              "3": 0,
              "4": 0,
              "5": 0
            }
          }
        },
        {
          "type": "item",
          "title": "Ravioli Ricotta mit Salbeibutter oder Basilikum Tomaten",
          "desc": "",
          "price": "16,5",
          "cover": "",
          "id": "5",
          "score": {
            "stars": 0,
            "votes": 0,
            "dist": {
              "1": 0,
              "2": 0,
              "3": 0,
              "4": 0,
              "5": 0
            }
          }
        },
        {
          "type": "item",
          "title": "Gnocchi mit pistou Genueser oder Tomaten Basilikum oder Gorgonzola «",
          "desc": "",
          "price": "14,5",
          "cover": "",
          "id": "6",
          "score": {
            "stars": 0,
            "votes": 0,
            "dist": {
              "1": 0,
              "2": 0,
              "3": 0,
              "4": 0,
              "5": 0
            }
          }
        },
        {
          "type": "item",
          "title": "Tomatenpenne und Mozzarella von Buffala oder Arabiata",
          "desc": "",
          "price": "12,5",
          "cover": "",
          "id": "7",
          "score": {
            "stars": 0,
            "votes": 0,
            "dist": {
              "1": 0,
              "2": 0,
              "3": 0,
              "4": 0,
              "5": 0
            }
          }
        }
      ]
    },
    {
      "id": "2",
      "title": "Unser gegrillter Fisch",
      "desc": "",
      "items": [
        {
          "type": "item",
          "title": "Wolf",
          "desc": "",
          "price": "25",
          "cover": "",
          "id": "0",
          "score": {
            "stars": 0,
            "votes": 0,
            "dist": {
              "1": 0,
              "2": 0,
              "3": 0,
              "4": 0,
              "5": 0
            }
          }
        },
        {
          "type": "item",
          "title": "Brachsen",
          "desc": "",
          "price": "22",
          "cover": "",
          "id": "1",
          "score": {
            "stars": 0,
            "votes": 0,
            "dist": {
              "1": 0,
              "2": 0,
              "3": 0,
              "4": 0,
              "5": 0
            }
          }
        },
        {
          "type": "item",
          "title": "St. Peter",
          "desc": "",
          "price": "27",
          "cover": "",
          "id": "2",
          "score": {
            "stars": 0,
            "votes": 0,
            "dist": {
              "1": 0,
              "2": 0,
              "3": 0,
              "4": 0,
              "5": 0
            }
          }
        },
        {
          "type": "item",
          "title": "Sohle",
          "desc": "",
          "price": "34",
          "cover": "",
          "id": "3",
          "score": {
            "stars": 0,
            "votes": 0,
            "dist": {
              "1": 0,
              "2": 0,
              "3": 0,
              "4": 0,
              "5": 0
            }
          }
        },
        {
          "type": "item",
          "title": "Camerone flammte in Pastis auf",
          "desc": "",
          "price": "32",
          "cover": "",
          "id": "4",
          "score": {
            "stars": 0,
            "votes": 0,
            "dist": {
              "1": 0,
              "2": 0,
              "3": 0,
              "4": 0,
              "5": 0
            }
          }
        },
        {
          "type": "item",
          "title": "Sautierte Muscheln und Muscheln",
          "desc": "",
          "price": "14,5",
          "cover": "",
          "id": "5",
          "score": {
            "stars": 0,
            "votes": 0,
            "dist": {
              "1": 0,
              "2": 0,
              "3": 0,
              "4": 0,
              "5": 0
            }
          }
        },
        {
          "type": "item",
          "title": "Gebratene Garnelen und Jakobsmuscheln",
          "desc": "",
          "price": "24",
          "cover": "",
          "id": "6",
          "score": {
            "stars": 0,
            "votes": 0,
            "dist": {
              "1": 0,
              "2": 0,
              "3": 0,
              "4": 0,
              "5": 0
            }
          }
        },
        {
          "type": "item",
          "title": "Kabeljau mit Niçoise",
          "desc": "",
          "price": "19",
          "cover": "",
          "id": "7",
          "score": {
            "stars": 0,
            "votes": 0,
            "dist": {
              "1": 0,
              "2": 0,
              "3": 0,
              "4": 0,
              "5": 0
            }
          }
        },
        {
          "type": "item",
          "title": "Lachssteak mit Dill",
          "desc": "",
          "price": "22",
          "cover": "",
          "id": "8",
          "score": {
            "stars": 0,
            "votes": 0,
            "dist": {
              "1": 0,
              "2": 0,
              "3": 0,
              "4": 0,
              "5": 0
            }
          }
        },
        {
          "type": "item",
          "title": "Fisch Grillmischung",
          "desc": "",
          "price": "20,5",
          "cover": "",
          "id": "9",
          "score": {
            "stars": 0,
            "votes": 0,
            "dist": {
              "1": 0,
              "2": 0,
              "3": 0,
              "4": 0,
              "5": 0
            }
          }
        }
      ]
    },
    {
      "id": "3",
      "title": "UNSERE FLEISCH",
      "desc": "",
      "items": [
        {
          "type": "item",
          "title": "Entenbrust mit Honig und Sesam",
          "desc": "",
          "price": "18,5",
          "cover": "",
          "id": "0",
          "score": {
            "stars": 0,
            "votes": 0,
            "dist": {
              "1": 0,
              "2": 0,
              "3": 0,
              "4": 0,
              "5": 0
            }
          }
        },
        {
          "type": "item",
          "title": "Beef Tartar",
          "desc": "",
          "price": "17",
          "cover": "",
          "id": "1",
          "score": {
            "stars": 0,
            "votes": 0,
            "dist": {
              "1": 0,
              "2": 0,
              "3": 0,
              "4": 0,
              "5": 0
            }
          }
        },
        {
          "type": "item",
          "title": "Lammrippe mit Rosmarin",
          "desc": "",
          "price": "22",
          "cover": "",
          "id": "2",
          "score": {
            "stars": 0,
            "votes": 0,
            "dist": {
              "1": 0,
              "2": 0,
              "3": 0,
              "4": 0,
              "5": 0
            }
          }
        },
        {
          "type": "item",
          "title": "Lammkarree mit Honig und Rosmarin",
          "desc": "",
          "price": "32",
          "cover": "",
          "id": "3",
          "score": {
            "stars": 0,
            "votes": 0,
            "dist": {
              "1": 0,
              "2": 0,
              "3": 0,
              "4": 0,
              "5": 0
            }
          }
        },
        {
          "type": "item",
          "title": "Kalbsschnitzel mit Zitrone",
          "desc": "",
          "price": "22",
          "cover": "",
          "id": "4",
          "score": {
            "stars": 0,
            "votes": 0,
            "dist": {
              "1": 0,
              "2": 0,
              "3": 0,
              "4": 0,
              "5": 0
            }
          }
        },
        {
          "type": "item",
          "title": "Gegrilltes Rinderfilet",
          "desc": "",
          "price": "28",
          "cover": "",
          "id": "5",
          "score": {
            "stars": 0,
            "votes": 0,
            "dist": {
              "1": 0,
              "2": 0,
              "3": 0,
              "4": 0,
              "5": 0
            }
          }
        },
        {
          "type": "item",
          "title": "Kaiserliches Rinderfilet (mit Gänseleber)",
          "desc": "",
          "price": "32,5",
          "cover": "",
          "id": "6",
          "score": {
            "stars": 0,
            "votes": 0,
            "dist": {
              "1": 0,
              "2": 0,
              "3": 0,
              "4": 0,
              "5": 0
            }
          }
        },
        {
          "type": "item",
          "title": "Gegrilltes Entrecôte (300 g)",
          "desc": "",
          "price": "21",
          "cover": "",
          "id": "7",
          "score": {
            "stars": 0,
            "votes": 0,
            "dist": {
              "1": 0,
              "2": 0,
              "3": 0,
              "4": 0,
              "5": 0
            }
          }
        },
        {
          "type": "item",
          "title": "Lendenbraten Limousin",
          "desc": "",
          "price": "23",
          "cover": "",
          "id": "8",
          "score": {
            "stars": 0,
            "votes": 0,
            "dist": {
              "1": 0,
              "2": 0,
              "3": 0,
              "4": 0,
              "5": 0
            }
          }
        },
        {
          "type": "item",
          "title": "Fleischgrill mischen",
          "desc": "",
          "price": "17,5",
          "cover": "",
          "id": "9",
          "score": {
            "stars": 0,
            "votes": 0,
            "dist": {
              "1": 0,
              "2": 0,
              "3": 0,
              "4": 0,
              "5": 0
            }
          }
        },
        {
          "type": "subcategory",
          "title": "Ergänzungen",
          "desc": ""
        },
        {
          "type": "item",
          "title": "Pfeffersauce",
          "desc": "",
          "price": "2,5",
          "cover": "",
          "id": "10",
          "score": {
            "stars": 0,
            "votes": 0,
            "dist": {
              "1": 0,
              "2": 0,
              "3": 0,
              "4": 0,
              "5": 0
            }
          }
        }
      ]
    },
    {
      "id": "4",
      "title": "Unsere Desserts (hm)",
      "desc": "",
      "items": [
        {
          "type": "item",
          "title": "Obstsalat der Saison",
          "desc": "",
          "price": "7",
          "cover": "",
          "id": "0",
          "score": {
            "stars": 0,
            "votes": 0,
            "dist": {
              "1": 0,
              "2": 0,
              "3": 0,
              "4": 0,
              "5": 0
            }
          }
        },
        {
          "type": "item",
          "title": "Moelleux mit Schokolade",
          "desc": "",
          "price": "7,5",
          "cover": "",
          "id": "1",
          "score": {
            "stars": 0,
            "votes": 0,
            "dist": {
              "1": 0,
              "2": 0,
              "3": 0,
              "4": 0,
              "5": 0
            }
          }
        },
        {
          "type": "item",
          "title": "Gourmet-Kaffee",
          "desc": "",
          "price": "7",
          "cover": "",
          "id": "2",
          "score": {
            "stars": 0,
            "votes": 0,
            "dist": {
              "1": 0,
              "2": 0,
              "3": 0,
              "4": 0,
              "5": 0
            }
          }
        },
        {
          "type": "item",
          "title": "Eis-Nougat",
          "desc": "",
          "price": "9",
          "cover": "",
          "id": "3",
          "score": {
            "stars": 0,
            "votes": 0,
            "dist": {
              "1": 0,
              "2": 0,
              "3": 0,
              "4": 0,
              "5": 0
            }
          }
        },
        {
          "type": "item",
          "title": "Äpfel mit Äpfeln",
          "desc": "Flambierte Apfelhenne mit Calvados und Vanilleeis",
          "price": "9",
          "cover": "",
          "id": "4",
          "score": {
            "stars": 0,
            "votes": 0,
            "dist": {
              "1": 0,
              "2": 0,
              "3": 0,
              "4": 0,
              "5": 0
            }
          }
        },
        {
          "type": "item",
          "title": "Crème Brûlée mit Vanille",
          "desc": "",
          "price": "8",
          "cover": "",
          "id": "5",
          "score": {
            "stars": 0,
            "votes": 0,
            "dist": {
              "1": 0,
              "2": 0,
              "3": 0,
              "4": 0,
              "5": 0
            }
          }
        },
        {
          "type": "item",
          "title": "Tiramisu",
          "desc": "",
          "price": "7",
          "cover": "",
          "id": "6",
          "score": {
            "stars": 0,
            "votes": 0,
            "dist": {
              "1": 0,
              "2": 0,
              "3": 0,
              "4": 0,
              "5": 0
            }
          }
        },
        {
          "type": "item",
          "title": "Zitronenbaisertorte",
          "desc": "",
          "price": "8",
          "cover": "",
          "id": "7",
          "score": {
            "stars": 0,
            "votes": 0,
            "dist": {
              "1": 0,
              "2": 0,
              "3": 0,
              "4": 0,
              "5": 0
            }
          }
        },
        {
          "type": "item",
          "title": "Käseplatte",
          "desc": "",
          "price": "8",
          "cover": "",
          "id": "8",
          "score": {
            "stars": 0,
            "votes": 0,
            "dist": {
              "1": 0,
              "2": 0,
              "3": 0,
              "4": 0,
              "5": 0
            }
          }
        },
        {
          "type": "item",
          "title": "Oberst",
          "desc": "Zitrone, Wodka",
          "price": "9,5",
          "cover": "",
          "id": "9",
          "score": {
            "stars": 0,
            "votes": 0,
            "dist": {
              "1": 0,
              "2": 0,
              "3": 0,
              "4": 0,
              "5": 0
            }
          }
        },
        {
          "type": "item",
          "title": "Palette von Elixier",
          "desc": "",
          "price": "11",
          "cover": "",
          "id": "10",
          "score": {
            "stars": 0,
            "votes": 0,
            "dist": {
              "1": 0,
              "2": 0,
              "3": 0,
              "4": 0,
              "5": 0
            }
          }
        },
        {
          "type": "item",
          "title": "Dessertwein",
          "desc": "",
          "price": "7,5",
          "cover": "",
          "id": "11",
          "score": {
            "stars": 0,
            "votes": 0,
            "dist": {
              "1": 0,
              "2": 0,
              "3": 0,
              "4": 0,
              "5": 0
            }
          }
        },
        {
          "type": "subcategory",
          "title": "Eis oder Sorbet",
          "desc": ""
        },
        {
          "type": "item",
          "title": "Ein scoop",
          "desc": "Eiscreme: Vanille, Pistazie, weiße Schokolade, Karamell, Minze-Schokolade, Schokolade, Kokosnuss, Kaffee ... Sorbets: Zitrone, Erdbeere, Passionsfrucht, schwarze Johannisbeere, grüner Apfel, ...",
          "price": "4",
          "cover": "",
          "id": "12",
          "score": {
            "stars": 0,
            "votes": 0,
            "dist": {
              "1": 0,
              "2": 0,
              "3": 0,
              "4": 0,
              "5": 0
            }
          }
        },
        {
          "type": "item",
          "title": "2 Bälle",
          "desc": "Eiscreme: Vanille, Pistazie, weiße Schokolade, Karamell, Minze-Schokolade, Schokolade, Kokosnuss, Kaffee ... Sorbets: Zitrone, Erdbeere, Passionsfrucht, schwarze Johannisbeere, grüner Apfel, ...",
          "price": "6",
          "cover": "",
          "id": "13",
          "score": {
            "stars": 0,
            "votes": 0,
            "dist": {
              "1": 0,
              "2": 0,
              "3": 0,
              "4": 0,
              "5": 0
            }
          }
        },
        {
          "type": "item",
          "title": "3 Bälle",
          "desc": "Eiscreme: Vanille, Pistazie, weiße Schokolade, Karamell, Minze-Schokolade, Schokolade, Kokosnuss, Kaffee ... Sorbets: Zitrone, Erdbeere, Passionsfrucht, schwarze Johannisbeere, grüner Apfel, ...",
          "price": "7",
          "cover": "",
          "id": "14",
          "score": {
            "stars": 0,
            "votes": 0,
            "dist": {
              "1": 0,
              "2": 0,
              "3": 0,
              "4": 0,
              "5": 0
            }
          }
        }
      ]
    },
    {
      "id": "5",
      "title": "ENTDECKEN SIE MENÜ um 22 €",
      "desc": "",
      "items": [
        {
          "type": "item",
          "title": "Eintrag",
          "desc": "Käsesalat oder Salade Niçoise oder gegrillte Paprika mit Olivenöl",
          "price": "",
          "cover": "",
          "id": "0",
          "score": {
            "stars": 0,
            "votes": 0,
            "dist": {
              "1": 0,
              "2": 0,
              "3": 0,
              "4": 0,
              "5": 0
            }
          }
        },
        {
          "type": "item",
          "title": "Wohnung",
          "desc": "Das Stück des Metzgers oder der Teller des Fischers oder die neapolitanischen Tagliatelle oder das Gericht des Tages",
          "price": "",
          "cover": "",
          "id": "1",
          "score": {
            "stars": 0,
            "votes": 0,
            "dist": {
              "1": 0,
              "2": 0,
              "3": 0,
              "4": 0,
              "5": 0
            }
          }
        },
        {
          "type": "item",
          "title": "Dessert",
          "desc": "Obstsalat oder Dessert des Tages oder Eiscreme / Sorbet",
          "price": "",
          "cover": "",
          "id": "2",
          "score": {
            "stars": 0,
            "votes": 0,
            "dist": {
              "1": 0,
              "2": 0,
              "3": 0,
              "4": 0,
              "5": 0
            }
          }
        }
      ]
    },
    {
      "id": "6",
      "title": "PRESTIGE MENÜ um 32 €",
      "desc": "",
      "items": [
        {
          "type": "item",
          "title": "Eintrag",
          "desc": "Hausgemachte Foie Gras oder Rock Fischsuppe (HM) oder Rindfleisch Carpaccio Oder Platte Niçoise",
          "price": "0",
          "cover": "",
          "id": "0",
          "score": {
            "stars": 0,
            "votes": 0,
            "dist": {
              "1": 0,
              "2": 0,
              "3": 0,
              "4": 0,
              "5": 0
            }
          }
        },
        {
          "type": "item",
          "title": "Wohnung",
          "desc": "Kabeljau à la Niçoise oder Entenbrust Honig und Sesam oder Entrecote oder Lachs-Pavé",
          "price": "",
          "cover": "",
          "id": "1",
          "score": {
            "stars": 0,
            "votes": 0,
            "dist": {
              "1": 0,
              "2": 0,
              "3": 0,
              "4": 0,
              "5": 0
            }
          }
        },
        {
          "type": "item",
          "title": "Dessert",
          "desc": "Tiramisu oder milde Schokolade oder Dessert des Tages oder Eis / Sorbet oder Colonel Cup",
          "price": "",
          "cover": "",
          "id": "2",
          "score": {
            "stars": 0,
            "votes": 0,
            "dist": {
              "1": 0,
              "2": 0,
              "3": 0,
              "4": 0,
              "5": 0
            }
          }
        }
      ]
    },
    {
      "id": "7",
      "title": "MENÜ BEI 44,00 €",
      "desc": "",
      "items": [
        {
          "type": "item",
          "title": "Eintrag",
          "desc": "Hausgemachte Felsen Fischsuppe oder hausgemachte Foie gras oder Octopus Carpaccio oder geräucherter Lachs",
          "price": "",
          "cover": "",
          "id": "0",
          "score": {
            "stars": 0,
            "votes": 0,
            "dist": {
              "1": 0,
              "2": 0,
              "3": 0,
              "4": 0,
              "5": 0
            }
          }
        },
        {
          "type": "item",
          "title": "Wohnung",
          "desc": "Rinderfilet oder Lammrücken oder Wolfsbarsch oder Dorade",
          "price": "",
          "cover": "",
          "id": "1",
          "score": {
            "stars": 0,
            "votes": 0,
            "dist": {
              "1": 0,
              "2": 0,
              "3": 0,
              "4": 0,
              "5": 0
            }
          }
        },
        {
          "type": "item",
          "title": "Dessert",
          "desc": "zur Auswahl",
          "price": "",
          "cover": "",
          "id": "2",
          "score": {
            "stars": 0,
            "votes": 0,
            "dist": {
              "1": 0,
              "2": 0,
              "3": 0,
              "4": 0,
              "5": 0
            }
          }
        }
      ]
    },
    {
      "id": "8",
      "title": "Kindermenü um 12.50 €",
      "desc": "",
      "items": [
        {
          "type": "item",
          "title": "Wohnung",
          "desc": "Paniertes Schnitzel oder gehacktes gebratenes Steak",
          "price": "",
          "cover": "",
          "id": "0",
          "score": {
            "stars": 0,
            "votes": 0,
            "dist": {
              "1": 0,
              "2": 0,
              "3": 0,
              "4": 0,
              "5": 0
            }
          }
        },
        {
          "type": "item",
          "title": "Dessert",
          "desc": "Eiskugel",
          "price": "",
          "cover": "",
          "id": "1",
          "score": {
            "stars": 0,
            "votes": 0,
            "dist": {
              "1": 0,
              "2": 0,
              "3": 0,
              "4": 0,
              "5": 0
            }
          }
        }
      ]
    }
  ]
}
