{
  "pages": [
    {
      "id": "0",
      "title": "Die Rollen",
      "desc": "Allein oder in der Formel (+ 3 €)",
      "items": [
        {
          "type": "item",
          "title": "Hummer Roll",
          "desc": "Das Fleisch eines Hummers serviert in einer hausgemachten Brot Brioche, Butter und geröstet mit Isigny Butter (AOP) Original mit Zitronenbutter und frischen Kräutern, mit unserer geheimen Gewürzmischung. Estragon mit seiner hausgemachten Mayonnaise fein mit Estragon. Der Niçois mit seinem Haus Aïoli.",
          "price": "17",
          "cover": "",
          "id": "0",
          "score": {
            "stars": 0,
            "votes": 0,
            "dist": {
              "1": 0,
              "2": 0,
              "3": 0,
              "4": 0,
              "5": 0
            }
          }
        },
        {
          "type": "item",
          "title": "Lachsrolle",
          "desc": "Label Rouge Lachstartar auf unsere Art, mit kleinen Gewürzen und frischen Kräutern in einer hausgemachten Brioche, Butter und geröstet mit Isigny Butter (AOP)",
          "price": "13",
          "cover": "",
          "id": "1",
          "score": {
            "stars": 0,
            "votes": 0,
            "dist": {
              "1": 0,
              "2": 0,
              "3": 0,
              "4": 0,
              "5": 0
            }
          }
        },
        {
          "type": "item",
          "title": "Shrimps-Rolle",
          "desc": "Shrimps, hausgemachte leichte Mayonnaise mit Dill in einer hausgemachten Brot Brioche, Butter und geröstet mit Isigny Butter (AOP)",
          "price": "13",
          "cover": "",
          "id": "2",
          "score": {
            "stars": 0,
            "votes": 0,
            "dist": {
              "1": 0,
              "2": 0,
              "3": 0,
              "4": 0,
              "5": 0
            }
          }
        }
      ]
    },
    {
      "id": "1",
      "title": "UNSERE ANDEREN SPEZIALITÄTEN",
      "desc": "",
      "items": [
        {
          "type": "item",
          "title": "Gegrillter Hummer vom Hummer",
          "desc": "Das Fleisch eines Hummers wird in einem mit Butter bestrichenen Brot serviert, das mit Butter aus der Normandie von Isigny (PDO) und seinem zart geschmolzenen Cheddar-Käse geröstet und geröstet wird. Allein oder in Formel (+ 3 €)",
          "price": "18",
          "cover": "",
          "id": "0",
          "score": {
            "stars": 0,
            "votes": 0,
            "dist": {
              "1": 0,
              "2": 0,
              "3": 0,
              "4": 0,
              "5": 0
            }
          }
        },
        {
          "type": "item",
          "title": "Lobsta-Salat",
          "desc": "Hummer, Quinoa, Avocado, Kirschtomaten, einige Spinatsprossen, Brokkoli, geröstete Haselnüsse, gehackte Schalotten, Rotkohl, Radieschen, Zitrus-Vinaigrette. ... ohne Hummer (mit seinen weichen Eiern) 12 €",
          "price": "17",
          "cover": "",
          "id": "1",
          "score": {
            "stars": 0,
            "votes": 0,
            "dist": {
              "1": 0,
              "2": 0,
              "3": 0,
              "4": 0,
              "5": 0
            }
          }
        },
        {
          "type": "item",
          "title": "Lachstartar",
          "desc": "Label Rouge, unser Weg begleitet von grünem Salat",
          "price": "13",
          "cover": "",
          "id": "2",
          "score": {
            "stars": 0,
            "votes": 0,
            "dist": {
              "1": 0,
              "2": 0,
              "3": 0,
              "4": 0,
              "5": 0
            }
          }
        },
        {
          "type": "subcategory",
          "title": "Begleitungen",
          "desc": ""
        },
        {
          "type": "item",
          "title": "Natürliche Chips oder Wasabi-Chips",
          "desc": "",
          "price": "2,50",
          "cover": "",
          "id": "3",
          "score": {
            "stars": 0,
            "votes": 0,
            "dist": {
              "1": 0,
              "2": 0,
              "3": 0,
              "4": 0,
              "5": 0
            }
          }
        },
        {
          "type": "item",
          "title": "Socca-Chips®",
          "desc": "",
          "price": "2,5",
          "cover": "",
          "id": "4",
          "score": {
            "stars": 0,
            "votes": 0,
            "dist": {
              "1": 0,
              "2": 0,
              "3": 0,
              "4": 0,
              "5": 0
            }
          }
        },
        {
          "type": "item",
          "title": " Gemischter Salat",
          "desc": "",
          "price": "2,5",
          "cover": "",
          "id": "5",
          "score": {
            "stars": 0,
            "votes": 0,
            "dist": {
              "1": 0,
              "2": 0,
              "3": 0,
              "4": 0,
              "5": 0
            }
          }
        }
      ]
    },
    {
      "id": "2",
      "title": "UNSERE DESSERTS",
      "desc": "",
      "items": [
        {
          "type": "item",
          "title": "Hausgemachter Keks",
          "desc": "",
          "price": "2,50",
          "cover": "",
          "id": "0",
          "score": {
            "stars": 0,
            "votes": 0,
            "dist": {
              "1": 0,
              "2": 0,
              "3": 0,
              "4": 0,
              "5": 0
            }
          }
        },
        {
          "type": "item",
          "title": "Dessert des Tages",
          "desc": "",
          "price": "2,50",
          "cover": "",
          "id": "1",
          "score": {
            "stars": 0,
            "votes": 0,
            "dist": {
              "1": 0,
              "2": 0,
              "3": 0,
              "4": 0,
              "5": 0
            }
          }
        },
        {
          "type": "item",
          "title": "Handwerkliches Eis",
          "desc": "Vanille, Schokolade 85% Kakao, Erdbeer Carros, Himbeere, Pistazie",
          "price": "3,50",
          "cover": "",
          "id": "2",
          "score": {
            "stars": 0,
            "votes": 0,
            "dist": {
              "1": 0,
              "2": 0,
              "3": 0,
              "4": 0,
              "5": 0
            }
          }
        }
      ]
    },
    {
      "id": "3",
      "title": "GETRÄNKE",
      "desc": "",
      "items": [
        {
          "type": "item",
          "title": "Getränke, Softdrinks (33cl)",
          "desc": "Coca Cola, Coca Cola Null, Lipton Ice Tee, Schweppes, Orangina, Orangina Licht, Limonade, Perrier.",
          "price": "3",
          "cover": "",
          "id": "0",
          "score": {
            "stars": 0,
            "votes": 0,
            "dist": {
              "1": 0,
              "2": 0,
              "3": 0,
              "4": 0,
              "5": 0
            }
          }
        },
        {
          "type": "subcategory",
          "title": "Säfte und Zitrusfrüchte (33cl)",
          "desc": "Orange, Apfel, Tomate"
        },
        {
          "type": "item",
          "title": "Frische Fruchtsaftminute (30cl)",
          "desc": "(Abhängig von der Jahreszeit)",
          "price": "5",
          "cover": "",
          "id": "1",
          "score": {
            "stars": 0,
            "votes": 0,
            "dist": {
              "1": 0,
              "2": 0,
              "3": 0,
              "4": 0,
              "5": 0
            }
          }
        },
        {
          "type": "item",
          "title": "Wasser (50cl)",
          "desc": "Evian, San Pellegrino",
          "price": "2",
          "cover": "",
          "id": "2",
          "score": {
            "stars": 0,
            "votes": 0,
            "dist": {
              "1": 0,
              "2": 0,
              "3": 0,
              "4": 0,
              "5": 0
            }
          }
        },
        {
          "type": "item",
          "title": "Cafe",
          "desc": "",
          "price": "2",
          "cover": "",
          "id": "3",
          "score": {
            "stars": 0,
            "votes": 0,
            "dist": {
              "1": 0,
              "2": 0,
              "3": 0,
              "4": 0,
              "5": 0
            }
          }
        }
      ]
    },
    {
      "id": "4",
      "title": "Weine & Champagner, Bier",
      "desc": "(nach Schiefer) Alkoholmissbrauch ist gefährlich für Ihre Gesundheit, konsumieren Sie mit Mäßigung",
      "items": []
    }
  ]
}
