{
  "pages": [
    {
      "id": "0",
      "title": "Vorspeisen",
      "desc": "",
      "items": [
        {
          "type": "subcategory",
          "title": "kalte Einträge",
          "desc": ""
        },
        {
          "type": "item",
          "title": "Tzatziki",
          "desc": "Joghurt mit Gurken",
          "price": "7",
          "cover": "",
          "id": "0",
          "score": {
            "stars": 0,
            "votes": 0,
            "dist": {
              "1": 0,
              "2": 0,
              "3": 0,
              "4": 0,
              "5": 0
            }
          }
        },
        {
          "type": "item",
          "title": "melitzanosalata agios oros",
          "desc": "Gebackener geräucherter Auberginen-Cava, gekocht mit frischen Kräutern, Paprika und Feta-Käse",
          "price": "7",
          "cover": "",
          "id": "1",
          "score": {
            "stars": 0,
            "votes": 0,
            "dist": {
              "1": 0,
              "2": 0,
              "3": 0,
              "4": 0,
              "5": 0
            }
          }
        },
        {
          "type": "item",
          "title": "Feta",
          "desc": "Olivenöl, Oregano",
          "price": "8",
          "cover": "",
          "id": "2",
          "score": {
            "stars": 0,
            "votes": 0,
            "dist": {
              "1": 0,
              "2": 0,
              "3": 0,
              "4": 0,
              "5": 0
            }
          }
        },
        {
          "type": "item",
          "title": "dolmadakia",
          "desc": "Weinblätter gefüllt mit Reissorten mit griechischen Joghurts",
          "price": "12",
          "cover": "",
          "id": "3",
          "score": {
            "stars": 0,
            "votes": 0,
            "dist": {
              "1": 0,
              "2": 0,
              "3": 0,
              "4": 0,
              "5": 0
            }
          }
        },
        {
          "type": "item",
          "title": "Mama Probierschale",
          "desc": "Vielzahl von Mezzes",
          "price": "19",
          "cover": "",
          "id": "4",
          "score": {
            "stars": 0,
            "votes": 0,
            "dist": {
              "1": 0,
              "2": 0,
              "3": 0,
              "4": 0,
              "5": 0
            }
          }
        },
        {
          "type": "subcategory",
          "title": "heiße Hors d'oeuvres",
          "desc": ""
        },
        {
          "type": "item",
          "title": "Hautkartoffeln",
          "desc": "Ofenkartoffeln, Mytilene Olivenöl und Kräuter",
          "price": "8",
          "cover": "",
          "id": "5",
          "score": {
            "stars": 0,
            "votes": 0,
            "dist": {
              "1": 0,
              "2": 0,
              "3": 0,
              "4": 0,
              "5": 0
            }
          }
        },
        {
          "type": "item",
          "title": "Pastourma Bourek",
          "desc": "Feuilleten mit Käse und Wurstwaren aus würzigem Rindfleisch",
          "price": "11,90",
          "cover": "",
          "id": "6",
          "score": {
            "stars": 0,
            "votes": 0,
            "dist": {
              "1": 0,
              "2": 0,
              "3": 0,
              "4": 0,
              "5": 0
            }
          }
        },
        {
          "type": "item",
          "title": "spanakopita",
          "desc": "Blätterteiggebäck mit Spinat und Fetakäse",
          "price": "11,90",
          "cover": "",
          "id": "7",
          "score": {
            "stars": 0,
            "votes": 0,
            "dist": {
              "1": 0,
              "2": 0,
              "3": 0,
              "4": 0,
              "5": 0
            }
          }
        },
        {
          "type": "item",
          "title": "vegetarische Platte",
          "desc": "gegrilltes Gemüse, Balsamico-Sauce",
          "price": "12,9",
          "cover": "",
          "id": "8",
          "score": {
            "stars": 0,
            "votes": 0,
            "dist": {
              "1": 0,
              "2": 0,
              "3": 0,
              "4": 0,
              "5": 0
            }
          }
        },
        {
          "type": "item",
          "title": "Halloumi am Grill",
          "desc": "Käse von der Insel Zypern serviert mit gegrilltem Gemüse",
          "price": "14",
          "cover": "",
          "id": "9",
          "score": {
            "stars": 0,
            "votes": 0,
            "dist": {
              "1": 0,
              "2": 0,
              "3": 0,
              "4": 0,
              "5": 0
            }
          }
        },
        {
          "type": "item",
          "title": "Koch Feta",
          "desc": "gebackener Feta-Käse, Tomaten, Oliven, Peperoni, Pitabrot",
          "price": "14",
          "cover": "",
          "id": "10",
          "score": {
            "stars": 0,
            "votes": 0,
            "dist": {
              "1": 0,
              "2": 0,
              "3": 0,
              "4": 0,
              "5": 0
            }
          }
        }
      ]
    },
    {
      "id": "1",
      "title": "Salate",
      "desc": "",
      "items": [
        {
          "type": "item",
          "title": "Griechisch",
          "desc": "(klassische Ausgabe)",
          "price": "14. 50",
          "cover": "",
          "id": "0",
          "score": {
            "stars": 0,
            "votes": 0,
            "dist": {
              "1": 0,
              "2": 0,
              "3": 0,
              "4": 0,
              "5": 0
            }
          }
        },
        {
          "type": "item",
          "title": "Nizza",
          "desc": "",
          "price": "14,50",
          "cover": "",
          "id": "1",
          "score": {
            "stars": 0,
            "votes": 0,
            "dist": {
              "1": 0,
              "2": 0,
              "3": 0,
              "4": 0,
              "5": 0
            }
          }
        },
        {
          "type": "item",
          "title": "heißer Ziegensalat",
          "desc": "",
          "price": "15,00",
          "cover": "",
          "id": "2",
          "score": {
            "stars": 0,
            "votes": 0,
            "dist": {
              "1": 0,
              "2": 0,
              "3": 0,
              "4": 0,
              "5": 0
            }
          }
        },
        {
          "type": "item",
          "title": "Räucherlachs-Salat",
          "desc": "Räucherlachs",
          "price": "15,50",
          "cover": "",
          "id": "3",
          "score": {
            "stars": 0,
            "votes": 0,
            "dist": {
              "1": 0,
              "2": 0,
              "3": 0,
              "4": 0,
              "5": 0
            }
          }
        },
        {
          "type": "item",
          "title": "Salat Mama",
          "desc": "Hähnchenspieße im Speckmantel, gegrilltes Gemüse, gedämpfte Kartoffeln und Käse",
          "price": "16 00",
          "cover": "",
          "id": "4",
          "score": {
            "stars": 0,
            "votes": 0,
            "dist": {
              "1": 0,
              "2": 0,
              "3": 0,
              "4": 0,
              "5": 0
            }
          }
        }
      ]
    },
    {
      "id": "2",
      "title": "Hühnerfreuden",
      "desc": "",
      "items": [
        {
          "type": "item",
          "title": "Hühnchen Souvlaki",
          "desc": "Hühnerspieße. / Huhn Schaschlik.",
          "price": "15,00",
          "cover": "",
          "id": "0",
          "score": {
            "stars": 0,
            "votes": 0,
            "dist": {
              "1": 0,
              "2": 0,
              "3": 0,
              "4": 0,
              "5": 0
            }
          }
        },
        {
          "type": "item",
          "title": "Hühnchen Souvlaki - Speck",
          "desc": "Hähnchenfiletspieße in knusprigem Speck, Pitabrot, Hautkartoffeln, Tomate, Zwiebel, Dijonsauce",
          "price": "15,9",
          "cover": "",
          "id": "1",
          "score": {
            "stars": 0,
            "votes": 0,
            "dist": {
              "1": 0,
              "2": 0,
              "3": 0,
              "4": 0,
              "5": 0
            }
          }
        },
        {
          "type": "item",
          "title": "Hühnerpylion",
          "desc": "Hähnchenfilets, serviert mit Käse, tricolor Paprika, Hautkartoffeln, Grapefruit Vinaigrette",
          "price": "16,9",
          "cover": "",
          "id": "2",
          "score": {
            "stars": 0,
            "votes": 0,
            "dist": {
              "1": 0,
              "2": 0,
              "3": 0,
              "4": 0,
              "5": 0
            }
          }
        },
        {
          "type": "item",
          "title": "Kassianis Huhn",
          "desc": "grillfreie Hähnchenschenkel mariniert mit hausgemachten Kartoffelbrei, gegrillte Paprika",
          "price": "15,9",
          "cover": "",
          "id": "3",
          "score": {
            "stars": 0,
            "votes": 0,
            "dist": {
              "1": 0,
              "2": 0,
              "3": 0,
              "4": 0,
              "5": 0
            }
          }
        }
      ]
    },
    {
      "id": "3",
      "title": "Fleisch",
      "desc": "",
      "items": [
        {
          "type": "item",
          "title": "Souvlaki Thessalonikis",
          "desc": "marinierte Schweinespieße",
          "price": "15,00",
          "cover": "",
          "id": "0",
          "score": {
            "stars": 0,
            "votes": 0,
            "dist": {
              "1": 0,
              "2": 0,
              "3": 0,
              "4": 0,
              "5": 0
            }
          }
        },
        {
          "type": "item",
          "title": "Souvlaki-Mix",
          "desc": "marinierte Schweine- und Hähnchenspieße",
          "price": "16,00",
          "cover": "",
          "id": "1",
          "score": {
            "stars": 0,
            "votes": 0,
            "dist": {
              "1": 0,
              "2": 0,
              "3": 0,
              "4": 0,
              "5": 0
            }
          }
        },
        {
          "type": "item",
          "title": "Steaksteak",
          "desc": "Pilz-Sahne-Sauce",
          "price": "21,90",
          "cover": "",
          "id": "2",
          "score": {
            "stars": 0,
            "votes": 0,
            "dist": {
              "1": 0,
              "2": 0,
              "3": 0,
              "4": 0,
              "5": 0
            }
          }
        },
        {
          "type": "item",
          "title": "Grillmischung",
          "desc": "2 Personen Minimum",
          "price": "59",
          "cover": "",
          "id": "3",
          "score": {
            "stars": 0,
            "votes": 0,
            "dist": {
              "1": 0,
              "2": 0,
              "3": 0,
              "4": 0,
              "5": 0
            }
          }
        }
      ]
    },
    {
      "id": "4",
      "title": "traditionelle Gerichte",
      "desc": "",
      "items": [
        {
          "type": "item",
          "title": "Spetsofai Pylio",
          "desc": "Handwerker Wurst mit dreifarbigen Paprika, Zucchini und Auberginen und Tomatensauce mit Basilikum serviert mit hausgemachten Kartoffelbrei gezupft",
          "price": "15,00",
          "cover": "",
          "id": "0",
          "score": {
            "stars": 0,
            "votes": 0,
            "dist": {
              "1": 0,
              "2": 0,
              "3": 0,
              "4": 0,
              "5": 0
            }
          }
        },
        {
          "type": "item",
          "title": "Moussaka",
          "desc": "ursprüngliches Griechisch",
          "price": "16",
          "cover": "",
          "id": "1",
          "score": {
            "stars": 0,
            "votes": 0,
            "dist": {
              "1": 0,
              "2": 0,
              "3": 0,
              "4": 0,
              "5": 0
            }
          }
        }
      ]
    },
    {
      "id": "5",
      "title": "Hackfleischgerichte",
      "desc": "",
      "items": [
        {
          "type": "item",
          "title": "keftedakia tis mamas",
          "desc": "Fleischbällchen von Rindfleisch und Rindfleisch und Lammfleischbällchen.",
          "price": "14,5",
          "cover": "",
          "id": "0",
          "score": {
            "stars": 0,
            "votes": 0,
            "dist": {
              "1": 0,
              "2": 0,
              "3": 0,
              "4": 0,
              "5": 0
            }
          }
        },
        {
          "type": "item",
          "title": "Keftedes Giagia Marika",
          "desc": "Rindfleischknödel und Portwein. / Rindfleisch und Schweinefleisch Frikadellen.",
          "price": "14,5",
          "cover": "",
          "id": "1",
          "score": {
            "stars": 0,
            "votes": 0,
            "dist": {
              "1": 0,
              "2": 0,
              "3": 0,
              "4": 0,
              "5": 0
            }
          }
        },
        {
          "type": "item",
          "title": "das Gericht von Aristi",
          "desc": "Beef Kebabs, mariniert mit frischen Kräutern und Paprika",
          "price": "1 6",
          "cover": "",
          "id": "2",
          "score": {
            "stars": 0,
            "votes": 0,
            "dist": {
              "1": 0,
              "2": 0,
              "3": 0,
              "4": 0,
              "5": 0
            }
          }
        },
        {
          "type": "item",
          "title": "bifteki Mama - Papillote",
          "desc": "flauschiges Beefsteak gefüllt mit Fetakäse und frischer Tomate, in Papilla mit Gemüse gekocht",
          "price": "17",
          "cover": "",
          "id": "3",
          "score": {
            "stars": 0,
            "votes": 0,
            "dist": {
              "1": 0,
              "2": 0,
              "3": 0,
              "4": 0,
              "5": 0
            }
          }
        }
      ]
    },
    {
      "id": "6",
      "title": "Meerseite",
      "desc": "",
      "items": [
        {
          "type": "item",
          "title": "Mama Muscheln",
          "desc": "Weißwein, Knoblauch, Senf, Paprika, frische Zitrone, Kräuter und Feta Flocken",
          "price": "16",
          "cover": "",
          "id": "0",
          "score": {
            "stars": 0,
            "votes": 0,
            "dist": {
              "1": 0,
              "2": 0,
              "3": 0,
              "4": 0,
              "5": 0
            }
          }
        },
        {
          "type": "item",
          "title": "Oktopus von Plomari",
          "desc": "mit Honigvinaigrette, Karamellzwiebeln sautiert",
          "price": "9,5",
          "cover": "",
          "id": "1",
          "score": {
            "stars": 0,
            "votes": 0,
            "dist": {
              "1": 0,
              "2": 0,
              "3": 0,
              "4": 0,
              "5": 0
            }
          }
        },
        {
          "type": "item",
          "title": "gegrillter Lachs (Kopfsteinpflaster)",
          "desc": "",
          "price": "18",
          "cover": "",
          "id": "2",
          "score": {
            "stars": 0,
            "votes": 0,
            "dist": {
              "1": 0,
              "2": 0,
              "3": 0,
              "4": 0,
              "5": 0
            }
          }
        },
        {
          "type": "item",
          "title": "sautierter Tintenfisch",
          "desc": "",
          "price": "19",
          "cover": "",
          "id": "3",
          "score": {
            "stars": 0,
            "votes": 0,
            "dist": {
              "1": 0,
              "2": 0,
              "3": 0,
              "4": 0,
              "5": 0
            }
          }
        },
        {
          "type": "item",
          "title": "Saganaki aus dem Meer",
          "desc": "sautierte Meeresfrüchte",
          "price": "19,50 $",
          "cover": "",
          "id": "4",
          "score": {
            "stars": 0,
            "votes": 0,
            "dist": {
              "1": 0,
              "2": 0,
              "3": 0,
              "4": 0,
              "5": 0
            }
          }
        },
        {
          "type": "item",
          "title": "gegrillte Garnelen",
          "desc": "",
          "price": "22,00",
          "cover": "",
          "id": "5",
          "score": {
            "stars": 0,
            "votes": 0,
            "dist": {
              "1": 0,
              "2": 0,
              "3": 0,
              "4": 0,
              "5": 0
            }
          }
        }
      ]
    },
    {
      "id": "7",
      "title": "Pasta",
      "desc": "",
      "items": [
        {
          "type": "item",
          "title": "naxos",
          "desc": "Linguini mit Kirschtomaten und frischen Tomaten, Basilikum",
          "price": "14",
          "cover": "",
          "id": "0",
          "score": {
            "stars": 0,
            "votes": 0,
            "dist": {
              "1": 0,
              "2": 0,
              "3": 0,
              "4": 0,
              "5": 0
            }
          }
        },
        {
          "type": "item",
          "title": "symi",
          "desc": "Linguini mit Pilzcreme",
          "price": "16,00",
          "cover": "",
          "id": "1",
          "score": {
            "stars": 0,
            "votes": 0,
            "dist": {
              "1": 0,
              "2": 0,
              "3": 0,
              "4": 0,
              "5": 0
            }
          }
        },
        {
          "type": "item",
          "title": "mykonos",
          "desc": "Linguine des Meeres, frische Tomatensauce und Basilikum",
          "price": "23,00",
          "cover": "",
          "id": "2",
          "score": {
            "stars": 0,
            "votes": 0,
            "dist": {
              "1": 0,
              "2": 0,
              "3": 0,
              "4": 0,
              "5": 0
            }
          }
        }
      ]
    },
    {
      "id": "8",
      "title": "Pizza",
      "desc": "",
      "items": [
        {
          "type": "item",
          "title": "Margarita Margaro",
          "desc": "Mozzarella, knackige Gruyère und karamellisierte Tomaten",
          "price": "12",
          "cover": "",
          "id": "0",
          "score": {
            "stars": 0,
            "votes": 0,
            "dist": {
              "1": 0,
              "2": 0,
              "3": 0,
              "4": 0,
              "5": 0
            }
          }
        },
        {
          "type": "item",
          "title": "Griechische Pizza",
          "desc": "Feta, Mozzarella, Oliven, Paprika, Zwiebeln, Champignons, Kirschtomaten, frischer Thymian, Oregano, Basilikumsauce",
          "price": "13",
          "cover": "",
          "id": "1",
          "score": {
            "stars": 0,
            "votes": 0,
            "dist": {
              "1": 0,
              "2": 0,
              "3": 0,
              "4": 0,
              "5": 0
            }
          }
        },
        {
          "type": "item",
          "title": "Melitzana-Pizza",
          "desc": "Auberginen, Feta, Knoblauch, Kräuter und Tomatensauce",
          "price": "13",
          "cover": "",
          "id": "2",
          "score": {
            "stars": 0,
            "votes": 0,
            "dist": {
              "1": 0,
              "2": 0,
              "3": 0,
              "4": 0,
              "5": 0
            }
          }
        },
        {
          "type": "item",
          "title": "Pizza Mama",
          "desc": "weißer Schinken, Speck, Mozzarella, Gruyere Crete, Champignons, Tomatensauce mit Basilikum",
          "price": "16,00",
          "cover": "",
          "id": "3",
          "score": {
            "stars": 0,
            "votes": 0,
            "dist": {
              "1": 0,
              "2": 0,
              "3": 0,
              "4": 0,
              "5": 0
            }
          }
        }
      ]
    },
    {
      "id": "9",
      "title": "Kindergerichte",
      "desc": "",
      "items": [
        {
          "type": "item",
          "title": "Hacksteak",
          "desc": "Hacksteak mit Grill, Hautkartoffeln, Ketchup.",
          "price": "9,9",
          "cover": "",
          "id": "0",
          "score": {
            "stars": 0,
            "votes": 0,
            "dist": {
              "1": 0,
              "2": 0,
              "3": 0,
              "4": 0,
              "5": 0
            }
          }
        },
        {
          "type": "item",
          "title": "Butter Penne",
          "desc": "Penne mit Butter und Käse oder Tomatensauce.",
          "price": "9,9",
          "cover": "",
          "id": "1",
          "score": {
            "stars": 0,
            "votes": 0,
            "dist": {
              "1": 0,
              "2": 0,
              "3": 0,
              "4": 0,
              "5": 0
            }
          }
        }
      ]
    },
    {
      "id": "10",
      "title": "Burger",
      "desc": "",
      "items": [
        {
          "type": "item",
          "title": "Cheeseburger",
          "desc": "gehacktes Rindersteak, Emmentaler, Tomate, Salat, karamellisierte Zwiebeln, Dijonsauce",
          "price": "14",
          "cover": "",
          "id": "0",
          "score": {
            "stars": 0,
            "votes": 0,
            "dist": {
              "1": 0,
              "2": 0,
              "3": 0,
              "4": 0,
              "5": 0
            }
          }
        },
        {
          "type": "item",
          "title": "Hühnchen Burger",
          "desc": "gegrilltes Hähnchenfilet, Tomaten, Salat, frische Zwiebeln und karamellisierte Zwiebeln und Dijonsauce",
          "price": "14",
          "cover": "",
          "id": "1",
          "score": {
            "stars": 0,
            "votes": 0,
            "dist": {
              "1": 0,
              "2": 0,
              "3": 0,
              "4": 0,
              "5": 0
            }
          }
        },
        {
          "type": "item",
          "title": "Mama Burger",
          "desc": "Gehacktes Rindersteak, gefüllt mit Feta, frischen Tomaten, Speck, frischen Zwiebeln und karamellisierten Zwiebeln, Spiegelei und Dijonsauce",
          "price": "17",
          "cover": "",
          "id": "2",
          "score": {
            "stars": 0,
            "votes": 0,
            "dist": {
              "1": 0,
              "2": 0,
              "3": 0,
              "4": 0,
              "5": 0
            }
          }
        }
      ]
    },
    {
      "id": "11",
      "title": "Extras",
      "desc": "",
      "items": [
        {
          "type": "item",
          "title": "Sauce",
          "desc": "",
          "price": "2",
          "cover": "",
          "id": "0",
          "score": {
            "stars": 0,
            "votes": 0,
            "dist": {
              "1": 0,
              "2": 0,
              "3": 0,
              "4": 0,
              "5": 0
            }
          }
        },
        {
          "type": "item",
          "title": "Pitabrot",
          "desc": "",
          "price": "1",
          "cover": "",
          "id": "1",
          "score": {
            "stars": 0,
            "votes": 0,
            "dist": {
              "1": 0,
              "2": 0,
              "3": 0,
              "4": 0,
              "5": 0
            }
          }
        }
      ]
    },
    {
      "id": "12",
      "title": "Desserts",
      "desc": "",
      "items": [
        {
          "type": "item",
          "title": "Griechischer Joghurt mit Honig und Nüssen",
          "desc": "",
          "price": "7,9",
          "cover": "",
          "id": "0",
          "score": {
            "stars": 0,
            "votes": 0,
            "dist": {
              "1": 0,
              "2": 0,
              "3": 0,
              "4": 0,
              "5": 0
            }
          }
        },
        {
          "type": "item",
          "title": "Griechischer Joghurt mit Kirschmarmelade",
          "desc": "",
          "price": "7,9",
          "cover": "",
          "id": "1",
          "score": {
            "stars": 0,
            "votes": 0,
            "dist": {
              "1": 0,
              "2": 0,
              "3": 0,
              "4": 0,
              "5": 0
            }
          }
        },
        {
          "type": "item",
          "title": "das Baklava",
          "desc": "Pasta mit Mandeln, Walnüssen und Honig",
          "price": "7,9",
          "cover": "",
          "id": "2",
          "score": {
            "stars": 0,
            "votes": 0,
            "dist": {
              "1": 0,
              "2": 0,
              "3": 0,
              "4": 0,
              "5": 0
            }
          }
        },
        {
          "type": "item",
          "title": "Nachtisch des Tages",
          "desc": "",
          "price": "7,9",
          "cover": "",
          "id": "3",
          "score": {
            "stars": 0,
            "votes": 0,
            "dist": {
              "1": 0,
              "2": 0,
              "3": 0,
              "4": 0,
              "5": 0
            }
          }
        }
      ]
    }
  ]
}
