{
  "pages": [
    {
      "id": "0",
      "title": "Eingänge",
      "desc": "",
      "items": [
        {
          "type": "item",
          "title": "parmigiana",
          "desc": "Aubergine, Tomatensauce, Käse, Pecorino, Grana, Basilikum",
          "price": "15",
          "cover": "",
          "id": "0",
          "score": {
            "stars": 0,
            "votes": 0,
            "dist": {
              "1": 0,
              "2": 0,
              "3": 0,
              "4": 0,
              "5": 0
            }
          }
        },
        {
          "type": "item",
          "title": "Ratatouille Siciliana",
          "desc": "Auberginen, Paprika, Zwiebeln, Rosinen, Pinienkernen, Tomaten, süß und sauer",
          "price": "15",
          "cover": "",
          "id": "1",
          "score": {
            "stars": 0,
            "votes": 0,
            "dist": {
              "1": 0,
              "2": 0,
              "3": 0,
              "4": 0,
              "5": 0
            }
          }
        },
        {
          "type": "item",
          "title": "Caprese von Bufala",
          "desc": "Tomaten, Salat, Bufala, Schinken, Basilikum",
          "price": "17,5",
          "cover": "",
          "id": "2",
          "score": {
            "stars": 0,
            "votes": 0,
            "dist": {
              "1": 0,
              "2": 0,
              "3": 0,
              "4": 0,
              "5": 0
            }
          }
        },
        {
          "type": "item",
          "title": "burrata",
          "desc": "Mit Rucola, Kirschtomaten, Sardellen, Grana",
          "price": "17,5",
          "cover": "",
          "id": "3",
          "score": {
            "stars": 0,
            "votes": 0,
            "dist": {
              "1": 0,
              "2": 0,
              "3": 0,
              "4": 0,
              "5": 0
            }
          }
        }
      ]
    },
    {
      "id": "1",
      "title": "Bruschette",
      "desc": "Unsere Bruschetten werden aus hausgemachtem, mit Knoblauch eingeriebenem Brot hergestellt",
      "items": [
        {
          "type": "item",
          "title": "Der Klassiker",
          "desc": "Tomaten, Olivenöl, Oregano",
          "price": "9",
          "cover": "",
          "id": "0",
          "score": {
            "stars": 0,
            "votes": 0,
            "dist": {
              "1": 0,
              "2": 0,
              "3": 0,
              "4": 0,
              "5": 0
            }
          }
        },
        {
          "type": "item",
          "title": "Käse (Bufala)",
          "desc": "Kirschtomaten, Mozzarella di Bufala, Olivenöl, Oregano",
          "price": "12,5",
          "cover": "",
          "id": "1",
          "score": {
            "stars": 0,
            "votes": 0,
            "dist": {
              "1": 0,
              "2": 0,
              "3": 0,
              "4": 0,
              "5": 0
            }
          }
        },
        {
          "type": "item",
          "title": "Das Gemüse",
          "desc": "Kirschtomaten, Mozzarella di Bufala, gegrilltes Gemüse",
          "price": "13,5",
          "cover": "",
          "id": "2",
          "score": {
            "stars": 0,
            "votes": 0,
            "dist": {
              "1": 0,
              "2": 0,
              "3": 0,
              "4": 0,
              "5": 0
            }
          }
        },
        {
          "type": "item",
          "title": "Roher Schinken",
          "desc": "Kirschtomaten, Mozzarella di Bufala, roher Schinken",
          "price": "14,5",
          "cover": "",
          "id": "3",
          "score": {
            "stars": 0,
            "votes": 0,
            "dist": {
              "1": 0,
              "2": 0,
              "3": 0,
              "4": 0,
              "5": 0
            }
          }
        }
      ]
    },
    {
      "id": "2",
      "title": "Pasta",
      "desc": "",
      "items": [
        {
          "type": "item",
          "title": "Bellini",
          "desc": "Strozzapreti, Tomatensauce, Auberginen, Ricotta und Basilikum",
          "price": "16,5",
          "cover": "",
          "id": "0",
          "score": {
            "stars": 0,
            "votes": 0,
            "dist": {
              "1": 0,
              "2": 0,
              "3": 0,
              "4": 0,
              "5": 0
            }
          }
        },
        {
          "type": "item",
          "title": "Gnocchi-Anwesen",
          "desc": "Gnocchi, Räucherlachs, Kirschtomaten, Basilikumpesto",
          "price": "17,5",
          "cover": "",
          "id": "1",
          "score": {
            "stars": 0,
            "votes": 0,
            "dist": {
              "1": 0,
              "2": 0,
              "3": 0,
              "4": 0,
              "5": 0
            }
          }
        },
        {
          "type": "item",
          "title": "Risotto Nord-Süd",
          "desc": "Risotto, Pistaziencreme, Speck, Grana",
          "price": "19,5",
          "cover": "",
          "id": "2",
          "score": {
            "stars": 0,
            "votes": 0,
            "dist": {
              "1": 0,
              "2": 0,
              "3": 0,
              "4": 0,
              "5": 0
            }
          }
        },
        {
          "type": "item",
          "title": "Spaghetti Veraci",
          "desc": "Spaghetti, Venusmuscheln, Knoblauch, Petersilie",
          "price": "19,5",
          "cover": "",
          "id": "3",
          "score": {
            "stars": 0,
            "votes": 0,
            "dist": {
              "1": 0,
              "2": 0,
              "3": 0,
              "4": 0,
              "5": 0
            }
          }
        },
        {
          "type": "item",
          "title": "Tagliatelle « Carbonara des Meeres'",
          "desc": "Tagliatelle, Garnelen, Auberginen, Kirschtomaten, Ei, Grana",
          "price": "19,5",
          "cover": "",
          "id": "4",
          "score": {
            "stars": 0,
            "votes": 0,
            "dist": {
              "1": 0,
              "2": 0,
              "3": 0,
              "4": 0,
              "5": 0
            }
          }
        }
      ]
    },
    {
      "id": "3",
      "title": "Hauptgericht",
      "desc": "",
      "items": [
        {
          "type": "subcategory",
          "title": "Fleisch / Carne",
          "desc": ""
        },
        {
          "type": "item",
          "title": "Italienisches Tartar",
          "desc": "Rindfleisch, Ei, Kapern, schwarze Oliven, getrocknete Tomaten, Zwiebeln und Grana",
          "price": "19",
          "cover": "",
          "id": "0",
          "score": {
            "stars": 0,
            "votes": 0,
            "dist": {
              "1": 0,
              "2": 0,
              "3": 0,
              "4": 0,
              "5": 0
            }
          }
        },
        {
          "type": "item",
          "title": "Carpaccio schönes Baby",
          "desc": "Carpaccio von Rindfleisch, Rucola, Artischocken, getrockneten Tomaten, Grana",
          "price": "19,5",
          "cover": "",
          "id": "1",
          "score": {
            "stars": 0,
            "votes": 0,
            "dist": {
              "1": 0,
              "2": 0,
              "3": 0,
              "4": 0,
              "5": 0
            }
          }
        },
        {
          "type": "item",
          "title": "Rindfleisch Tagliata",
          "desc": "Gegrilltes Rindfleisch, Rucola, Kirschtomaten, Grana",
          "price": "26",
          "cover": "",
          "id": "2",
          "score": {
            "stars": 0,
            "votes": 0,
            "dist": {
              "1": 0,
              "2": 0,
              "3": 0,
              "4": 0,
              "5": 0
            }
          }
        }
      ]
    },
    {
      "id": "4",
      "title": "Fische",
      "desc": "",
      "items": [
        {
          "type": "item",
          "title": "Oktopussalat",
          "desc": "Tintenfisch, Oliven, Kapern, getrocknete Tomaten, Karotten, Sellerie, Basilikum",
          "price": "18",
          "cover": "",
          "id": "0",
          "score": {
            "stars": 0,
            "votes": 0,
            "dist": {
              "1": 0,
              "2": 0,
              "3": 0,
              "4": 0,
              "5": 0
            }
          }
        },
        {
          "type": "item",
          "title": "Gegrilltes Dorado-Filet",
          "desc": "Mit Gourmet-Salat",
          "price": "18",
          "cover": "",
          "id": "1",
          "score": {
            "stars": 0,
            "votes": 0,
            "dist": {
              "1": 0,
              "2": 0,
              "3": 0,
              "4": 0,
              "5": 0
            }
          }
        },
        {
          "type": "item",
          "title": "Thunfischsteak mit Sesam",
          "desc": "Sesam gegrillte Thunfisch mit sizilianischen Ratatouille",
          "price": "22,5",
          "cover": "",
          "id": "2",
          "score": {
            "stars": 0,
            "votes": 0,
            "dist": {
              "1": 0,
              "2": 0,
              "3": 0,
              "4": 0,
              "5": 0
            }
          }
        },
        {
          "type": "item",
          "title": "gegrillte Garnelen",
          "desc": "9 Gambas, Salat, gegrilltes Gemüse",
          "price": "25",
          "cover": "",
          "id": "3",
          "score": {
            "stars": 0,
            "votes": 0,
            "dist": {
              "1": 0,
              "2": 0,
              "3": 0,
              "4": 0,
              "5": 0
            }
          }
        },
        {
          "type": "item",
          "title": "Gebratener Fisch",
          "desc": "Gebratene Gambas, Tintenfisch und Zucchini mit Salat",
          "price": "26,5",
          "cover": "",
          "id": "4",
          "score": {
            "stars": 0,
            "votes": 0,
            "dist": {
              "1": 0,
              "2": 0,
              "3": 0,
              "4": 0,
              "5": 0
            }
          }
        }
      ]
    },
    {
      "id": "5",
      "title": "Salate",
      "desc": "",
      "items": [
        {
          "type": "item",
          "title": "Capo molini",
          "desc": "Mesclun Salat, Öl Thunfisch, gegrillte Zucchini, getrocknete Tomaten, Artischocken, gesalzener weißer Käse",
          "price": "14,5",
          "cover": "",
          "id": "0",
          "score": {
            "stars": 0,
            "votes": 0,
            "dist": {
              "1": 0,
              "2": 0,
              "3": 0,
              "4": 0,
              "5": 0
            }
          }
        },
        {
          "type": "item",
          "title": "Tiepida",
          "desc": "Puffreispizza, Rucola, Mozzarella di Bufala, Kirschtomaten, roher Schinken und Grana copaux",
          "price": "16,5",
          "cover": "",
          "id": "1",
          "score": {
            "stars": 0,
            "votes": 0,
            "dist": {
              "1": 0,
              "2": 0,
              "3": 0,
              "4": 0,
              "5": 0
            }
          }
        },
        {
          "type": "item",
          "title": "Sommersalat",
          "desc": "Mesclun Salat, Ei, Oingon, Räucherlachs, Kirschtomaten",
          "price": "18",
          "cover": "",
          "id": "2",
          "score": {
            "stars": 0,
            "votes": 0,
            "dist": {
              "1": 0,
              "2": 0,
              "3": 0,
              "4": 0,
              "5": 0
            }
          }
        }
      ]
    },
    {
      "id": "6",
      "title": "Pizza",
      "desc": "",
      "items": [
        {
          "type": "subcategory",
          "title": "Klassische Pizzas",
          "desc": ""
        },
        {
          "type": "item",
          "title": "Marinara",
          "desc": "Tomaten, Knoblauch, Oregano",
          "price": "9,5",
          "cover": "",
          "id": "0",
          "score": {
            "stars": 0,
            "votes": 0,
            "dist": {
              "1": 0,
              "2": 0,
              "3": 0,
              "4": 0,
              "5": 0
            }
          }
        },
        {
          "type": "item",
          "title": "Margherita",
          "desc": "Tomaten, Mozzarella, Basilikum, natives Olivenöl",
          "price": "10",
          "cover": "",
          "id": "1",
          "score": {
            "stars": 0,
            "votes": 0,
            "dist": {
              "1": 0,
              "2": 0,
              "3": 0,
              "4": 0,
              "5": 0
            }
          }
        },
        {
          "type": "item",
          "title": "Neapel",
          "desc": "Tomaten, Mozzarella, schwarze Oliven, Sardellen, Kapern",
          "price": "12,5",
          "cover": "",
          "id": "2",
          "score": {
            "stars": 0,
            "votes": 0,
            "dist": {
              "1": 0,
              "2": 0,
              "3": 0,
              "4": 0,
              "5": 0
            }
          }
        },
        {
          "type": "item",
          "title": "Thunfisch und Zwiebeln",
          "desc": "Tomaten, Mozzarella, Thunfisch, rote Zwiebeln",
          "price": "13",
          "cover": "",
          "id": "3",
          "score": {
            "stars": 0,
            "votes": 0,
            "dist": {
              "1": 0,
              "2": 0,
              "3": 0,
              "4": 0,
              "5": 0
            }
          }
        },
        {
          "type": "item",
          "title": "Norma",
          "desc": "Tomaten, Mozzarella, Auberginen, Ricotta gesalzen",
          "price": "13,5",
          "cover": "",
          "id": "4",
          "score": {
            "stars": 0,
            "votes": 0,
            "dist": {
              "1": 0,
              "2": 0,
              "3": 0,
              "4": 0,
              "5": 0
            }
          }
        },
        {
          "type": "item",
          "title": "Königin",
          "desc": "Tomaten, Mozzarella, Schinken, Ei, Pilze, schwarze Oliven",
          "price": "13,5",
          "cover": "",
          "id": "5",
          "score": {
            "stars": 0,
            "votes": 0,
            "dist": {
              "1": 0,
              "2": 0,
              "3": 0,
              "4": 0,
              "5": 0
            }
          }
        },
        {
          "type": "item",
          "title": "Das würzige",
          "desc": "Tomaten, Mozzarella, heiße Wurst, rote Zwiebeln, Rucola, Grana",
          "price": "14,5",
          "cover": "",
          "id": "6",
          "score": {
            "stars": 0,
            "votes": 0,
            "dist": {
              "1": 0,
              "2": 0,
              "3": 0,
              "4": 0,
              "5": 0
            }
          }
        },
        {
          "type": "item",
          "title": "Italien Rohschinken",
          "desc": "Tomaten, Mozzarella, Rucola, roher Schinken, Grana",
          "price": "15",
          "cover": "",
          "id": "7",
          "score": {
            "stars": 0,
            "votes": 0,
            "dist": {
              "1": 0,
              "2": 0,
              "3": 0,
              "4": 0,
              "5": 0
            }
          }
        },
        {
          "type": "item",
          "title": "Vegetarier",
          "desc": "Tomaten, Mozzarella, Pilze, Auberginen, Crunches",
          "price": "15",
          "cover": "",
          "id": "8",
          "score": {
            "stars": 0,
            "votes": 0,
            "dist": {
              "1": 0,
              "2": 0,
              "3": 0,
              "4": 0,
              "5": 0
            }
          }
        },
        {
          "type": "subcategory",
          "title": "Weiße Pizza",
          "desc": ""
        },
        {
          "type": "item",
          "title": "Biancaneve",
          "desc": "Mozzarella, Oregano, Olivenöl",
          "price": "9,5",
          "cover": "",
          "id": "9",
          "score": {
            "stars": 0,
            "votes": 0,
            "dist": {
              "1": 0,
              "2": 0,
              "3": 0,
              "4": 0,
              "5": 0
            }
          }
        },
        {
          "type": "item",
          "title": "4 Käse",
          "desc": "Mozzarella, Gorgonzola, Pepato, Grana",
          "price": "14,5",
          "cover": "",
          "id": "10",
          "score": {
            "stars": 0,
            "votes": 0,
            "dist": {
              "1": 0,
              "2": 0,
              "3": 0,
              "4": 0,
              "5": 0
            }
          }
        },
        {
          "type": "subcategory",
          "title": "Pizzas mit Mozzarella « Bufala'",
          "desc": ""
        },
        {
          "type": "item",
          "title": "Bufalina",
          "desc": "Tomaten, Mozzarella di Bufala, Basilikum, Olivenöl, Oregano",
          "price": "14,5",
          "cover": "",
          "id": "11",
          "score": {
            "stars": 0,
            "votes": 0,
            "dist": {
              "1": 0,
              "2": 0,
              "3": 0,
              "4": 0,
              "5": 0
            }
          }
        },
        {
          "type": "item",
          "title": "Croccantina",
          "desc": "Mozzarella di Bufala, Kirschtomaten, Rucola, Grana",
          "price": "15,5",
          "cover": "",
          "id": "12",
          "score": {
            "stars": 0,
            "votes": 0,
            "dist": {
              "1": 0,
              "2": 0,
              "3": 0,
              "4": 0,
              "5": 0
            }
          }
        },
        {
          "type": "item",
          "title": "partenopea",
          "desc": "Mozzarella di Bufala, Kirschtomaten, Steinpilze, Speck, Grana, Oregano",
          "price": "16,5",
          "cover": "",
          "id": "13",
          "score": {
            "stars": 0,
            "votes": 0,
            "dist": {
              "1": 0,
              "2": 0,
              "3": 0,
              "4": 0,
              "5": 0
            }
          }
        },
        {
          "type": "subcategory",
          "title": "Pizzen besonders",
          "desc": ""
        },
        {
          "type": "item",
          "title": "Pepata",
          "desc": "Tomaten, Mozzarella, Pepato, Pancetta, Pilze, schwarze Oliven",
          "price": "15",
          "cover": "",
          "id": "14",
          "score": {
            "stars": 0,
            "votes": 0,
            "dist": {
              "1": 0,
              "2": 0,
              "3": 0,
              "4": 0,
              "5": 0
            }
          }
        },
        {
          "type": "item",
          "title": "Brontese",
          "desc": "Mozzarella-Creme, Pancetta, Pistazien, Grana, Pepato",
          "price": "16",
          "cover": "",
          "id": "15",
          "score": {
            "stars": 0,
            "votes": 0,
            "dist": {
              "1": 0,
              "2": 0,
              "3": 0,
              "4": 0,
              "5": 0
            }
          }
        },
        {
          "type": "item",
          "title": "Massaia",
          "desc": "Mozzarella, Trüffelcreme, Walnüsse, Steinpilz, Grana Chips",
          "price": "17,5",
          "cover": "",
          "id": "16",
          "score": {
            "stars": 0,
            "votes": 0,
            "dist": {
              "1": 0,
              "2": 0,
              "3": 0,
              "4": 0,
              "5": 0
            }
          }
        },
        {
          "type": "item",
          "title": "Die Sfiziosa",
          "desc": "Mozzarella di Bufala, Schinken, Tomaten und Trüffelcreme (Büffelmozzarella, geräucherter Schinken, Kirschtomaten, Trüffelcreme)",
          "price": "17,5",
          "cover": "",
          "id": "17",
          "score": {
            "stars": 0,
            "votes": 0,
            "dist": {
              "1": 0,
              "2": 0,
              "3": 0,
              "4": 0,
              "5": 0
            }
          }
        },
        {
          "type": "subcategory",
          "title": "Gefüllte Pizzas - Calzoni",
          "desc": ""
        },
        {
          "type": "item",
          "title": "Semplice",
          "desc": "Tomaten, Mozzarella, Schinken, Pilze",
          "price": "14",
          "cover": "",
          "id": "18",
          "score": {
            "stars": 0,
            "votes": 0,
            "dist": {
              "1": 0,
              "2": 0,
              "3": 0,
              "4": 0,
              "5": 0
            }
          }
        },
        {
          "type": "item",
          "title": "Ligure",
          "desc": "Mozzarella, Gorgonzola, Rucola, getrocknete Tomaten, Grana",
          "price": "16",
          "cover": "",
          "id": "19",
          "score": {
            "stars": 0,
            "votes": 0,
            "dist": {
              "1": 0,
              "2": 0,
              "3": 0,
              "4": 0,
              "5": 0
            }
          }
        }
      ]
    },
    {
      "id": "7",
      "title": "Käseplatte und Aufschnitt",
      "desc": "",
      "items": [
        {
          "type": "item",
          "title": "Massaia-Hochebene",
          "desc": "Auswahl an Aufschnitt und Käse, gegrilltes Gemüse",
          "price": "25",
          "cover": "",
          "id": "0",
          "score": {
            "stars": 0,
            "votes": 0,
            "dist": {
              "1": 0,
              "2": 0,
              "3": 0,
              "4": 0,
              "5": 0
            }
          }
        },
        {
          "type": "item",
          "title": "Mannara Tablett",
          "desc": "Auswahl an italienischem Käse mit Honig und Marmelade",
          "price": "20",
          "cover": "",
          "id": "1",
          "score": {
            "stars": 0,
            "votes": 0,
            "dist": {
              "1": 0,
              "2": 0,
              "3": 0,
              "4": 0,
              "5": 0
            }
          }
        }
      ]
    },
    {
      "id": "8",
      "title": "Desserts",
      "desc": "",
      "items": [
        {
          "type": "item",
          "title": "Cannolo Siciliano",
          "desc": "",
          "price": "9",
          "cover": "",
          "id": "0",
          "score": {
            "stars": 0,
            "votes": 0,
            "dist": {
              "1": 0,
              "2": 0,
              "3": 0,
              "4": 0,
              "5": 0
            }
          }
        },
        {
          "type": "item",
          "title": "Tiramisu",
          "desc": "",
          "price": "9",
          "cover": "",
          "id": "1",
          "score": {
            "stars": 0,
            "votes": 0,
            "dist": {
              "1": 0,
              "2": 0,
              "3": 0,
              "4": 0,
              "5": 0
            }
          }
        },
        {
          "type": "item",
          "title": "Käsekuchen",
          "desc": "(Natur, rote Früchte, Nutella)",
          "price": "9",
          "cover": "",
          "id": "2",
          "score": {
            "stars": 0,
            "votes": 0,
            "dist": {
              "1": 0,
              "2": 0,
              "3": 0,
              "4": 0,
              "5": 0
            }
          }
        },
        {
          "type": "item",
          "title": "Trio Panna Cotta",
          "desc": "",
          "price": "9",
          "cover": "",
          "id": "3",
          "score": {
            "stars": 0,
            "votes": 0,
            "dist": {
              "1": 0,
              "2": 0,
              "3": 0,
              "4": 0,
              "5": 0
            }
          }
        },
        {
          "type": "item",
          "title": "Caffè Goloso",
          "desc": "",
          "price": "10",
          "cover": "",
          "id": "4",
          "score": {
            "stars": 0,
            "votes": 0,
            "dist": {
              "1": 0,
              "2": 0,
              "3": 0,
              "4": 0,
              "5": 0
            }
          }
        },
        {
          "type": "item",
          "title": "Pizza alla Nutella",
          "desc": "",
          "price": "10",
          "cover": "",
          "id": "5",
          "score": {
            "stars": 0,
            "votes": 0,
            "dist": {
              "1": 0,
              "2": 0,
              "3": 0,
              "4": 0,
              "5": 0
            }
          }
        },
        {
          "type": "item",
          "title": "Gourmet-Teller",
          "desc": "",
          "price": "10",
          "cover": "",
          "id": "6",
          "score": {
            "stars": 0,
            "votes": 0,
            "dist": {
              "1": 0,
              "2": 0,
              "3": 0,
              "4": 0,
              "5": 0
            }
          }
        },
        {
          "type": "item",
          "title": "Zitronensorbet mit Fruchtsalat",
          "desc": "",
          "price": "10",
          "cover": "",
          "id": "7",
          "score": {
            "stars": 0,
            "votes": 0,
            "dist": {
              "1": 0,
              "2": 0,
              "3": 0,
              "4": 0,
              "5": 0
            }
          }
        },
        {
          "type": "item",
          "title": "Erdbeermousse mit roten Beeren",
          "desc": "",
          "price": "10",
          "cover": "",
          "id": "8",
          "score": {
            "stars": 0,
            "votes": 0,
            "dist": {
              "1": 0,
              "2": 0,
              "3": 0,
              "4": 0,
              "5": 0
            }
          }
        }
      ]
    }
  ]
}
