{
  "pages": [
    {
      "id": "0",
      "title": "Entrées",
      "desc": "",
      "items": [
        {
          "type": "item",
          "title": "Parmigiana",
          "desc": "Aubergines, sauce tomate, fromage, pecorino, grana, basilic",
          "price": "15",
          "cover": "",
          "id": "0",
          "score": {
            "stars": 0,
            "votes": 0,
            "dist": {
              "1": 0,
              "2": 0,
              "3": 0,
              "4": 0,
              "5": 0
            }
          }
        },
        {
          "type": "item",
          "title": "Ratatouille Siciliana",
          "desc": "Aubergines, poivrons, oignons, raisins sec, pignon de pin, tomate, aigre douce",
          "price": "15",
          "cover": "",
          "id": "1",
          "score": {
            "stars": 0,
            "votes": 0,
            "dist": {
              "1": 0,
              "2": 0,
              "3": 0,
              "4": 0,
              "5": 0
            }
          }
        },
        {
          "type": "item",
          "title": "Caprese de Bufala",
          "desc": "Tomate, salade mesclun, bufala, jambon cru, basilic",
          "price": "17,5",
          "cover": "",
          "id": "2",
          "score": {
            "stars": 0,
            "votes": 0,
            "dist": {
              "1": 0,
              "2": 0,
              "3": 0,
              "4": 0,
              "5": 0
            }
          }
        },
        {
          "type": "item",
          "title": "Burrata",
          "desc": "Avec roquette, tomates cerises, anchois, grana",
          "price": "17,5",
          "cover": "",
          "id": "3",
          "score": {
            "stars": 0,
            "votes": 0,
            "dist": {
              "1": 0,
              "2": 0,
              "3": 0,
              "4": 0,
              "5": 0
            }
          }
        }
      ]
    },
    {
      "id": "1",
      "title": "Bruschette",
      "desc": "Nos bruschettes sont faites à base de pain fait maison frotté à l'ail",
      "items": [
        {
          "type": "item",
          "title": "La classique",
          "desc": "Tomates, huile d'olive, origan",
          "price": "9",
          "cover": "",
          "id": "0",
          "score": {
            "stars": 0,
            "votes": 0,
            "dist": {
              "1": 0,
              "2": 0,
              "3": 0,
              "4": 0,
              "5": 0
            }
          }
        },
        {
          "type": "item",
          "title": "La Fromage (bufala)",
          "desc": "Tomates cerises, mozzarella di bufala, huile d'olive, origan",
          "price": "12,5",
          "cover": "",
          "id": "1",
          "score": {
            "stars": 0,
            "votes": 0,
            "dist": {
              "1": 0,
              "2": 0,
              "3": 0,
              "4": 0,
              "5": 0
            }
          }
        },
        {
          "type": "item",
          "title": "La légumes",
          "desc": "Tomates cerises, mozzarella di bufala, légumes grillés",
          "price": "13,5",
          "cover": "",
          "id": "2",
          "score": {
            "stars": 0,
            "votes": 0,
            "dist": {
              "1": 0,
              "2": 0,
              "3": 0,
              "4": 0,
              "5": 0
            }
          }
        },
        {
          "type": "item",
          "title": "La jambon cru",
          "desc": "Tomates cerises, mozzarella di bufala, jambon cru",
          "price": "14,5",
          "cover": "",
          "id": "3",
          "score": {
            "stars": 0,
            "votes": 0,
            "dist": {
              "1": 0,
              "2": 0,
              "3": 0,
              "4": 0,
              "5": 0
            }
          }
        }
      ]
    },
    {
      "id": "2",
      "title": "Pâtes",
      "desc": "",
      "items": [
        {
          "type": "item",
          "title": "Bellini",
          "desc": "Strozzapreti, sauce tomate, aubergines, ricotta salée et basilic",
          "price": "16,5",
          "cover": "",
          "id": "0",
          "score": {
            "stars": 0,
            "votes": 0,
            "dist": {
              "1": 0,
              "2": 0,
              "3": 0,
              "4": 0,
              "5": 0
            }
          }
        },
        {
          "type": "item",
          "title": "Gnocchi estate",
          "desc": "Gnocchi, saumon fumé, tomates cerises, pesto de basilic",
          "price": "17,5",
          "cover": "",
          "id": "1",
          "score": {
            "stars": 0,
            "votes": 0,
            "dist": {
              "1": 0,
              "2": 0,
              "3": 0,
              "4": 0,
              "5": 0
            }
          }
        },
        {
          "type": "item",
          "title": "Risotto Nord- Sud",
          "desc": "Risotto, crême de pistaches, speck, grana",
          "price": "19,5",
          "cover": "",
          "id": "2",
          "score": {
            "stars": 0,
            "votes": 0,
            "dist": {
              "1": 0,
              "2": 0,
              "3": 0,
              "4": 0,
              "5": 0
            }
          }
        },
        {
          "type": "item",
          "title": "Spaghetti Veraci",
          "desc": "Spaghetti, palourdes, ail, persil",
          "price": "19,5",
          "cover": "",
          "id": "3",
          "score": {
            "stars": 0,
            "votes": 0,
            "dist": {
              "1": 0,
              "2": 0,
              "3": 0,
              "4": 0,
              "5": 0
            }
          }
        },
        {
          "type": "item",
          "title": "Tagliatelle « Carbonara de la mer'",
          "desc": "Tagliatelle, gambas, aubergines, tomates cerises, oeuf, grana",
          "price": "19,5",
          "cover": "",
          "id": "4",
          "score": {
            "stars": 0,
            "votes": 0,
            "dist": {
              "1": 0,
              "2": 0,
              "3": 0,
              "4": 0,
              "5": 0
            }
          }
        }
      ]
    },
    {
      "id": "3",
      "title": "Plat principal",
      "desc": "",
      "items": [
        {
          "type": "subcategory",
          "title": "Viandes / Carne",
          "desc": ""
        },
        {
          "type": "item",
          "title": "Tartare à l'italienne",
          "desc": "Viande de boeuf, oeuf, câpres, olives noires, tomates séchée, oignons et Grana",
          "price": "19",
          "cover": "",
          "id": "0",
          "score": {
            "stars": 0,
            "votes": 0,
            "dist": {
              "1": 0,
              "2": 0,
              "3": 0,
              "4": 0,
              "5": 0
            }
          }
        },
        {
          "type": "item",
          "title": "Carpaccio belle nana",
          "desc": "Carpaccio de boeuf, roquette, artichauts, tomates séchées, grana",
          "price": "19,5",
          "cover": "",
          "id": "1",
          "score": {
            "stars": 0,
            "votes": 0,
            "dist": {
              "1": 0,
              "2": 0,
              "3": 0,
              "4": 0,
              "5": 0
            }
          }
        },
        {
          "type": "item",
          "title": "Tagliata de boeuf",
          "desc": "Boeuf grillé, roquette, tomates cerise, grana",
          "price": "26",
          "cover": "",
          "id": "2",
          "score": {
            "stars": 0,
            "votes": 0,
            "dist": {
              "1": 0,
              "2": 0,
              "3": 0,
              "4": 0,
              "5": 0
            }
          }
        }
      ]
    },
    {
      "id": "4",
      "title": "Poissons",
      "desc": "",
      "items": [
        {
          "type": "item",
          "title": "Salade de poulpe",
          "desc": "Poulpe, olives, câpres, tomates séchées, carottes, celerie, basilic",
          "price": "18",
          "cover": "",
          "id": "0",
          "score": {
            "stars": 0,
            "votes": 0,
            "dist": {
              "1": 0,
              "2": 0,
              "3": 0,
              "4": 0,
              "5": 0
            }
          }
        },
        {
          "type": "item",
          "title": "Filet de Dorade grillé",
          "desc": "Avec salade gourmande",
          "price": "18",
          "cover": "",
          "id": "1",
          "score": {
            "stars": 0,
            "votes": 0,
            "dist": {
              "1": 0,
              "2": 0,
              "3": 0,
              "4": 0,
              "5": 0
            }
          }
        },
        {
          "type": "item",
          "title": "Pavé de thon au sésame",
          "desc": "Thon grillé au sésame avec ratatouille sicilienne",
          "price": "22,5",
          "cover": "",
          "id": "2",
          "score": {
            "stars": 0,
            "votes": 0,
            "dist": {
              "1": 0,
              "2": 0,
              "3": 0,
              "4": 0,
              "5": 0
            }
          }
        },
        {
          "type": "item",
          "title": "Gambas grillées",
          "desc": "9 gambas, salade, légumes grillés",
          "price": "25",
          "cover": "",
          "id": "3",
          "score": {
            "stars": 0,
            "votes": 0,
            "dist": {
              "1": 0,
              "2": 0,
              "3": 0,
              "4": 0,
              "5": 0
            }
          }
        },
        {
          "type": "item",
          "title": "Friture de poissons",
          "desc": "Friture de gambas, calamars et courgettes accompagnée de salade",
          "price": "26,5",
          "cover": "",
          "id": "4",
          "score": {
            "stars": 0,
            "votes": 0,
            "dist": {
              "1": 0,
              "2": 0,
              "3": 0,
              "4": 0,
              "5": 0
            }
          }
        }
      ]
    },
    {
      "id": "5",
      "title": "Salades / Insalate",
      "desc": "",
      "items": [
        {
          "type": "item",
          "title": "Capo molini",
          "desc": "Salade mesclun, thon à I 'huile, courgettes grillées, tomates séchées, artichauts, fromage blanc salé",
          "price": "14,5",
          "cover": "",
          "id": "0",
          "score": {
            "stars": 0,
            "votes": 0,
            "dist": {
              "1": 0,
              "2": 0,
              "3": 0,
              "4": 0,
              "5": 0
            }
          }
        },
        {
          "type": "item",
          "title": "Tiepida",
          "desc": "Pate a pizza soufflee, roquette, mozzarella di bufala, tomates cerises, jambon cru, et copaux de grana",
          "price": "16,5",
          "cover": "",
          "id": "1",
          "score": {
            "stars": 0,
            "votes": 0,
            "dist": {
              "1": 0,
              "2": 0,
              "3": 0,
              "4": 0,
              "5": 0
            }
          }
        },
        {
          "type": "item",
          "title": "Salade estiva",
          "desc": "Salade mesclun, oeuf, oingon, saumon fumé, tomtates cerises",
          "price": "18",
          "cover": "",
          "id": "2",
          "score": {
            "stars": 0,
            "votes": 0,
            "dist": {
              "1": 0,
              "2": 0,
              "3": 0,
              "4": 0,
              "5": 0
            }
          }
        }
      ]
    },
    {
      "id": "6",
      "title": "Pizza",
      "desc": "",
      "items": [
        {
          "type": "subcategory",
          "title": "Pizzas Classiques",
          "desc": ""
        },
        {
          "type": "item",
          "title": "Marinara",
          "desc": "Tomates, ail, origan",
          "price": "9,5",
          "cover": "",
          "id": "0",
          "score": {
            "stars": 0,
            "votes": 0,
            "dist": {
              "1": 0,
              "2": 0,
              "3": 0,
              "4": 0,
              "5": 0
            }
          }
        },
        {
          "type": "item",
          "title": "Margherita",
          "desc": "Tomates, mozzarella, basilic, huile d 'olive vierge",
          "price": "10",
          "cover": "",
          "id": "1",
          "score": {
            "stars": 0,
            "votes": 0,
            "dist": {
              "1": 0,
              "2": 0,
              "3": 0,
              "4": 0,
              "5": 0
            }
          }
        },
        {
          "type": "item",
          "title": "Naples",
          "desc": "Tomates, mozzarella, olives noires, anchois, câpres",
          "price": "12,5",
          "cover": "",
          "id": "2",
          "score": {
            "stars": 0,
            "votes": 0,
            "dist": {
              "1": 0,
              "2": 0,
              "3": 0,
              "4": 0,
              "5": 0
            }
          }
        },
        {
          "type": "item",
          "title": "Thon et oignons",
          "desc": "Tomates, mozzarella, thon, oignons rouges",
          "price": "13",
          "cover": "",
          "id": "3",
          "score": {
            "stars": 0,
            "votes": 0,
            "dist": {
              "1": 0,
              "2": 0,
              "3": 0,
              "4": 0,
              "5": 0
            }
          }
        },
        {
          "type": "item",
          "title": "Norma",
          "desc": "Tomates, mozzarella, aubergines, ricotta salée",
          "price": "13,5",
          "cover": "",
          "id": "4",
          "score": {
            "stars": 0,
            "votes": 0,
            "dist": {
              "1": 0,
              "2": 0,
              "3": 0,
              "4": 0,
              "5": 0
            }
          }
        },
        {
          "type": "item",
          "title": "Reine",
          "desc": "Tomates, mozzarella, jambon blanc, oeuf, champignons, olives noires",
          "price": "13,5",
          "cover": "",
          "id": "5",
          "score": {
            "stars": 0,
            "votes": 0,
            "dist": {
              "1": 0,
              "2": 0,
              "3": 0,
              "4": 0,
              "5": 0
            }
          }
        },
        {
          "type": "item",
          "title": "L 'épicée",
          "desc": "Tomates, mozzarella, saucisson piquant, oignons rouges, roquette, grana",
          "price": "14,5",
          "cover": "",
          "id": "6",
          "score": {
            "stars": 0,
            "votes": 0,
            "dist": {
              "1": 0,
              "2": 0,
              "3": 0,
              "4": 0,
              "5": 0
            }
          }
        },
        {
          "type": "item",
          "title": "Italie Jambon cru",
          "desc": "Tomates, mozzarella, roquette, jambon cru, grana",
          "price": "15",
          "cover": "",
          "id": "7",
          "score": {
            "stars": 0,
            "votes": 0,
            "dist": {
              "1": 0,
              "2": 0,
              "3": 0,
              "4": 0,
              "5": 0
            }
          }
        },
        {
          "type": "item",
          "title": "Végétarienne",
          "desc": "Tomates, mozzarella, champignons, aubergines, crougettes",
          "price": "15",
          "cover": "",
          "id": "8",
          "score": {
            "stars": 0,
            "votes": 0,
            "dist": {
              "1": 0,
              "2": 0,
              "3": 0,
              "4": 0,
              "5": 0
            }
          }
        },
        {
          "type": "subcategory",
          "title": "Pizza Blanche",
          "desc": ""
        },
        {
          "type": "item",
          "title": "Biancaneve",
          "desc": "Mozzarella, origan, huile d 'olive",
          "price": "9,5",
          "cover": "",
          "id": "9",
          "score": {
            "stars": 0,
            "votes": 0,
            "dist": {
              "1": 0,
              "2": 0,
              "3": 0,
              "4": 0,
              "5": 0
            }
          }
        },
        {
          "type": "item",
          "title": "4 Fromages",
          "desc": "Mozzarella, gorgonzola, pepato, grana",
          "price": "14,5",
          "cover": "",
          "id": "10",
          "score": {
            "stars": 0,
            "votes": 0,
            "dist": {
              "1": 0,
              "2": 0,
              "3": 0,
              "4": 0,
              "5": 0
            }
          }
        },
        {
          "type": "subcategory",
          "title": "Pizzas avec mozzarella « bufala »",
          "desc": ""
        },
        {
          "type": "item",
          "title": "Bufalina",
          "desc": "Tomates, mozzarella di bufala, basilic, huile d 'olive vierge, origan",
          "price": "14,5",
          "cover": "",
          "id": "11",
          "score": {
            "stars": 0,
            "votes": 0,
            "dist": {
              "1": 0,
              "2": 0,
              "3": 0,
              "4": 0,
              "5": 0
            }
          }
        },
        {
          "type": "item",
          "title": "Croccantina",
          "desc": "Mozzarella di bufala, tomates cerises, roquette, grana",
          "price": "15,5",
          "cover": "",
          "id": "12",
          "score": {
            "stars": 0,
            "votes": 0,
            "dist": {
              "1": 0,
              "2": 0,
              "3": 0,
              "4": 0,
              "5": 0
            }
          }
        },
        {
          "type": "item",
          "title": "Partenopea",
          "desc": "Mozzarella di bufala, tomates cerise, cèpes, speck, grana, origan",
          "price": "16,5",
          "cover": "",
          "id": "13",
          "score": {
            "stars": 0,
            "votes": 0,
            "dist": {
              "1": 0,
              "2": 0,
              "3": 0,
              "4": 0,
              "5": 0
            }
          }
        },
        {
          "type": "subcategory",
          "title": "Pizzas spéciale",
          "desc": ""
        },
        {
          "type": "item",
          "title": "La Pepata",
          "desc": "Tomates, mozzarella, pepato, pancetta, champignons, olives noires",
          "price": "15",
          "cover": "",
          "id": "14",
          "score": {
            "stars": 0,
            "votes": 0,
            "dist": {
              "1": 0,
              "2": 0,
              "3": 0,
              "4": 0,
              "5": 0
            }
          }
        },
        {
          "type": "item",
          "title": "La Brontese",
          "desc": "Mozzarella crème, pancetta, pistaches, grana, pepato",
          "price": "16",
          "cover": "",
          "id": "15",
          "score": {
            "stars": 0,
            "votes": 0,
            "dist": {
              "1": 0,
              "2": 0,
              "3": 0,
              "4": 0,
              "5": 0
            }
          }
        },
        {
          "type": "item",
          "title": "La Massaia",
          "desc": "Mozzarella, crème de truffe, noix, cèpe, copeaux de grana",
          "price": "17,5",
          "cover": "",
          "id": "16",
          "score": {
            "stars": 0,
            "votes": 0,
            "dist": {
              "1": 0,
              "2": 0,
              "3": 0,
              "4": 0,
              "5": 0
            }
          }
        },
        {
          "type": "item",
          "title": "La Sfiziosa",
          "desc": "Mozzarella di bufala, jambon blanc, tomate cerises et crème de truffe (Buffalo mozzarella; smoked ham, cherry tomatoes, truffle cream)",
          "price": "17,5",
          "cover": "",
          "id": "17",
          "score": {
            "stars": 0,
            "votes": 0,
            "dist": {
              "1": 0,
              "2": 0,
              "3": 0,
              "4": 0,
              "5": 0
            }
          }
        },
        {
          "type": "subcategory",
          "title": "Pizzas farcies / Calzoni",
          "desc": ""
        },
        {
          "type": "item",
          "title": "Semplice",
          "desc": "Tomates, mozzarella, jambon blanc, champignons",
          "price": "14",
          "cover": "",
          "id": "18",
          "score": {
            "stars": 0,
            "votes": 0,
            "dist": {
              "1": 0,
              "2": 0,
              "3": 0,
              "4": 0,
              "5": 0
            }
          }
        },
        {
          "type": "item",
          "title": "Ligure",
          "desc": "Mozzarella, gorgonzola, roquette, tomates séchées, grana",
          "price": "16",
          "cover": "",
          "id": "19",
          "score": {
            "stars": 0,
            "votes": 0,
            "dist": {
              "1": 0,
              "2": 0,
              "3": 0,
              "4": 0,
              "5": 0
            }
          }
        }
      ]
    },
    {
      "id": "7",
      "title": "Plateau de fromages et charcuteries",
      "desc": "",
      "items": [
        {
          "type": "item",
          "title": "Plateau Massaia",
          "desc": "Sélection de charcuteries et fromages, légumes grillés",
          "price": "25",
          "cover": "",
          "id": "0",
          "score": {
            "stars": 0,
            "votes": 0,
            "dist": {
              "1": 0,
              "2": 0,
              "3": 0,
              "4": 0,
              "5": 0
            }
          }
        },
        {
          "type": "item",
          "title": "Plateau Mannara",
          "desc": "Sélection de fromages italiens accompagnés de miel et confiture",
          "price": "20",
          "cover": "",
          "id": "1",
          "score": {
            "stars": 0,
            "votes": 0,
            "dist": {
              "1": 0,
              "2": 0,
              "3": 0,
              "4": 0,
              "5": 0
            }
          }
        }
      ]
    },
    {
      "id": "8",
      "title": "Desserts",
      "desc": "",
      "items": [
        {
          "type": "item",
          "title": "Cannolo siciliano",
          "desc": "",
          "price": "9",
          "cover": "",
          "id": "0",
          "score": {
            "stars": 0,
            "votes": 0,
            "dist": {
              "1": 0,
              "2": 0,
              "3": 0,
              "4": 0,
              "5": 0
            }
          }
        },
        {
          "type": "item",
          "title": "Tiramisù",
          "desc": "",
          "price": "9",
          "cover": "",
          "id": "1",
          "score": {
            "stars": 0,
            "votes": 0,
            "dist": {
              "1": 0,
              "2": 0,
              "3": 0,
              "4": 0,
              "5": 0
            }
          }
        },
        {
          "type": "item",
          "title": "Cheese cake",
          "desc": "(Nature, fruits rouges, nutella)",
          "price": "9",
          "cover": "",
          "id": "2",
          "score": {
            "stars": 0,
            "votes": 0,
            "dist": {
              "1": 0,
              "2": 0,
              "3": 0,
              "4": 0,
              "5": 0
            }
          }
        },
        {
          "type": "item",
          "title": "Trio panna cotta",
          "desc": "",
          "price": "9",
          "cover": "",
          "id": "3",
          "score": {
            "stars": 0,
            "votes": 0,
            "dist": {
              "1": 0,
              "2": 0,
              "3": 0,
              "4": 0,
              "5": 0
            }
          }
        },
        {
          "type": "item",
          "title": "Caffè goloso",
          "desc": "",
          "price": "10",
          "cover": "",
          "id": "4",
          "score": {
            "stars": 0,
            "votes": 0,
            "dist": {
              "1": 0,
              "2": 0,
              "3": 0,
              "4": 0,
              "5": 0
            }
          }
        },
        {
          "type": "item",
          "title": "Pizza alla nutella",
          "desc": "",
          "price": "10",
          "cover": "",
          "id": "5",
          "score": {
            "stars": 0,
            "votes": 0,
            "dist": {
              "1": 0,
              "2": 0,
              "3": 0,
              "4": 0,
              "5": 0
            }
          }
        },
        {
          "type": "item",
          "title": "Assiette gourmande",
          "desc": "",
          "price": "10",
          "cover": "",
          "id": "6",
          "score": {
            "stars": 0,
            "votes": 0,
            "dist": {
              "1": 0,
              "2": 0,
              "3": 0,
              "4": 0,
              "5": 0
            }
          }
        },
        {
          "type": "item",
          "title": "Sorbet au citron avec salade de fruit",
          "desc": "",
          "price": "10",
          "cover": "",
          "id": "7",
          "score": {
            "stars": 0,
            "votes": 0,
            "dist": {
              "1": 0,
              "2": 0,
              "3": 0,
              "4": 0,
              "5": 0
            }
          }
        },
        {
          "type": "item",
          "title": "Mousse aux fraises avec fruits rouges",
          "desc": "",
          "price": "10",
          "cover": "",
          "id": "8",
          "score": {
            "stars": 0,
            "votes": 0,
            "dist": {
              "1": 0,
              "2": 0,
              "3": 0,
              "4": 0,
              "5": 0
            }
          }
        }
      ]
    }
  ]
}
