{
  "pages": [
    {
      "id": "0",
      "title": "Omelettes",
      "desc": "Nous .vous proposons des OMELETTES copieuses, faites des œufs de poules élevées en plein air de la région PACA.",
      "items": [
        {
          "type": "item",
          "title": "Au jambon",
          "desc": "",
          "price": "10",
          "cover": "",
          "id": "0",
          "score": {
            "stars": 0,
            "votes": 0,
            "dist": {
              "1": 0,
              "2": 0,
              "3": 0,
              "4": 0,
              "5": 0
            }
          }
        },
        {
          "type": "item",
          "title": "Au fromage",
          "desc": "",
          "price": "10",
          "cover": "",
          "id": "1",
          "score": {
            "stars": 0,
            "votes": 0,
            "dist": {
              "1": 0,
              "2": 0,
              "3": 0,
              "4": 0,
              "5": 0
            }
          }
        },
        {
          "type": "item",
          "title": "Au jambon fromage",
          "desc": "",
          "price": "12",
          "cover": "",
          "id": "2",
          "score": {
            "stars": 0,
            "votes": 0,
            "dist": {
              "1": 0,
              "2": 0,
              "3": 0,
              "4": 0,
              "5": 0
            }
          }
        },
        {
          "type": "item",
          "title": "Au jambon champignon fromage",
          "desc": "",
          "price": "14",
          "cover": "",
          "id": "3",
          "score": {
            "stars": 0,
            "votes": 0,
            "dist": {
              "1": 0,
              "2": 0,
              "3": 0,
              "4": 0,
              "5": 0
            }
          }
        },
        {
          "type": "item",
          "title": "Peronsalisée",
          "desc": "Nous cuisinons à la demande ce qui nous permet de réaliser  une omelette à votre goût",
          "price": "",
          "cover": "",
          "id": "4",
          "score": {
            "stars": 0,
            "votes": 0,
            "dist": {
              "1": 0,
              "2": 0,
              "3": 0,
              "4": 0,
              "5": 0
            }
          }
        }
      ]
    },
    {
      "id": "1",
      "title": "LES SALADES COMPOSEES",
      "desc": "Equilibrées sur le plan nutritionnel, nous utilisons des produits frais régionaux",
      "items": [
        {
          "type": "item",
          "title": "TOMATE MOZZARELLA",
          "desc": "Rafraichissante, avec tomate, mozzarella, copeaux de parmesan, basilic et olives",
          "price": "10",
          "cover": "",
          "id": "0",
          "score": {
            "stars": 0,
            "votes": 0,
            "dist": {
              "1": 0,
              "2": 0,
              "3": 0,
              "4": 0,
              "5": 0
            }
          }
        },
        {
          "type": "item",
          "title": "Niçoise",
          "desc": "Traditionnelle au thon, poivron vert, tomate, ognion, oeuf dur, anchois et olives",
          "price": "13,00",
          "cover": "",
          "id": "1",
          "score": {
            "stars": 0,
            "votes": 0,
            "dist": {
              "1": 0,
              "2": 0,
              "3": 0,
              "4": 0,
              "5": 0
            }
          }
        },
        {
          "type": "item",
          "title": "ITALIENNE",
          "desc": "Saveur méditerranéenne, au jambon de Parme, mesclun, tomate, mozzarella, copeaux de parmesan et basilic",
          "price": "13",
          "cover": "",
          "id": "2",
          "score": {
            "stars": 0,
            "votes": 0,
            "dist": {
              "1": 0,
              "2": 0,
              "3": 0,
              "4": 0,
              "5": 0
            }
          }
        },
        {
          "type": "item",
          "title": "POULET",
          "desc": "Croustillante au poulet grillé,tomate, œuf dur et olives",
          "price": "14,00",
          "cover": "",
          "id": "3",
          "score": {
            "stars": 0,
            "votes": 0,
            "dist": {
              "1": 0,
              "2": 0,
              "3": 0,
              "4": 0,
              "5": 0
            }
          }
        },
        {
          "type": "item",
          "title": "SAUMON FUME",
          "desc": "Saveur marine, au saumon fumé de traiteur, salade et tomate",
          "price": "14,00",
          "cover": "",
          "id": "4",
          "score": {
            "stars": 0,
            "votes": 0,
            "dist": {
              "1": 0,
              "2": 0,
              "3": 0,
              "4": 0,
              "5": 0
            }
          }
        },
        {
          "type": "item",
          "title": "CREVETTES",
          "desc": "Savoureuse, avec crevettes sautées et persillées et tomate (selon arrivage)",
          "price": "14,00",
          "cover": "",
          "id": "5",
          "score": {
            "stars": 0,
            "votes": 0,
            "dist": {
              "1": 0,
              "2": 0,
              "3": 0,
              "4": 0,
              "5": 0
            }
          }
        }
      ]
    },
    {
      "id": "2",
      "title": "Plats (hm)",
      "desc": "Sur place ou à emporter",
      "items": [
        {
          "type": "item",
          "title": "PAN - BAGNAT SPECIALITE NIcOISE",
          "desc": "",
          "price": "8,00",
          "cover": "",
          "id": "0",
          "score": {
            "stars": 0,
            "votes": 0,
            "dist": {
              "1": 0,
              "2": 0,
              "3": 0,
              "4": 0,
              "5": 0
            }
          }
        },
        {
          "type": "item",
          "title": "CROQUE - MONSIEUR XXL",
          "desc": "",
          "price": "8,50",
          "cover": "",
          "id": "1",
          "score": {
            "stars": 0,
            "votes": 0,
            "dist": {
              "1": 0,
              "2": 0,
              "3": 0,
              "4": 0,
              "5": 0
            }
          }
        },
        {
          "type": "item",
          "title": "CROQUE - MADAME XXL",
          "desc": "",
          "price": "9,5",
          "cover": "",
          "id": "2",
          "score": {
            "stars": 0,
            "votes": 0,
            "dist": {
              "1": 0,
              "2": 0,
              "3": 0,
              "4": 0,
              "5": 0
            }
          }
        },
        {
          "type": "item",
          "title": "TARTINE GRILLEE TOMATE MOZZA",
          "desc": "",
          "price": "8,00",
          "cover": "",
          "id": "3",
          "score": {
            "stars": 0,
            "votes": 0,
            "dist": {
              "1": 0,
              "2": 0,
              "3": 0,
              "4": 0,
              "5": 0
            }
          }
        },
        {
          "type": "item",
          "title": "TARTINE GRILLEE JAMBON CRU",
          "desc": "",
          "price": "10,00",
          "cover": "",
          "id": "4",
          "score": {
            "stars": 0,
            "votes": 0,
            "dist": {
              "1": 0,
              "2": 0,
              "3": 0,
              "4": 0,
              "5": 0
            }
          }
        },
        {
          "type": "item",
          "title": "FOCACCIA TOMATE MOZZA",
          "desc": "",
          "price": "7,50",
          "cover": "",
          "id": "5",
          "score": {
            "stars": 0,
            "votes": 0,
            "dist": {
              "1": 0,
              "2": 0,
              "3": 0,
              "4": 0,
              "5": 0
            }
          }
        },
        {
          "type": "item",
          "title": "FOCACCIA JAMBON CRU",
          "desc": "",
          "price": "8,00",
          "cover": "",
          "id": "6",
          "score": {
            "stars": 0,
            "votes": 0,
            "dist": {
              "1": 0,
              "2": 0,
              "3": 0,
              "4": 0,
              "5": 0
            }
          }
        },
        {
          "type": "item",
          "title": "PANINI JAMBON CRU",
          "desc": "",
          "price": "7,50",
          "cover": "",
          "id": "7",
          "score": {
            "stars": 0,
            "votes": 0,
            "dist": {
              "1": 0,
              "2": 0,
              "3": 0,
              "4": 0,
              "5": 0
            }
          }
        },
        {
          "type": "item",
          "title": "PANINI POULET",
          "desc": "",
          "price": "7,50",
          "cover": "",
          "id": "8",
          "score": {
            "stars": 0,
            "votes": 0,
            "dist": {
              "1": 0,
              "2": 0,
              "3": 0,
              "4": 0,
              "5": 0
            }
          }
        },
        {
          "type": "item",
          "title": "PANINI 3 FROMAGES",
          "desc": "",
          "price": "8,00",
          "cover": "",
          "id": "9",
          "score": {
            "stars": 0,
            "votes": 0,
            "dist": {
              "1": 0,
              "2": 0,
              "3": 0,
              "4": 0,
              "5": 0
            }
          }
        },
        {
          "type": "item",
          "title": "BAGEL VEGETARIEN",
          "desc": "",
          "price": "8,00",
          "cover": "",
          "id": "10",
          "score": {
            "stars": 0,
            "votes": 0,
            "dist": {
              "1": 0,
              "2": 0,
              "3": 0,
              "4": 0,
              "5": 0
            }
          }
        },
        {
          "type": "item",
          "title": "BAGEL CHEVRE MIEL",
          "desc": "",
          "price": "8,00",
          "cover": "",
          "id": "11",
          "score": {
            "stars": 0,
            "votes": 0,
            "dist": {
              "1": 0,
              "2": 0,
              "3": 0,
              "4": 0,
              "5": 0
            }
          }
        },
        {
          "type": "item",
          "title": "BAGEL SAUMON AVOCAT",
          "desc": "",
          "price": "8,50",
          "cover": "",
          "id": "12",
          "score": {
            "stars": 0,
            "votes": 0,
            "dist": {
              "1": 0,
              "2": 0,
              "3": 0,
              "4": 0,
              "5": 0
            }
          }
        },
        {
          "type": "item",
          "title": "CIABATTA NIcOISE",
          "desc": "",
          "price": "8,00",
          "cover": "",
          "id": "13",
          "score": {
            "stars": 0,
            "votes": 0,
            "dist": {
              "1": 0,
              "2": 0,
              "3": 0,
              "4": 0,
              "5": 0
            }
          }
        },
        {
          "type": "item",
          "title": "CIABATTA ITALIEN",
          "desc": "",
          "price": "8,00",
          "cover": "",
          "id": "14",
          "score": {
            "stars": 0,
            "votes": 0,
            "dist": {
              "1": 0,
              "2": 0,
              "3": 0,
              "4": 0,
              "5": 0
            }
          }
        },
        {
          "type": "item",
          "title": "CIABATTA SAUMON AVOCAT",
          "desc": "",
          "price": "8,00",
          "cover": "",
          "id": "15",
          "score": {
            "stars": 0,
            "votes": 0,
            "dist": {
              "1": 0,
              "2": 0,
              "3": 0,
              "4": 0,
              "5": 0
            }
          }
        },
        {
          "type": "item",
          "title": "JAMBON BEURRE EMMENTAL",
          "desc": "",
          "price": "5,00",
          "cover": "",
          "id": "16",
          "score": {
            "stars": 0,
            "votes": 0,
            "dist": {
              "1": 0,
              "2": 0,
              "3": 0,
              "4": 0,
              "5": 0
            }
          }
        },
        {
          "type": "item",
          "title": "SAUCISSON BEURRE CORNICHON",
          "desc": "",
          "price": "5,00",
          "cover": "",
          "id": "17",
          "score": {
            "stars": 0,
            "votes": 0,
            "dist": {
              "1": 0,
              "2": 0,
              "3": 0,
              "4": 0,
              "5": 0
            }
          }
        }
      ]
    },
    {
      "id": "3",
      "title": "MENU",
      "desc": "",
      "items": [
        {
          "type": "item",
          "title": "GRILLADE DE Bœuf",
          "desc": "PAVé DE RUMSTECK 200g VIANDE ORIGINE France",
          "price": "14,00",
          "cover": "",
          "id": "0",
          "score": {
            "stars": 0,
            "votes": 0,
            "dist": {
              "1": 0,
              "2": 0,
              "3": 0,
              "4": 0,
              "5": 0
            }
          }
        },
        {
          "type": "item",
          "title": "PATES FRAICHES",
          "desc": "SAUCE FAITE MAISON SELON LE MARCHé",
          "price": "14,00",
          "cover": "",
          "id": "1",
          "score": {
            "stars": 0,
            "votes": 0,
            "dist": {
              "1": 0,
              "2": 0,
              "3": 0,
              "4": 0,
              "5": 0
            }
          }
        },
        {
          "type": "item",
          "title": "SALADE COMPOSéE",
          "desc": "",
          "price": "14,00",
          "cover": "",
          "id": "2",
          "score": {
            "stars": 0,
            "votes": 0,
            "dist": {
              "1": 0,
              "2": 0,
              "3": 0,
              "4": 0,
              "5": 0
            }
          }
        }
      ]
    },
    {
      "id": "4",
      "title": "MENU ENFANT",
      "desc": "(JUSQU'A 12 ANS)",
      "items": [
        {
          "type": "subcategory",
          "title": "Plats",
          "desc": ""
        },
        {
          "type": "item",
          "title": "Jambon blanc  - œuf mimosa",
          "desc": "",
          "price": "",
          "cover": "",
          "id": "0",
          "score": {
            "stars": 0,
            "votes": 0,
            "dist": {
              "1": 0,
              "2": 0,
              "3": 0,
              "4": 0,
              "5": 0
            }
          }
        },
        {
          "type": "item",
          "title": "POULET PANE - SALADE DE TOMATES",
          "desc": "",
          "price": "",
          "cover": "",
          "id": "1",
          "score": {
            "stars": 0,
            "votes": 0,
            "dist": {
              "1": 0,
              "2": 0,
              "3": 0,
              "4": 0,
              "5": 0
            }
          }
        },
        {
          "type": "subcategory",
          "title": "DESSERT",
          "desc": ""
        },
        {
          "type": "item",
          "title": "1 BOULE DE GLACE ARTISANALE",
          "desc": "Parfums: VANILLE - CHOCOLAT - FRAISE - CITRON",
          "price": "",
          "cover": "",
          "id": "2",
          "score": {
            "stars": 0,
            "votes": 0,
            "dist": {
              "1": 0,
              "2": 0,
              "3": 0,
              "4": 0,
              "5": 0
            }
          }
        }
      ]
    },
    {
      "id": "5",
      "title": "Vin",
      "desc": "Nous servons au verre",
      "items": [
        {
          "type": "item",
          "title": "Rosé",
          "desc": "12,5cl",
          "price": "4",
          "cover": "",
          "id": "0",
          "score": {
            "stars": 0,
            "votes": 0,
            "dist": {
              "1": 0,
              "2": 0,
              "3": 0,
              "4": 0,
              "5": 0
            }
          }
        },
        {
          "type": "item",
          "title": "Rouge",
          "desc": "12,5cl",
          "price": "4",
          "cover": "",
          "id": "1",
          "score": {
            "stars": 0,
            "votes": 0,
            "dist": {
              "1": 0,
              "2": 0,
              "3": 0,
              "4": 0,
              "5": 0
            }
          }
        },
        {
          "type": "item",
          "title": "Blanc",
          "desc": "12,5cl",
          "price": "4",
          "cover": "",
          "id": "2",
          "score": {
            "stars": 0,
            "votes": 0,
            "dist": {
              "1": 0,
              "2": 0,
              "3": 0,
              "4": 0,
              "5": 0
            }
          }
        }
      ]
    }
  ]
}
