{
  "pages": [
    {
      "id": "0",
      "title": "披萨（hm）",
      "desc": "自制 我们的披萨是半月形的 我们的面团是自制的，在木火上煮熟",
      "items": [
        {
          "type": "item",
          "title": "雏菊",
          "desc": "奶酪，番茄，牛至",
          "price": "11,9",
          "cover": "",
          "id": "0",
          "score": {
            "stars": 0,
            "votes": 0,
            "dist": {
              "1": 0,
              "2": 0,
              "3": 0,
              "4": 0,
              "5": 0
            }
          }
        },
        {
          "type": "item",
          "title": "那不勒斯",
          "desc": "奶酪，番茄，凤尾鱼，橄榄，牛至",
          "price": "12.40美元",
          "cover": "",
          "id": "1",
          "score": {
            "stars": 0,
            "votes": 0,
            "dist": {
              "1": 0,
              "2": 0,
              "3": 0,
              "4": 0,
              "5": 0
            }
          }
        },
        {
          "type": "item",
          "title": "女王",
          "desc": "奶酪，番茄，熟肩，蘑菇，牛至",
          "price": "13.40美元",
          "cover": "",
          "id": "2",
          "score": {
            "stars": 0,
            "votes": 0,
            "dist": {
              "1": 0,
              "2": 0,
              "3": 0,
              "4": 0,
              "5": 0
            }
          }
        },
        {
          "type": "item",
          "title": "茄子",
          "desc": "奶酪，番茄，茄子，大蒜，欧芹，牛至",
          "price": "13.70美元",
          "cover": "",
          "id": "3",
          "score": {
            "stars": 0,
            "votes": 0,
            "dist": {
              "1": 0,
              "2": 0,
              "3": 0,
              "4": 0,
              "5": 0
            }
          }
        },
        {
          "type": "item",
          "title": "意大利辣味香肠",
          "desc": "奶酪，番茄，香辣香肠，牛至",
          "price": "13.40美元",
          "cover": "",
          "id": "4",
          "score": {
            "stars": 0,
            "votes": 0,
            "dist": {
              "1": 0,
              "2": 0,
              "3": 0,
              "4": 0,
              "5": 0
            }
          }
        },
        {
          "type": "item",
          "title": "四个奶酪",
          "desc": "什锦奶酪，番茄，牛至",
          "price": "14,5",
          "cover": "",
          "id": "5",
          "score": {
            "stars": 0,
            "votes": 0,
            "dist": {
              "1": 0,
              "2": 0,
              "3": 0,
              "4": 0,
              "5": 0
            }
          }
        },
        {
          "type": "item",
          "title": "林纳拉",
          "desc": "番茄，大蒜，欧芹，牛至",
          "price": "9,9",
          "cover": "",
          "id": "6",
          "score": {
            "stars": 0,
            "votes": 0,
            "dist": {
              "1": 0,
              "2": 0,
              "3": 0,
              "4": 0,
              "5": 0
            }
          }
        },
        {
          "type": "item",
          "title": "洋葱",
          "desc": "奶酪，番茄，洋葱，牛至",
          "price": "11,9",
          "cover": "",
          "id": "7",
          "score": {
            "stars": 0,
            "votes": 0,
            "dist": {
              "1": 0,
              "2": 0,
              "3": 0,
              "4": 0,
              "5": 0
            }
          }
        },
        {
          "type": "item",
          "title": "西西里",
          "desc": "番茄，凤尾鱼，刺山柑，橄榄，牛至",
          "price": "10,9",
          "cover": "",
          "id": "8",
          "score": {
            "stars": 0,
            "votes": 0,
            "dist": {
              "1": 0,
              "2": 0,
              "3": 0,
              "4": 0,
              "5": 0
            }
          }
        },
        {
          "type": "item",
          "title": "食人族",
          "desc": "奶酪，番茄，洋葱，碎牛肉，牛至，鸡蛋，大蒜，欧芹",
          "price": "15.70美元",
          "cover": "",
          "id": "9",
          "score": {
            "stars": 0,
            "votes": 0,
            "dist": {
              "1": 0,
              "2": 0,
              "3": 0,
              "4": 0,
              "5": 0
            }
          }
        },
        {
          "type": "item",
          "title": "海王星",
          "desc": "番茄，金枪鱼，牛至",
          "price": "13,5",
          "cover": "",
          "id": "10",
          "score": {
            "stars": 0,
            "votes": 0,
            "dist": {
              "1": 0,
              "2": 0,
              "3": 0,
              "4": 0,
              "5": 0
            }
          }
        },
        {
          "type": "item",
          "title": "模具",
          "desc": "番茄，贻贝，大蒜，欧芹，牛至",
          "price": "14.20美元",
          "cover": "",
          "id": "11",
          "score": {
            "stars": 0,
            "votes": 0,
            "dist": {
              "1": 0,
              "2": 0,
              "3": 0,
              "4": 0,
              "5": 0
            }
          }
        },
        {
          "type": "item",
          "title": "意式薄饼",
          "desc": "",
          "price": "7,4",
          "cover": "",
          "id": "12",
          "score": {
            "stars": 0,
            "votes": 0,
            "dist": {
              "1": 0,
              "2": 0,
              "3": 0,
              "4": 0,
              "5": 0
            }
          }
        },
        {
          "type": "item",
          "title": "flammekueche",
          "desc": "洋葱，培根，奶油",
          "price": "13.10美元",
          "cover": "",
          "id": "13",
          "score": {
            "stars": 0,
            "votes": 0,
            "dist": {
              "1": 0,
              "2": 0,
              "3": 0,
              "4": 0,
              "5": 0
            }
          }
        },
        {
          "type": "subcategory",
          "title": "补品",
          "desc": "我们的披萨可以配补品"
        },
        {
          "type": "item",
          "title": "贻贝，金枪鱼或碎牛肉",
          "desc": "",
          "price": "3,6",
          "cover": "",
          "id": "14",
          "score": {
            "stars": 0,
            "votes": 0,
            "dist": {
              "1": 0,
              "2": 0,
              "3": 0,
              "4": 0,
              "5": 0
            }
          }
        },
        {
          "type": "item",
          "title": "鸡蛋或其他",
          "desc": "",
          "price": "1,6",
          "cover": "",
          "id": "15",
          "score": {
            "stars": 0,
            "votes": 0,
            "dist": {
              "1": 0,
              "2": 0,
              "3": 0,
              "4": 0,
              "5": 0
            }
          }
        }
      ]
    },
    {
      "id": "1",
      "title": "尼斯国家的特色菜",
      "desc": "",
      "items": [
        {
          "type": "item",
          "title": "漂亮的盘子",
          "desc": "pissaladière，panisse，茄子油条，鳕鱼，酿蔬菜，小saladeiçoise",
          "price": "19",
          "cover": "",
          "id": "0",
          "score": {
            "stars": 0,
            "votes": 0,
            "dist": {
              "1": 0,
              "2": 0,
              "3": 0,
              "4": 0,
              "5": 0
            }
          }
        },
        {
          "type": "item",
          "title": "炖牛肉面颊和面疙瘩",
          "desc": "",
          "price": "17",
          "cover": "",
          "id": "1",
          "score": {
            "stars": 0,
            "votes": 0,
            "dist": {
              "1": 0,
              "2": 0,
              "3": 0,
              "4": 0,
              "5": 0
            }
          }
        },
        {
          "type": "item",
          "title": "在niçoise鳕鱼",
          "desc": "",
          "price": "19,5",
          "cover": "",
          "id": "2",
          "score": {
            "stars": 0,
            "votes": 0,
            "dist": {
              "1": 0,
              "2": 0,
              "3": 0,
              "4": 0,
              "5": 0
            }
          }
        },
        {
          "type": "item",
          "title": "板材的小填充蔬菜和大蒜沙拉",
          "desc": "",
          "price": "15",
          "cover": "",
          "id": "3",
          "score": {
            "stars": 0,
            "votes": 0,
            "dist": {
              "1": 0,
              "2": 0,
              "3": 0,
              "4": 0,
              "5": 0
            }
          }
        }
      ]
    },
    {
      "id": "2",
      "title": "开胃菜和汤（hm）",
      "desc": "",
      "items": [
        {
          "type": "item",
          "title": "蜗牛（12p）",
          "desc": "6间客房至9.9欧元",
          "price": "17,5",
          "cover": "",
          "id": "0",
          "score": {
            "stars": 0,
            "votes": 0,
            "dist": {
              "1": 0,
              "2": 0,
              "3": 0,
              "4": 0,
              "5": 0
            }
          }
        },
        {
          "type": "item",
          "title": "青蛙腿（大盘）",
          "desc": "小盘11,8€，大盘19,8€",
          "price": "19,8",
          "cover": "",
          "id": "1",
          "score": {
            "stars": 0,
            "votes": 0,
            "dist": {
              "1": 0,
              "2": 0,
              "3": 0,
              "4": 0,
              "5": 0
            }
          }
        },
        {
          "type": "item",
          "title": "洋葱汤焗烤",
          "desc": "",
          "price": "11,3",
          "cover": "",
          "id": "2",
          "score": {
            "stars": 0,
            "votes": 0,
            "dist": {
              "1": 0,
              "2": 0,
              "3": 0,
              "4": 0,
              "5": 0
            }
          }
        },
        {
          "type": "item",
          "title": "pistoù汤",
          "desc": "",
          "price": "10,5",
          "cover": "",
          "id": "3",
          "score": {
            "stars": 0,
            "votes": 0,
            "dist": {
              "1": 0,
              "2": 0,
              "3": 0,
              "4": 0,
              "5": 0
            }
          }
        },
        {
          "type": "item",
          "title": "通心粉",
          "desc": "",
          "price": "9,3",
          "cover": "",
          "id": "4",
          "score": {
            "stars": 0,
            "votes": 0,
            "dist": {
              "1": 0,
              "2": 0,
              "3": 0,
              "4": 0,
              "5": 0
            }
          }
        }
      ]
    },
    {
      "id": "3",
      "title": "沙拉（hm）",
      "desc": "自制",
      "items": [
        {
          "type": "item",
          "title": "时令沙拉",
          "desc": "",
          "price": "6,4",
          "cover": "",
          "id": "0",
          "score": {
            "stars": 0,
            "votes": 0,
            "dist": {
              "1": 0,
              "2": 0,
              "3": 0,
              "4": 0,
              "5": 0
            }
          }
        },
        {
          "type": "item",
          "title": "番茄沙拉",
          "desc": "",
          "price": "7,1",
          "cover": "",
          "id": "1",
          "score": {
            "stars": 0,
            "votes": 0,
            "dist": {
              "1": 0,
              "2": 0,
              "3": 0,
              "4": 0,
              "5": 0
            }
          }
        },
        {
          "type": "item",
          "title": "混合沙拉",
          "desc": "",
          "price": "7,1",
          "cover": "",
          "id": "2",
          "score": {
            "stars": 0,
            "votes": 0,
            "dist": {
              "1": 0,
              "2": 0,
              "3": 0,
              "4": 0,
              "5": 0
            }
          }
        },
        {
          "type": "item",
          "title": "马苏里拉西红柿",
          "desc": "",
          "price": "13.10美元",
          "cover": "",
          "id": "3",
          "score": {
            "stars": 0,
            "votes": 0,
            "dist": {
              "1": 0,
              "2": 0,
              "3": 0,
              "4": 0,
              "5": 0
            }
          }
        },
        {
          "type": "item",
          "title": "nicoise沙拉",
          "desc": "",
          "price": "14,1",
          "cover": "",
          "id": "4",
          "score": {
            "stars": 0,
            "votes": 0,
            "dist": {
              "1": 0,
              "2": 0,
              "3": 0,
              "4": 0,
              "5": 0
            }
          }
        },
        {
          "type": "item",
          "title": "热山羊的沙拉",
          "desc": "",
          "price": "14,1",
          "cover": "",
          "id": "5",
          "score": {
            "stars": 0,
            "votes": 0,
            "dist": {
              "1": 0,
              "2": 0,
              "3": 0,
              "4": 0,
              "5": 0
            }
          }
        },
        {
          "type": "item",
          "title": "小酒馆沙拉",
          "desc": "",
          "price": "14,1",
          "cover": "",
          "id": "6",
          "score": {
            "stars": 0,
            "votes": 0,
            "dist": {
              "1": 0,
              "2": 0,
              "3": 0,
              "4": 0,
              "5": 0
            }
          }
        },
        {
          "type": "item",
          "title": "墨西哥沙拉",
          "desc": "混合沙拉，西红柿，炸玉米饼，玉米，鳄梨酱，芸豆和鸡肉",
          "price": "14,1",
          "cover": "",
          "id": "7",
          "score": {
            "stars": 0,
            "votes": 0,
            "dist": {
              "1": 0,
              "2": 0,
              "3": 0,
              "4": 0,
              "5": 0
            }
          }
        },
        {
          "type": "item",
          "title": "大西洋沙拉",
          "desc": "混合沙拉，西红柿，烟熏三文鱼，虾，棕榈心，菠萝",
          "price": "15.10美元",
          "cover": "",
          "id": "8",
          "score": {
            "stars": 0,
            "votes": 0,
            "dist": {
              "1": 0,
              "2": 0,
              "3": 0,
              "4": 0,
              "5": 0
            }
          }
        }
      ]
    },
    {
      "id": "4",
      "title": "面食（hm）",
      "desc": "“意大利面是用意大利面或通心粉制成的 + 1.6€新鲜taglietelles或gnocchi 新鲜牛肉馄饨+€3.9“",
      "items": [
        {
          "type": "item",
          "title": "烤宽面条al forno",
          "desc": "",
          "price": "16,9",
          "cover": "",
          "id": "0",
          "score": {
            "stars": 0,
            "votes": 0,
            "dist": {
              "1": 0,
              "2": 0,
              "3": 0,
              "4": 0,
              "5": 0
            }
          }
        },
        {
          "type": "item",
          "title": "那不勒斯",
          "desc": "",
          "price": "10,5",
          "cover": "",
          "id": "1",
          "score": {
            "stars": 0,
            "votes": 0,
            "dist": {
              "1": 0,
              "2": 0,
              "3": 0,
              "4": 0,
              "5": 0
            }
          }
        },
        {
          "type": "item",
          "title": "pistou",
          "desc": "",
          "price": "13,3",
          "cover": "",
          "id": "2",
          "score": {
            "stars": 0,
            "votes": 0,
            "dist": {
              "1": 0,
              "2": 0,
              "3": 0,
              "4": 0,
              "5": 0
            }
          }
        },
        {
          "type": "item",
          "title": "all'arrabbiata",
          "desc": "",
          "price": "12,3",
          "cover": "",
          "id": "3",
          "score": {
            "stars": 0,
            "votes": 0,
            "dist": {
              "1": 0,
              "2": 0,
              "3": 0,
              "4": 0,
              "5": 0
            }
          }
        },
        {
          "type": "item",
          "title": "三文鱼",
          "desc": "",
          "price": "15,3",
          "cover": "",
          "id": "4",
          "score": {
            "stars": 0,
            "votes": 0,
            "dist": {
              "1": 0,
              "2": 0,
              "3": 0,
              "4": 0,
              "5": 0
            }
          }
        },
        {
          "type": "item",
          "title": "培根蛋面",
          "desc": "",
          "price": "14,30",
          "cover": "",
          "id": "5",
          "score": {
            "stars": 0,
            "votes": 0,
            "dist": {
              "1": 0,
              "2": 0,
              "3": 0,
              "4": 0,
              "5": 0
            }
          }
        },
        {
          "type": "item",
          "title": "肉酱",
          "desc": "",
          "price": "14,30",
          "cover": "",
          "id": "6",
          "score": {
            "stars": 0,
            "votes": 0,
            "dist": {
              "1": 0,
              "2": 0,
              "3": 0,
              "4": 0,
              "5": 0
            }
          }
        }
      ]
    },
    {
      "id": "5",
      "title": "酸菜和菜肴",
      "desc": "",
      "items": [
        {
          "type": "item",
          "title": "海的酸菜",
          "desc": "",
          "price": "23.10美元",
          "cover": "",
          "id": "0",
          "score": {
            "stars": 0,
            "votes": 0,
            "dist": {
              "1": 0,
              "2": 0,
              "3": 0,
              "4": 0,
              "5": 0
            }
          }
        },
        {
          "type": "item",
          "title": "德国泡菜与“特色小酒馆”",
          "desc": "",
          "price": "23.10美元",
          "cover": "",
          "id": "1",
          "score": {
            "stars": 0,
            "votes": 0,
            "dist": {
              "1": 0,
              "2": 0,
              "3": 0,
              "4": 0,
              "5": 0
            }
          }
        },
        {
          "type": "item",
          "title": "烤香肠二重奏",
          "desc": "",
          "price": "15,9",
          "cover": "",
          "id": "2",
          "score": {
            "stars": 0,
            "votes": 0,
            "dist": {
              "1": 0,
              "2": 0,
              "3": 0,
              "4": 0,
              "5": 0
            }
          }
        },
        {
          "type": "item",
          "title": "火腿",
          "desc": "酸菜或土豆油",
          "price": "20",
          "cover": "",
          "id": "3",
          "score": {
            "stars": 0,
            "votes": 0,
            "dist": {
              "1": 0,
              "2": 0,
              "3": 0,
              "4": 0,
              "5": 0
            }
          }
        },
        {
          "type": "item",
          "title": "ravigote小牛的脑袋",
          "desc": "",
          "price": "19.50美元",
          "cover": "",
          "id": "4",
          "score": {
            "stars": 0,
            "votes": 0,
            "dist": {
              "1": 0,
              "2": 0,
              "3": 0,
              "4": 0,
              "5": 0
            }
          }
        },
        {
          "type": "item",
          "title": "andouillette“aaaaa”",
          "desc": "烤或芥末",
          "price": "19.50美元",
          "cover": "",
          "id": "5",
          "score": {
            "stars": 0,
            "votes": 0,
            "dist": {
              "1": 0,
              "2": 0,
              "3": 0,
              "4": 0,
              "5": 0
            }
          }
        }
      ]
    },
    {
      "id": "6",
      "title": "鱼",
      "desc": "",
      "items": [
        {
          "type": "item",
          "title": "小酒馆贻贝",
          "desc": "炸薯条",
          "price": "15,9",
          "cover": "",
          "id": "0",
          "score": {
            "stars": 0,
            "votes": 0,
            "dist": {
              "1": 0,
              "2": 0,
              "3": 0,
              "4": 0,
              "5": 0
            }
          }
        },
        {
          "type": "item",
          "title": "烤三文鱼",
          "desc": "",
          "price": "18,5",
          "cover": "",
          "id": "1",
          "score": {
            "stars": 0,
            "votes": 0,
            "dist": {
              "1": 0,
              "2": 0,
              "3": 0,
              "4": 0,
              "5": 0
            }
          }
        },
        {
          "type": "item",
          "title": "烤鲷鱼",
          "desc": "",
          "price": "28,9",
          "cover": "",
          "id": "2",
          "score": {
            "stars": 0,
            "votes": 0,
            "dist": {
              "1": 0,
              "2": 0,
              "3": 0,
              "4": 0,
              "5": 0
            }
          }
        },
        {
          "type": "item",
          "title": "普罗旺斯虾",
          "desc": "",
          "price": "29,8",
          "cover": "",
          "id": "3",
          "score": {
            "stars": 0,
            "votes": 0,
            "dist": {
              "1": 0,
              "2": 0,
              "3": 0,
              "4": 0,
              "5": 0
            }
          }
        },
        {
          "type": "item",
          "title": "calamaretti",
          "desc": "",
          "price": "19,8",
          "cover": "",
          "id": "4",
          "score": {
            "stars": 0,
            "votes": 0,
            "dist": {
              "1": 0,
              "2": 0,
              "3": 0,
              "4": 0,
              "5": 0
            }
          }
        },
        {
          "type": "item",
          "title": "混合油炸意大利风格",
          "desc": "",
          "price": "26,7",
          "cover": "",
          "id": "5",
          "score": {
            "stars": 0,
            "votes": 0,
            "dist": {
              "1": 0,
              "2": 0,
              "3": 0,
              "4": 0,
              "5": 0
            }
          }
        },
        {
          "type": "item",
          "title": "炸小鱼 - 炸银鱼",
          "desc": "小盘11,8€，大盘19,8€",
          "price": "11,8",
          "cover": "",
          "id": "6",
          "score": {
            "stars": 0,
            "votes": 0,
            "dist": {
              "1": 0,
              "2": 0,
              "3": 0,
              "4": 0,
              "5": 0
            }
          }
        }
      ]
    },
    {
      "id": "7",
      "title": "肉（hm）",
      "desc": "我们的菜肴都有点缀",
      "items": [
        {
          "type": "item",
          "title": "小牛肉排米拉内塞",
          "desc": "",
          "price": "23,6",
          "cover": "",
          "id": "0",
          "score": {
            "stars": 0,
            "votes": 0,
            "dist": {
              "1": 0,
              "2": 0,
              "3": 0,
              "4": 0,
              "5": 0
            }
          }
        },
        {
          "type": "item",
          "title": "小牛肉排配奶油和蘑菇",
          "desc": "",
          "price": "26,2",
          "cover": "",
          "id": "1",
          "score": {
            "stars": 0,
            "votes": 0,
            "dist": {
              "1": 0,
              "2": 0,
              "3": 0,
              "4": 0,
              "5": 0
            }
          }
        },
        {
          "type": "item",
          "title": "烤牛里脊肉",
          "desc": "",
          "price": "29,3",
          "cover": "",
          "id": "2",
          "score": {
            "stars": 0,
            "votes": 0,
            "dist": {
              "1": 0,
              "2": 0,
              "3": 0,
              "4": 0,
              "5": 0
            }
          }
        },
        {
          "type": "item",
          "title": "鞑靼牛排",
          "desc": "250克",
          "price": "24,7",
          "cover": "",
          "id": "3",
          "score": {
            "stars": 0,
            "votes": 0,
            "dist": {
              "1": 0,
              "2": 0,
              "3": 0,
              "4": 0,
              "5": 0
            }
          }
        },
        {
          "type": "item",
          "title": "烤enrecôte",
          "desc": "",
          "price": "25,2",
          "cover": "",
          "id": "4",
          "score": {
            "stars": 0,
            "votes": 0,
            "dist": {
              "1": 0,
              "2": 0,
              "3": 0,
              "4": 0,
              "5": 0
            }
          }
        },
        {
          "type": "item",
          "title": "汉堡酒馆",
          "desc": "250克",
          "price": "23,6",
          "cover": "",
          "id": "5",
          "score": {
            "stars": 0,
            "votes": 0,
            "dist": {
              "1": 0,
              "2": 0,
              "3": 0,
              "4": 0,
              "5": 0
            }
          }
        },
        {
          "type": "item",
          "title": "鸭子与蜂蜜",
          "desc": "",
          "price": "18,5",
          "cover": "",
          "id": "6",
          "score": {
            "stars": 0,
            "votes": 0,
            "dist": {
              "1": 0,
              "2": 0,
              "3": 0,
              "4": 0,
              "5": 0
            }
          }
        },
        {
          "type": "item",
          "title": "酱汁补充剂",
          "desc": "羊乳干酪，胡椒或芥末",
          "price": "1,9",
          "cover": "",
          "id": "7",
          "score": {
            "stars": 0,
            "votes": 0,
            "dist": {
              "1": 0,
              "2": 0,
              "3": 0,
              "4": 0,
              "5": 0
            }
          }
        }
      ]
    },
    {
      "id": "8",
      "title": "蔬菜",
      "desc": "",
      "items": [
        {
          "type": "item",
          "title": "炸薯条",
          "desc": "大部分7.4€",
          "price": "3,9",
          "cover": "",
          "id": "0",
          "score": {
            "stars": 0,
            "votes": 0,
            "dist": {
              "1": 0,
              "2": 0,
              "3": 0,
              "4": 0,
              "5": 0
            }
          }
        },
        {
          "type": "item",
          "title": "原浆",
          "desc": "大部分7.4€",
          "price": "3,9",
          "cover": "",
          "id": "1",
          "score": {
            "stars": 0,
            "votes": 0,
            "dist": {
              "1": 0,
              "2": 0,
              "3": 0,
              "4": 0,
              "5": 0
            }
          }
        },
        {
          "type": "item",
          "title": "青豆",
          "desc": "大部分7.4€",
          "price": "3,9",
          "cover": "",
          "id": "2",
          "score": {
            "stars": 0,
            "votes": 0,
            "dist": {
              "1": 0,
              "2": 0,
              "3": 0,
              "4": 0,
              "5": 0
            }
          }
        },
        {
          "type": "item",
          "title": "黄油饭",
          "desc": "大部分7.4€",
          "price": "3,9",
          "cover": "",
          "id": "3",
          "score": {
            "stars": 0,
            "votes": 0,
            "dist": {
              "1": 0,
              "2": 0,
              "3": 0,
              "4": 0,
              "5": 0
            }
          }
        }
      ]
    },
    {
      "id": "9",
      "title": "奶酪",
      "desc": "",
      "items": [
        {
          "type": "item",
          "title": "羊乳",
          "desc": "",
          "price": "8,6",
          "cover": "",
          "id": "0",
          "score": {
            "stars": 0,
            "votes": 0,
            "dist": {
              "1": 0,
              "2": 0,
              "3": 0,
              "4": 0,
              "5": 0
            }
          }
        },
        {
          "type": "item",
          "title": "山羊奶酪",
          "desc": "",
          "price": "8,6",
          "cover": "",
          "id": "1",
          "score": {
            "stars": 0,
            "votes": 0,
            "dist": {
              "1": 0,
              "2": 0,
              "3": 0,
              "4": 0,
              "5": 0
            }
          }
        },
        {
          "type": "item",
          "title": "奶酪二重奏",
          "desc": "",
          "price": "11,8",
          "cover": "",
          "id": "2",
          "score": {
            "stars": 0,
            "votes": 0,
            "dist": {
              "1": 0,
              "2": 0,
              "3": 0,
              "4": 0,
              "5": 0
            }
          }
        }
      ]
    },
    {
      "id": "10",
      "title": "美味佳肴（hm）",
      "desc": "",
      "items": [
        {
          "type": "item",
          "title": "新鲜水果沙拉",
          "desc": "",
          "price": "8,4",
          "cover": "",
          "id": "0",
          "score": {
            "stars": 0,
            "votes": 0,
            "dist": {
              "1": 0,
              "2": 0,
              "3": 0,
              "4": 0,
              "5": 0
            }
          }
        },
        {
          "type": "item",
          "title": "新鲜水果沙拉和冰淇淋",
          "desc": "",
          "price": "9,9",
          "cover": "",
          "id": "1",
          "score": {
            "stars": 0,
            "votes": 0,
            "dist": {
              "1": 0,
              "2": 0,
              "3": 0,
              "4": 0,
              "5": 0
            }
          }
        },
        {
          "type": "item",
          "title": "提拉米苏",
          "desc": "",
          "price": "8,9",
          "cover": "",
          "id": "2",
          "score": {
            "stars": 0,
            "votes": 0,
            "dist": {
              "1": 0,
              "2": 0,
              "3": 0,
              "4": 0,
              "5": 0
            }
          }
        },
        {
          "type": "item",
          "title": "浮岛",
          "desc": "",
          "price": "7,9",
          "cover": "",
          "id": "3",
          "score": {
            "stars": 0,
            "votes": 0,
            "dist": {
              "1": 0,
              "2": 0,
              "3": 0,
              "4": 0,
              "5": 0
            }
          }
        },
        {
          "type": "item",
          "title": "巧克力软糖",
          "desc": "",
          "price": "8,9",
          "cover": "",
          "id": "4",
          "score": {
            "stars": 0,
            "votes": 0,
            "dist": {
              "1": 0,
              "2": 0,
              "3": 0,
              "4": 0,
              "5": 0
            }
          }
        },
        {
          "type": "item",
          "title": "焦糖布丁",
          "desc": "",
          "price": "7,9",
          "cover": "",
          "id": "5",
          "score": {
            "stars": 0,
            "votes": 0,
            "dist": {
              "1": 0,
              "2": 0,
              "3": 0,
              "4": 0,
              "5": 0
            }
          }
        },
        {
          "type": "item",
          "title": "苹果崩溃",
          "desc": "",
          "price": "9,8",
          "cover": "",
          "id": "6",
          "score": {
            "stars": 0,
            "votes": 0,
            "dist": {
              "1": 0,
              "2": 0,
              "3": 0,
              "4": 0,
              "5": 0
            }
          }
        },
        {
          "type": "item",
          "title": "奶油",
          "desc": "",
          "price": "7,9",
          "cover": "",
          "id": "7",
          "score": {
            "stars": 0,
            "votes": 0,
            "dist": {
              "1": 0,
              "2": 0,
              "3": 0,
              "4": 0,
              "5": 0
            }
          }
        }
      ]
    },
    {
      "id": "11",
      "title": "木烤箱里的pizzaiolo特产（hm）",
      "desc": "",
      "items": [
        {
          "type": "item",
          "title": "热苹果派",
          "desc": "",
          "price": "9,1",
          "cover": "",
          "id": "0",
          "score": {
            "stars": 0,
            "votes": 0,
            "dist": {
              "1": 0,
              "2": 0,
              "3": 0,
              "4": 0,
              "5": 0
            }
          }
        },
        {
          "type": "item",
          "title": "温暖的尚蒂伊苹果派",
          "desc": "",
          "price": "10,2",
          "cover": "",
          "id": "1",
          "score": {
            "stars": 0,
            "votes": 0,
            "dist": {
              "1": 0,
              "2": 0,
              "3": 0,
              "4": 0,
              "5": 0
            }
          }
        },
        {
          "type": "item",
          "title": "热苹果派香草冰淇淋",
          "desc": "",
          "price": "10,8",
          "cover": "",
          "id": "2",
          "score": {
            "stars": 0,
            "votes": 0,
            "dist": {
              "1": 0,
              "2": 0,
              "3": 0,
              "4": 0,
              "5": 0
            }
          }
        },
        {
          "type": "item",
          "title": "热苹果蛋糕奶油和香草冰淇淋",
          "desc": "",
          "price": "11,8",
          "cover": "",
          "id": "3",
          "score": {
            "stars": 0,
            "votes": 0,
            "dist": {
              "1": 0,
              "2": 0,
              "3": 0,
              "4": 0,
              "5": 0
            }
          }
        }
      ]
    },
    {
      "id": "12",
      "title": "手工冰淇淋",
      "desc": "由我们的工匠大师冰川，蔚蓝的雪制成的冰淇淋",
      "items": [
        {
          "type": "item",
          "title": "简单切",
          "desc": "“2球可供选择 -  冰淇淋：香草，咖啡，巧克力，开心果，马拉加，牛奶花，榛子 果汁冰糕：黑醋栗，柠檬，椰子，草莓，梨 鲜奶油或热巧克力补充1,1€",
          "price": "7,4",
          "cover": "",
          "id": "0",
          "score": {
            "stars": 0,
            "votes": 0,
            "dist": {
              "1": 0,
              "2": 0,
              "3": 0,
              "4": 0,
              "5": 0
            }
          }
        },
        {
          "type": "item",
          "title": "白衣女士",
          "desc": "香草，热巧克力，鲜奶油",
          "price": "9,8",
          "cover": "",
          "id": "1",
          "score": {
            "stars": 0,
            "votes": 0,
            "dist": {
              "1": 0,
              "2": 0,
              "3": 0,
              "4": 0,
              "5": 0
            }
          }
        },
        {
          "type": "item",
          "title": "咖啡馆或巧克力",
          "desc": "",
          "price": "9,8",
          "cover": "",
          "id": "2",
          "score": {
            "stars": 0,
            "votes": 0,
            "dist": {
              "1": 0,
              "2": 0,
              "3": 0,
              "4": 0,
              "5": 0
            }
          }
        },
        {
          "type": "item",
          "title": "白色勃朗峰",
          "desc": "马拉加和香草，栗子奶油，鲜奶油",
          "price": "9,8",
          "cover": "",
          "id": "3",
          "score": {
            "stars": 0,
            "votes": 0,
            "dist": {
              "1": 0,
              "2": 0,
              "3": 0,
              "4": 0,
              "5": 0
            }
          }
        },
        {
          "type": "item",
          "title": "莫斯科娃切",
          "desc": "黑加仑冰糕，伏特加",
          "price": "10,3",
          "cover": "",
          "id": "4",
          "score": {
            "stars": 0,
            "votes": 0,
            "dist": {
              "1": 0,
              "2": 0,
              "3": 0,
              "4": 0,
              "5": 0
            }
          }
        },
        {
          "type": "item",
          "title": "上校杯",
          "desc": "柠檬冰糕，伏特加",
          "price": "10,3",
          "cover": "",
          "id": "5",
          "score": {
            "stars": 0,
            "votes": 0,
            "dist": {
              "1": 0,
              "2": 0,
              "3": 0,
              "4": 0,
              "5": 0
            }
          }
        },
        {
          "type": "item",
          "title": "威廉姆斯杯",
          "desc": "毛孔冰糕，梨酒",
          "price": "10,3",
          "cover": "",
          "id": "6",
          "score": {
            "stars": 0,
            "votes": 0,
            "dist": {
              "1": 0,
              "2": 0,
              "3": 0,
              "4": 0,
              "5": 0
            }
          }
        }
      ]
    },
    {
      "id": "13",
      "title": "葡萄酒",
      "desc": "",
      "items": [
        {
          "type": "subcategory",
          "title": "Côtesdeprovence",
          "desc": ""
        },
        {
          "type": "item",
          "title": "CRESCI葡萄酒（75cl）",
          "desc": "“Red，Rose  -  37,5cl to 10,30€”",
          "price": "18,6",
          "cover": "",
          "id": "0",
          "score": {
            "stars": 0,
            "votes": 0,
            "dist": {
              "1": 0,
              "2": 0,
              "3": 0,
              "4": 0,
              "5": 0
            }
          }
        },
        {
          "type": "item",
          "title": "LAND NOBLES（75cl）",
          "desc": "“Red，Rose，White  -  50cl at 17,60€”",
          "price": "21,5",
          "cover": "",
          "id": "1",
          "score": {
            "stars": 0,
            "votes": 0,
            "dist": {
              "1": 0,
              "2": 0,
              "3": 0,
              "4": 0,
              "5": 0
            }
          }
        },
        {
          "type": "item",
          "title": " CHATEAU RASQUE（75cl）",
          "desc": "红色，粉红色，白色",
          "price": "37,5",
          "cover": "",
          "id": "2",
          "score": {
            "stars": 0,
            "votes": 0,
            "dist": {
              "1": 0,
              "2": 0,
              "3": 0,
              "4": 0,
              "5": 0
            }
          }
        },
        {
          "type": "item",
          "title": "MINUTY PRESTIGE（50cl）",
          "desc": "“Red，Pink  -  Magnum 1,5l to 68€”",
          "price": "24,5",
          "cover": "",
          "id": "3",
          "score": {
            "stars": 0,
            "votes": 0,
            "dist": {
              "1": 0,
              "2": 0,
              "3": 0,
              "4": 0,
              "5": 0
            }
          }
        },
        {
          "type": "subcategory",
          "title": "BANDOL",
          "desc": ""
        },
        {
          "type": "item",
          "title": "VAL D'ARENC（75cl）",
          "desc": "“Red，Rose  -  37,5cl at 19,10€”",
          "price": "35,5",
          "cover": "",
          "id": "4",
          "score": {
            "stars": 0,
            "votes": 0,
            "dist": {
              "1": 0,
              "2": 0,
              "3": 0,
              "4": 0,
              "5": 0
            }
          }
        },
        {
          "type": "subcategory",
          "title": "RHONE的谷",
          "desc": ""
        },
        {
          "type": "item",
          "title": "MAGERANS（75cl）",
          "desc": "“CôtesduRhône -  37,5cl to 14,60€”",
          "price": "25,5",
          "cover": "",
          "id": "5",
          "score": {
            "stars": 0,
            "votes": 0,
            "dist": {
              "1": 0,
              "2": 0,
              "3": 0,
              "4": 0,
              "5": 0
            }
          }
        },
        {
          "type": "item",
          "title": "PIERRE AMADIEU（75cl）",
          "desc": "沙托纳迪帕普",
          "price": "56",
          "cover": "",
          "id": "6",
          "score": {
            "stars": 0,
            "votes": 0,
            "dist": {
              "1": 0,
              "2": 0,
              "3": 0,
              "4": 0,
              "5": 0
            }
          }
        },
        {
          "type": "subcategory",
          "title": "BEAUJOLAIS",
          "desc": ""
        },
        {
          "type": "item",
          "title": "DOMAINE DU CHINESE WOOD（75cl）",
          "desc": "“Beaujolais村庄 -  37,5cl at 14,60€”",
          "price": "25,5",
          "cover": "",
          "id": "7",
          "score": {
            "stars": 0,
            "votes": 0,
            "dist": {
              "1": 0,
              "2": 0,
              "3": 0,
              "4": 0,
              "5": 0
            }
          }
        },
        {
          "type": "subcategory",
          "title": "BORDEAUX",
          "desc": ""
        },
        {
          "type": "item",
          "title": "FORTIN PLAISANCE（75cl）",
          "desc": "“Saint-Emilion  -  37,5cl at 19,60€”",
          "price": "36,5",
          "cover": "",
          "id": "8",
          "score": {
            "stars": 0,
            "votes": 0,
            "dist": {
              "1": 0,
              "2": 0,
              "3": 0,
              "4": 0,
              "5": 0
            }
          }
        },
        {
          "type": "item",
          "title": "CHATEAU HAUT-BEAUSEJOUR（75cl）",
          "desc": "圣Estèphe产",
          "price": "60",
          "cover": "",
          "id": "9",
          "score": {
            "stars": 0,
            "votes": 0,
            "dist": {
              "1": 0,
              "2": 0,
              "3": 0,
              "4": 0,
              "5": 0
            }
          }
        },
        {
          "type": "subcategory",
          "title": "Bourgone",
          "desc": ""
        },
        {
          "type": "item",
          "title": "Domaine de Vauroux（75cl）",
          "desc": "夏布利",
          "price": "36,5",
          "cover": "",
          "id": "10",
          "score": {
            "stars": 0,
            "votes": 0,
            "dist": {
              "1": 0,
              "2": 0,
              "3": 0,
              "4": 0,
              "5": 0
            }
          }
        },
        {
          "type": "subcategory",
          "title": "阿尔萨斯",
          "desc": ""
        },
        {
          "type": "item",
          "title": "LéonBeyer（75cl）",
          "desc": "“Riesting  -  37.5cl at 16.9€”",
          "price": "29",
          "cover": "",
          "id": "11",
          "score": {
            "stars": 0,
            "votes": 0,
            "dist": {
              "1": 0,
              "2": 0,
              "3": 0,
              "4": 0,
              "5": 0
            }
          }
        },
        {
          "type": "item",
          "title": "LéonBeyer（75cl）",
          "desc": "“Gewurztraminer  -  37.5cl at 18.1€”",
          "price": "33,5",
          "cover": "",
          "id": "12",
          "score": {
            "stars": 0,
            "votes": 0,
            "dist": {
              "1": 0,
              "2": 0,
              "3": 0,
              "4": 0,
              "5": 0
            }
          }
        },
        {
          "type": "subcategory",
          "title": "意大利",
          "desc": ""
        },
        {
          "type": "item",
          "title": "CHIANTI RUFFINO（75cl）",
          "desc": "“红色 -  37.5cl至16.80€”",
          "price": "28",
          "cover": "",
          "id": "13",
          "score": {
            "stars": 0,
            "votes": 0,
            "dist": {
              "1": 0,
              "2": 0,
              "3": 0,
              "4": 0,
              "5": 0
            }
          }
        },
        {
          "type": "subcategory",
          "title": "香槟",
          "desc": ""
        },
        {
          "type": "item",
          "title": "LOUIS ROEDERER（75cl）",
          "desc": "37.5cl至38.50€",
          "price": "71",
          "cover": "",
          "id": "14",
          "score": {
            "stars": 0,
            "votes": 0,
            "dist": {
              "1": 0,
              "2": 0,
              "3": 0,
              "4": 0,
              "5": 0
            }
          }
        },
        {
          "type": "item",
          "title": "香槟“精选之家”（75cl）",
          "desc": "",
          "price": "54",
          "cover": "",
          "id": "15",
          "score": {
            "stars": 0,
            "votes": 0,
            "dist": {
              "1": 0,
              "2": 0,
              "3": 0,
              "4": 0,
              "5": 0
            }
          }
        },
        {
          "type": "subcategory",
          "title": "自制葡萄酒",
          "desc": ""
        },
        {
          "type": "item",
          "title": "葡萄酒选择馆（16cl）",
          "desc": "红色 - 粉红色 - 白色",
          "price": "3,9",
          "cover": "",
          "id": "16",
          "score": {
            "stars": 0,
            "votes": 0,
            "dist": {
              "1": 0,
              "2": 0,
              "3": 0,
              "4": 0,
              "5": 0
            }
          }
        },
        {
          "type": "item",
          "title": "此刻的政变（16cl）",
          "desc": "瓶（75cl）至22,50€",
          "price": "4,9",
          "cover": "",
          "id": "17",
          "score": {
            "stars": 0,
            "votes": 0,
            "dist": {
              "1": 0,
              "2": 0,
              "3": 0,
              "4": 0,
              "5": 0
            }
          }
        }
      ]
    },
    {
      "id": "14",
      "title": "开胃酒",
      "desc": "",
      "items": [
        {
          "type": "item",
          "title": "Kir（13cl）",
          "desc": "",
          "price": "4,8",
          "cover": "",
          "id": "0",
          "score": {
            "stars": 0,
            "votes": 0,
            "dist": {
              "1": 0,
              "2": 0,
              "3": 0,
              "4": 0,
              "5": 0
            }
          }
        },
        {
          "type": "item",
          "title": "Kir Royal（13cl）",
          "desc": "",
          "price": "10,6",
          "cover": "",
          "id": "1",
          "score": {
            "stars": 0,
            "votes": 0,
            "dist": {
              "1": 0,
              "2": 0,
              "3": 0,
              "4": 0,
              "5": 0
            }
          }
        },
        {
          "type": "item",
          "title": "Pastis，Ricard，51（2cl）",
          "desc": "",
          "price": "5",
          "cover": "",
          "id": "2",
          "score": {
            "stars": 0,
            "votes": 0,
            "dist": {
              "1": 0,
              "2": 0,
              "3": 0,
              "4": 0,
              "5": 0
            }
          }
        },
        {
          "type": "item",
          "title": "马提尼，苏兹，波尔图，坎帕里（6cl）",
          "desc": "",
          "price": "5",
          "cover": "",
          "id": "3",
          "score": {
            "stars": 0,
            "votes": 0,
            "dist": {
              "1": 0,
              "2": 0,
              "3": 0,
              "4": 0,
              "5": 0
            }
          }
        },
        {
          "type": "item",
          "title": "威士忌，伏特加，杜松子酒，朗姆酒（4 cl）",
          "desc": "",
          "price": "7",
          "cover": "",
          "id": "4",
          "score": {
            "stars": 0,
            "votes": 0,
            "dist": {
              "1": 0,
              "2": 0,
              "3": 0,
              "4": 0,
              "5": 0
            }
          }
        },
        {
          "type": "item",
          "title": "Jack Daniel's，JW Black Label（4cl）",
          "desc": "",
          "price": "9",
          "cover": "",
          "id": "5",
          "score": {
            "stars": 0,
            "votes": 0,
            "dist": {
              "1": 0,
              "2": 0,
              "3": 0,
              "4": 0,
              "5": 0
            }
          }
        },
        {
          "type": "item",
          "title": "VSOP干邑，梨（4cl）",
          "desc": "",
          "price": "9",
          "cover": "",
          "id": "6",
          "score": {
            "stars": 0,
            "votes": 0,
            "dist": {
              "1": 0,
              "2": 0,
              "3": 0,
              "4": 0,
              "5": 0
            }
          }
        },
        {
          "type": "item",
          "title": "干邑，阿马尼亚克（4cl）",
          "desc": "",
          "price": "7",
          "cover": "",
          "id": "7",
          "score": {
            "stars": 0,
            "votes": 0,
            "dist": {
              "1": 0,
              "2": 0,
              "3": 0,
              "4": 0,
              "5": 0
            }
          }
        },
        {
          "type": "item",
          "title": "Grappa，Calva，27岁，Limoncello（4 cl）",
          "desc": "",
          "price": "7",
          "cover": "",
          "id": "8",
          "score": {
            "stars": 0,
            "votes": 0,
            "dist": {
              "1": 0,
              "2": 0,
              "3": 0,
              "4": 0,
              "5": 0
            }
          }
        },
        {
          "type": "item",
          "title": "Orangina，Diabolo，Tonic（25cl）",
          "desc": "",
          "price": "4,7",
          "cover": "",
          "id": "9",
          "score": {
            "stars": 0,
            "votes": 0,
            "dist": {
              "1": 0,
              "2": 0,
              "3": 0,
              "4": 0,
              "5": 0
            }
          }
        },
        {
          "type": "item",
          "title": "果汁，冰茶（25cl）",
          "desc": "",
          "price": "4,7",
          "cover": "",
          "id": "10",
          "score": {
            "stars": 0,
            "votes": 0,
            "dist": {
              "1": 0,
              "2": 0,
              "3": 0,
              "4": 0,
              "5": 0
            }
          }
        },
        {
          "type": "item",
          "title": "PEPSI，PEPSI MAX（33cl）",
          "desc": "",
          "price": "4,3",
          "cover": "",
          "id": "11",
          "score": {
            "stars": 0,
            "votes": 0,
            "dist": {
              "1": 0,
              "2": 0,
              "3": 0,
              "4": 0,
              "5": 0
            }
          }
        },
        {
          "type": "item",
          "title": "可口可乐，零，光（33cl）",
          "desc": "",
          "price": "4,9",
          "cover": "",
          "id": "12",
          "score": {
            "stars": 0,
            "votes": 0,
            "dist": {
              "1": 0,
              "2": 0,
              "3": 0,
              "4": 0,
              "5": 0
            }
          }
        }
      ]
    },
    {
      "id": "15",
      "title": "啤酒 - 醇类",
      "desc": "",
      "items": [
        {
          "type": "subcategory",
          "title": "啤酒在水龙头上",
          "desc": ""
        },
        {
          "type": "item",
          "title": "1664（25cl）",
          "desc": "男爵50cl为7.7€",
          "price": "4,3",
          "cover": "",
          "id": "0",
          "score": {
            "stars": 0,
            "votes": 0,
            "dist": {
              "1": 0,
              "2": 0,
              "3": 0,
              "4": 0,
              "5": 0
            }
          }
        },
        {
          "type": "item",
          "title": "Abbey Grimbergen（25cl）",
          "desc": "50cl至9,8€",
          "price": "5,8",
          "cover": "",
          "id": "1",
          "score": {
            "stars": 0,
            "votes": 0,
            "dist": {
              "1": 0,
              "2": 0,
              "3": 0,
              "4": 0,
              "5": 0
            }
          }
        },
        {
          "type": "subcategory",
          "title": "瓶装啤酒",
          "desc": ""
        },
        {
          "type": "item",
          "title": "嘉士伯",
          "desc": "33厘升",
          "price": "6,3",
          "cover": "",
          "id": "2",
          "score": {
            "stars": 0,
            "votes": 0,
            "dist": {
              "1": 0,
              "2": 0,
              "3": 0,
              "4": 0,
              "5": 0
            }
          }
        },
        {
          "type": "item",
          "title": "好琥珀啤酒",
          "desc": "33厘升",
          "price": "7",
          "cover": "",
          "id": "3",
          "score": {
            "stars": 0,
            "votes": 0,
            "dist": {
              "1": 0,
              "2": 0,
              "3": 0,
              "4": 0,
              "5": 0
            }
          }
        },
        {
          "type": "item",
          "title": "老虎博克布朗",
          "desc": "27.5 cl",
          "price": "6",
          "cover": "",
          "id": "4",
          "score": {
            "stars": 0,
            "votes": 0,
            "dist": {
              "1": 0,
              "2": 0,
              "3": 0,
              "4": 0,
              "5": 0
            }
          }
        },
        {
          "type": "item",
          "title": "白啤酒Grimbergen",
          "desc": "33 cl",
          "price": "6,6",
          "cover": "",
          "id": "5",
          "score": {
            "stars": 0,
            "votes": 0,
            "dist": {
              "1": 0,
              "2": 0,
              "3": 0,
              "4": 0,
              "5": 0
            }
          }
        },
        {
          "type": "item",
          "title": "科罗纳",
          "desc": "33厘升",
          "price": "4,2",
          "cover": "",
          "id": "6",
          "score": {
            "stars": 0,
            "votes": 0,
            "dist": {
              "1": 0,
              "2": 0,
              "3": 0,
              "4": 0,
              "5": 0
            }
          }
        },
        {
          "type": "item",
          "title": "非酒精啤酒",
          "desc": "25 cl",
          "price": "4,2",
          "cover": "",
          "id": "7",
          "score": {
            "stars": 0,
            "votes": 0,
            "dist": {
              "1": 0,
              "2": 0,
              "3": 0,
              "4": 0,
              "5": 0
            }
          }
        }
      ]
    },
    {
      "id": "16",
      "title": "热饮",
      "desc": "",
      "items": [
        {
          "type": "item",
          "title": "快报",
          "desc": "",
          "price": "2",
          "cover": "",
          "id": "0",
          "score": {
            "stars": 0,
            "votes": 0,
            "dist": {
              "1": 0,
              "2": 0,
              "3": 0,
              "4": 0,
              "5": 0
            }
          }
        },
        {
          "type": "item",
          "title": "不含咖啡因的咖啡",
          "desc": "",
          "price": "2",
          "cover": "",
          "id": "1",
          "score": {
            "stars": 0,
            "votes": 0,
            "dist": {
              "1": 0,
              "2": 0,
              "3": 0,
              "4": 0,
              "5": 0
            }
          }
        },
        {
          "type": "item",
          "title": "热奶咖啡",
          "desc": "",
          "price": "4,4",
          "cover": "",
          "id": "2",
          "score": {
            "stars": 0,
            "votes": 0,
            "dist": {
              "1": 0,
              "2": 0,
              "3": 0,
              "4": 0,
              "5": 0
            }
          }
        },
        {
          "type": "item",
          "title": "巧克力",
          "desc": "",
          "price": "4,4",
          "cover": "",
          "id": "3",
          "score": {
            "stars": 0,
            "votes": 0,
            "dist": {
              "1": 0,
              "2": 0,
              "3": 0,
              "4": 0,
              "5": 0
            }
          }
        },
        {
          "type": "item",
          "title": "奶茶",
          "desc": "",
          "price": "3,9",
          "cover": "",
          "id": "4",
          "score": {
            "stars": 0,
            "votes": 0,
            "dist": {
              "1": 0,
              "2": 0,
              "3": 0,
              "4": 0,
              "5": 0
            }
          }
        },
        {
          "type": "item",
          "title": "柠檬茶",
          "desc": "",
          "price": "3,9",
          "cover": "",
          "id": "5",
          "score": {
            "stars": 0,
            "votes": 0,
            "dist": {
              "1": 0,
              "2": 0,
              "3": 0,
              "4": 0,
              "5": 0
            }
          }
        },
        {
          "type": "item",
          "title": "注入",
          "desc": "",
          "price": "3,9",
          "cover": "",
          "id": "6",
          "score": {
            "stars": 0,
            "votes": 0,
            "dist": {
              "1": 0,
              "2": 0,
              "3": 0,
              "4": 0,
              "5": 0
            }
          }
        },
        {
          "type": "item",
          "title": "咖啡加牛奶",
          "desc": "",
          "price": "3,9",
          "cover": "",
          "id": "7",
          "score": {
            "stars": 0,
            "votes": 0,
            "dist": {
              "1": 0,
              "2": 0,
              "3": 0,
              "4": 0,
              "5": 0
            }
          }
        },
        {
          "type": "item",
          "title": "维也纳咖啡或巧克力",
          "desc": "",
          "price": "4,9",
          "cover": "",
          "id": "8",
          "score": {
            "stars": 0,
            "votes": 0,
            "dist": {
              "1": 0,
              "2": 0,
              "3": 0,
              "4": 0,
              "5": 0
            }
          }
        },
        {
          "type": "item",
          "title": "爱尔兰咖啡",
          "desc": "",
          "price": "9,8",
          "cover": "",
          "id": "9",
          "score": {
            "stars": 0,
            "votes": 0,
            "dist": {
              "1": 0,
              "2": 0,
              "3": 0,
              "4": 0,
              "5": 0
            }
          }
        }
      ]
    },
    {
      "id": "17",
      "title": "矿物水",
      "desc": "",
      "items": [
        {
          "type": "subcategory",
          "title": "1至6欧元",
          "desc": "4"
        },
        {
          "type": "item",
          "title": "Perrier细泡（1 / 2l）",
          "desc": "1至6欧元",
          "price": "4",
          "cover": "",
          "id": "0",
          "score": {
            "stars": 0,
            "votes": 0,
            "dist": {
              "1": 0,
              "2": 0,
              "3": 0,
              "4": 0,
              "5": 0
            }
          }
        },
        {
          "type": "item",
          "title": "Perrier（33cl）",
          "desc": "",
          "price": "3,8",
          "cover": "",
          "id": "1",
          "score": {
            "stars": 0,
            "votes": 0,
            "dist": {
              "1": 0,
              "2": 0,
              "3": 0,
              "4": 0,
              "5": 0
            }
          }
        }
      ]
    }
  ]
}
