{
  "pages": [
    {
      "id": "0",
      "title": "закуска",
      "desc": "",
      "items": [
        {
          "type": "item",
          "title": "Смешанный салат",
          "desc": "Помидоры и оливки Месклун",
          "price": "6,5",
          "cover": "",
          "id": "0",
          "score": {
            "stars": 0,
            "votes": 0,
            "dist": {
              "1": 0,
              "2": 0,
              "3": 0,
              "4": 0,
              "5": 0
            }
          }
        },
        {
          "type": "item",
          "title": "Луковый суп",
          "desc": "",
          "price": "12",
          "cover": "",
          "id": "1",
          "score": {
            "stars": 0,
            "votes": 0,
            "dist": {
              "1": 0,
              "2": 0,
              "3": 0,
              "4": 0,
              "5": 0
            }
          }
        },
        {
          "type": "item",
          "title": "Тартар из свежего лосося с укропом",
          "desc": "",
          "price": "14",
          "cover": "",
          "id": "2",
          "score": {
            "stars": 0,
            "votes": 0,
            "dist": {
              "1": 0,
              "2": 0,
              "3": 0,
              "4": 0,
              "5": 0
            }
          }
        },
        {
          "type": "item",
          "title": "Теплый салат из осьминогов",
          "desc": "Мескун, осьминог, теплый картофель, лук, помидоры, оливки",
          "price": "14,5",
          "cover": "",
          "id": "3",
          "score": {
            "stars": 0,
            "votes": 0,
            "dist": {
              "1": 0,
              "2": 0,
              "3": 0,
              "4": 0,
              "5": 0
            }
          }
        }
      ]
    },
    {
      "id": "1",
      "title": "Французские деликатесы",
      "desc": "",
      "items": [
        {
          "type": "item",
          "title": "Бургундские улитки (дюжина)",
          "desc": "",
          "price": "13,5",
          "cover": "",
          "id": "0",
          "score": {
            "stars": 0,
            "votes": 0,
            "dist": {
              "1": 0,
              "2": 0,
              "3": 0,
              "4": 0,
              "5": 0
            }
          }
        },
        {
          "type": "item",
          "title": "Провансальные лягушачьи ножки",
          "desc": "",
          "price": "13,5",
          "cover": "",
          "id": "1",
          "score": {
            "stars": 0,
            "votes": 0,
            "dist": {
              "1": 0,
              "2": 0,
              "3": 0,
              "4": 0,
              "5": 0
            }
          }
        },
        {
          "type": "item",
          "title": "Домашние утки фуа-гра и тосты",
          "desc": "",
          "price": "18",
          "cover": "",
          "id": "2",
          "score": {
            "stars": 0,
            "votes": 0,
            "dist": {
              "1": 0,
              "2": 0,
              "3": 0,
              "4": 0,
              "5": 0
            }
          }
        }
      ]
    },
    {
      "id": "2",
      "title": "салаты макси",
      "desc": "",
      "items": [
        {
          "type": "item",
          "title": "Максимум Nicoise",
          "desc": "Салат, помидоры, перец, тунец, яйцо, анчоусы, редис, огурец, оливки",
          "price": "14",
          "cover": "",
          "id": "0",
          "score": {
            "stars": 0,
            "votes": 0,
            "dist": {
              "1": 0,
              "2": 0,
              "3": 0,
              "4": 0,
              "5": 0
            }
          }
        },
        {
          "type": "item",
          "title": "Paysanne maxi",
          "desc": "Салат, помидоры, горячий козий сыр, сырая ветчина, сыр, орехи, гренки",
          "price": "14,5",
          "cover": "",
          "id": "1",
          "score": {
            "stars": 0,
            "votes": 0,
            "dist": {
              "1": 0,
              "2": 0,
              "3": 0,
              "4": 0,
              "5": 0
            }
          }
        },
        {
          "type": "item",
          "title": "Макси Цезарь",
          "desc": "Салат, помидоры, грибы, гренки, сырная стружка, курица, соусом Цезарь",
          "price": "14,5",
          "cover": "",
          "id": "2",
          "score": {
            "stars": 0,
            "votes": 0,
            "dist": {
              "1": 0,
              "2": 0,
              "3": 0,
              "4": 0,
              "5": 0
            }
          }
        },
        {
          "type": "item",
          "title": "Летний максимум",
          "desc": "Салат, помидоры, сырая ветчина, сезонные фрукты, морские овощи, козий сыр на тосте",
          "price": "14,5",
          "cover": "",
          "id": "3",
          "score": {
            "stars": 0,
            "votes": 0,
            "dist": {
              "1": 0,
              "2": 0,
              "3": 0,
              "4": 0,
              "5": 0
            }
          }
        },
        {
          "type": "item",
          "title": "Гавайские макси",
          "desc": "Салат, помидоры, но креветки, сердце ладони, ананас, киви, гуакамоле, тако",
          "price": "15",
          "cover": "",
          "id": "4",
          "score": {
            "stars": 0,
            "votes": 0,
            "dist": {
              "1": 0,
              "2": 0,
              "3": 0,
              "4": 0,
              "5": 0
            }
          }
        }
      ]
    },
    {
      "id": "3",
      "title": "НАШИ ПИЦЦА",
      "desc": "",
      "items": [
        {
          "type": "item",
          "title": "маргаритка",
          "desc": "Томатный соус, сыр, орегано",
          "price": "10",
          "cover": "",
          "id": "0",
          "score": {
            "stars": 0,
            "votes": 0,
            "dist": {
              "1": 0,
              "2": 0,
              "3": 0,
              "4": 0,
              "5": 0
            }
          }
        },
        {
          "type": "item",
          "title": "неаполитанский",
          "desc": "Томатный соус, анчоусы, сыр, оливки, орегано",
          "price": "11",
          "cover": "",
          "id": "1",
          "score": {
            "stars": 0,
            "votes": 0,
            "dist": {
              "1": 0,
              "2": 0,
              "3": 0,
              "4": 0,
              "5": 0
            }
          }
        },
        {
          "type": "item",
          "title": "королева",
          "desc": "Томатный соус, грибы, ветчина, сыр, орегано",
          "price": "13",
          "cover": "",
          "id": "2",
          "score": {
            "stars": 0,
            "votes": 0,
            "dist": {
              "1": 0,
              "2": 0,
              "3": 0,
              "4": 0,
              "5": 0
            }
          }
        },
        {
          "type": "item",
          "title": "Queen белый",
          "desc": "Свежие сливки, грибы, ветчина, сыр, орегано",
          "price": "13",
          "cover": "",
          "id": "3",
          "score": {
            "stars": 0,
            "votes": 0,
            "dist": {
              "1": 0,
              "2": 0,
              "3": 0,
              "4": 0,
              "5": 0
            }
          }
        },
        {
          "type": "item",
          "title": "4 сезона",
          "desc": "Томатный соус, грибы, ветчина, сыр, артишок, орегано",
          "price": "13,5",
          "cover": "",
          "id": "4",
          "score": {
            "stars": 0,
            "votes": 0,
            "dist": {
              "1": 0,
              "2": 0,
              "3": 0,
              "4": 0,
              "5": 0
            }
          }
        },
        {
          "type": "item",
          "title": "вегетарианец",
          "desc": "Томатный соус, баклажаны, цуккини, перец, сыр",
          "price": "13,5",
          "cover": "",
          "id": "5",
          "score": {
            "stars": 0,
            "votes": 0,
            "dist": {
              "1": 0,
              "2": 0,
              "3": 0,
              "4": 0,
              "5": 0
            }
          }
        },
        {
          "type": "item",
          "title": "3 сыра",
          "desc": "Томатный соус, моцарелла, сыр рокофор, козий сыр, орегано",
          "price": "14",
          "cover": "",
          "id": "6",
          "score": {
            "stars": 0,
            "votes": 0,
            "dist": {
              "1": 0,
              "2": 0,
              "3": 0,
              "4": 0,
              "5": 0
            }
          }
        },
        {
          "type": "item",
          "title": "восточный",
          "desc": "Томатный соус, сливки, перец, сыр, оливки",
          "price": "13",
          "cover": "",
          "id": "7",
          "score": {
            "stars": 0,
            "votes": 0,
            "dist": {
              "1": 0,
              "2": 0,
              "3": 0,
              "4": 0,
              "5": 0
            }
          }
        },
        {
          "type": "item",
          "title": "каннибал",
          "desc": "Томатный соус, фарш, яйцо, сыр, петрушка",
          "price": "14",
          "cover": "",
          "id": "8",
          "score": {
            "stars": 0,
            "votes": 0,
            "dist": {
              "1": 0,
              "2": 0,
              "3": 0,
              "4": 0,
              "5": 0
            }
          }
        },
        {
          "type": "item",
          "title": "испанский",
          "desc": "Томатный соус, чоризо, сыр, орегано",
          "price": "13",
          "cover": "",
          "id": "9",
          "score": {
            "stars": 0,
            "votes": 0,
            "dist": {
              "1": 0,
              "2": 0,
              "3": 0,
              "4": 0,
              "5": 0
            }
          }
        },
        {
          "type": "item",
          "title": "морепродукты",
          "desc": "Томатный соус, коктейль из морепродуктов, сыр, орегано",
          "price": "14,5",
          "cover": "",
          "id": "10",
          "score": {
            "stars": 0,
            "votes": 0,
            "dist": {
              "1": 0,
              "2": 0,
              "3": 0,
              "4": 0,
              "5": 0
            }
          }
        },
        {
          "type": "item",
          "title": "Кальцоне",
          "desc": "Томатный соус, гриб, ветчина, сыр, яйцо",
          "price": "13,5",
          "cover": "",
          "id": "11",
          "score": {
            "stars": 0,
            "votes": 0,
            "dist": {
              "1": 0,
              "2": 0,
              "3": 0,
              "4": 0,
              "5": 0
            }
          }
        },
        {
          "type": "item",
          "title": "домик",
          "desc": "Томатный соус, сырая ветчина, рукколой, стружка для сыра, орегано",
          "price": "14,5",
          "cover": "",
          "id": "12",
          "score": {
            "stars": 0,
            "votes": 0,
            "dist": {
              "1": 0,
              "2": 0,
              "3": 0,
              "4": 0,
              "5": 0
            }
          }
        },
        {
          "type": "item",
          "title": "ВСЕ ДОПОЛНЕНИЕ",
          "desc": "",
          "price": "1",
          "cover": "",
          "id": "13",
          "score": {
            "stars": 0,
            "votes": 0,
            "dist": {
              "1": 0,
              "2": 0,
              "3": 0,
              "4": 0,
              "5": 0
            }
          }
        }
      ]
    },
    {
      "id": "4",
      "title": "макаронные изделия",
      "desc": "",
      "items": [
        {
          "type": "item",
          "title": "спагетти",
          "desc": "болоньезе, аррабиата или карбонаре",
          "price": "13,5",
          "cover": "",
          "id": "0",
          "score": {
            "stars": 0,
            "votes": 0,
            "dist": {
              "1": 0,
              "2": 0,
              "3": 0,
              "4": 0,
              "5": 0
            }
          }
        },
        {
          "type": "item",
          "title": "Спагетти с овощами",
          "desc": "баклажаны, цуккини, перец",
          "price": "14",
          "cover": "",
          "id": "1",
          "score": {
            "stars": 0,
            "votes": 0,
            "dist": {
              "1": 0,
              "2": 0,
              "3": 0,
              "4": 0,
              "5": 0
            }
          }
        },
        {
          "type": "item",
          "title": "Спагетти с морепродуктами",
          "desc": "",
          "price": "16,5",
          "cover": "",
          "id": "2",
          "score": {
            "stars": 0,
            "votes": 0,
            "dist": {
              "1": 0,
              "2": 0,
              "3": 0,
              "4": 0,
              "5": 0
            }
          }
        },
        {
          "type": "item",
          "title": "Домашние лазаньи",
          "desc": "",
          "price": "13",
          "cover": "",
          "id": "3",
          "score": {
            "stars": 0,
            "votes": 0,
            "dist": {
              "1": 0,
              "2": 0,
              "3": 0,
              "4": 0,
              "5": 0
            }
          }
        },
        {
          "type": "item",
          "title": "Гнокки с лососем или соусом Рокфор",
          "desc": "",
          "price": "14",
          "cover": "",
          "id": "4",
          "score": {
            "stars": 0,
            "votes": 0,
            "dist": {
              "1": 0,
              "2": 0,
              "3": 0,
              "4": 0,
              "5": 0
            }
          }
        },
        {
          "type": "item",
          "title": "Равиоли рикотта грибной крем",
          "desc": "",
          "price": "14,5",
          "cover": "",
          "id": "5",
          "score": {
            "stars": 0,
            "votes": 0,
            "dist": {
              "1": 0,
              "2": 0,
              "3": 0,
              "4": 0,
              "5": 0
            }
          }
        }
      ]
    },
    {
      "id": "5",
      "title": "Ризоттос",
      "desc": "",
      "items": [
        {
          "type": "item",
          "title": "Ризотто с белыми грибами",
          "desc": "",
          "price": "16",
          "cover": "",
          "id": "0",
          "score": {
            "stars": 0,
            "votes": 0,
            "dist": {
              "1": 0,
              "2": 0,
              "3": 0,
              "4": 0,
              "5": 0
            }
          }
        },
        {
          "type": "item",
          "title": "Ризотто из морепродуктов",
          "desc": "",
          "price": "17",
          "cover": "",
          "id": "1",
          "score": {
            "stars": 0,
            "votes": 0,
            "dist": {
              "1": 0,
              "2": 0,
              "3": 0,
              "4": 0,
              "5": 0
            }
          }
        }
      ]
    },
    {
      "id": "6",
      "title": "Рыбы",
      "desc": "",
      "items": [
        {
          "type": "item",
          "title": "Жареные моллюски из морепродуктов",
          "desc": "",
          "price": "13",
          "cover": "",
          "id": "0",
          "score": {
            "stars": 0,
            "votes": 0,
            "dist": {
              "1": 0,
              "2": 0,
              "3": 0,
              "4": 0,
              "5": 0
            }
          }
        },
        {
          "type": "item",
          "title": "Задняя часть трески в кунжутной корочке",
          "desc": "",
          "price": "15",
          "cover": "",
          "id": "1",
          "score": {
            "stars": 0,
            "votes": 0,
            "dist": {
              "1": 0,
              "2": 0,
              "3": 0,
              "4": 0,
              "5": 0
            }
          }
        },
        {
          "type": "item",
          "title": "Соус из свежего лосося",
          "desc": "",
          "price": "17",
          "cover": "",
          "id": "2",
          "score": {
            "stars": 0,
            "votes": 0,
            "dist": {
              "1": 0,
              "2": 0,
              "3": 0,
              "4": 0,
              "5": 0
            }
          }
        },
        {
          "type": "item",
          "title": "Жареное свежее филе волка",
          "desc": "",
          "price": "18",
          "cover": "",
          "id": "3",
          "score": {
            "stars": 0,
            "votes": 0,
            "dist": {
              "1": 0,
              "2": 0,
              "3": 0,
              "4": 0,
              "5": 0
            }
          }
        },
        {
          "type": "item",
          "title": "Гамбас на провансаль",
          "desc": "",
          "price": "+19,5",
          "cover": "",
          "id": "4",
          "score": {
            "stars": 0,
            "votes": 0,
            "dist": {
              "1": 0,
              "2": 0,
              "3": 0,
              "4": 0,
              "5": 0
            }
          }
        },
        {
          "type": "item",
          "title": "Свежий цельный волк с фенхелем",
          "desc": "500 / 600gr",
          "price": "21",
          "cover": "",
          "id": "5",
          "score": {
            "stars": 0,
            "votes": 0,
            "dist": {
              "1": 0,
              "2": 0,
              "3": 0,
              "4": 0,
              "5": 0
            }
          }
        },
        {
          "type": "item",
          "title": "Parillada Lodge",
          "desc": "лосось, треска, филе волка, креветки",
          "price": "24",
          "cover": "",
          "id": "6",
          "score": {
            "stars": 0,
            "votes": 0,
            "dist": {
              "1": 0,
              "2": 0,
              "3": 0,
              "4": 0,
              "5": 0
            }
          }
        }
      ]
    },
    {
      "id": "7",
      "title": "мясо",
      "desc": "Все наши блюда сопровождаются гарниром дня",
      "items": [
        {
          "type": "item",
          "title": "Кусок говядины 200гр",
          "desc": "",
          "price": "15",
          "cover": "",
          "id": "0",
          "score": {
            "stars": 0,
            "votes": 0,
            "dist": {
              "1": 0,
              "2": 0,
              "3": 0,
              "4": 0,
              "5": 0
            }
          }
        },
        {
          "type": "item",
          "title": "Кусок говядины в соусе",
          "desc": "перец, грибы или рокофор",
          "price": "16",
          "cover": "",
          "id": "1",
          "score": {
            "stars": 0,
            "votes": 0,
            "dist": {
              "1": 0,
              "2": 0,
              "3": 0,
              "4": 0,
              "5": 0
            }
          }
        },
        {
          "type": "item",
          "title": "Ребра баранины с травами Прованса",
          "desc": "",
          "price": "17",
          "cover": "",
          "id": "2",
          "score": {
            "stars": 0,
            "votes": 0,
            "dist": {
              "1": 0,
              "2": 0,
              "3": 0,
              "4": 0,
              "5": 0
            }
          }
        },
        {
          "type": "item",
          "title": "Эскалоп из телятины со сливками",
          "desc": "",
          "price": "18,5",
          "cover": "",
          "id": "3",
          "score": {
            "stars": 0,
            "votes": 0,
            "dist": {
              "1": 0,
              "2": 0,
              "3": 0,
              "4": 0,
              "5": 0
            }
          }
        },
        {
          "type": "item",
          "title": "Миланская котлета",
          "desc": "",
          "price": "18",
          "cover": "",
          "id": "4",
          "score": {
            "stars": 0,
            "votes": 0,
            "dist": {
              "1": 0,
              "2": 0,
              "3": 0,
              "4": 0,
              "5": 0
            }
          }
        },
        {
          "type": "item",
          "title": "Юго-западная утиная грудка",
          "desc": "экзотический соус 300-400 г",
          "price": "19",
          "cover": "",
          "id": "5",
          "score": {
            "stars": 0,
            "votes": 0,
            "dist": {
              "1": 0,
              "2": 0,
              "3": 0,
              "4": 0,
              "5": 0
            }
          }
        },
        {
          "type": "item",
          "title": "Микс гриль-гриль",
          "desc": "говядина, телятина, цыпленок, слизь, ягненок",
          "price": "+19,5",
          "cover": "",
          "id": "6",
          "score": {
            "stars": 0,
            "votes": 0,
            "dist": {
              "1": 0,
              "2": 0,
              "3": 0,
              "4": 0,
              "5": 0
            }
          }
        },
        {
          "type": "item",
          "title": "Филе говядины 200гр",
          "desc": "",
          "price": "22",
          "cover": "",
          "id": "7",
          "score": {
            "stars": 0,
            "votes": 0,
            "dist": {
              "1": 0,
              "2": 0,
              "3": 0,
              "4": 0,
              "5": 0
            }
          }
        },
        {
          "type": "item",
          "title": "Филе говядины с соусом",
          "desc": "грибы, перец или рокфорт - 200гр",
          "price": "23",
          "cover": "",
          "id": "8",
          "score": {
            "stars": 0,
            "votes": 0,
            "dist": {
              "1": 0,
              "2": 0,
              "3": 0,
              "4": 0,
              "5": 0
            }
          }
        },
        {
          "type": "item",
          "title": "Филе говядины « Стиль Россини'",
          "desc": "200гр",
          "price": "27",
          "cover": "",
          "id": "9",
          "score": {
            "stars": 0,
            "votes": 0,
            "dist": {
              "1": 0,
              "2": 0,
              "3": 0,
              "4": 0,
              "5": 0
            }
          }
        }
      ]
    },
    {
      "id": "8",
      "title": "десерты",
      "desc": "",
      "items": [
        {
          "type": "item",
          "title": "Салат из свежих фруктов",
          "desc": "",
          "price": "6,5",
          "cover": "",
          "id": "0",
          "score": {
            "stars": 0,
            "votes": 0,
            "dist": {
              "1": 0,
              "2": 0,
              "3": 0,
              "4": 0,
              "5": 0
            }
          }
        },
        {
          "type": "item",
          "title": "Creme brulee",
          "desc": "",
          "price": "6,5",
          "cover": "",
          "id": "1",
          "score": {
            "stars": 0,
            "votes": 0,
            "dist": {
              "1": 0,
              "2": 0,
              "3": 0,
              "4": 0,
              "5": 0
            }
          }
        },
        {
          "type": "item",
          "title": "Домашние профитроли",
          "desc": "С ванильным мороженым, домашним горячим шоколадным соусом, взбитыми сливками",
          "price": "7",
          "cover": "",
          "id": "2",
          "score": {
            "stars": 0,
            "votes": 0,
            "dist": {
              "1": 0,
              "2": 0,
              "3": 0,
              "4": 0,
              "5": 0
            }
          }
        },
        {
          "type": "item",
          "title": "Тирамису с амаретто",
          "desc": "",
          "price": "7",
          "cover": "",
          "id": "3",
          "score": {
            "stars": 0,
            "votes": 0,
            "dist": {
              "1": 0,
              "2": 0,
              "3": 0,
              "4": 0,
              "5": 0
            }
          }
        },
        {
          "type": "item",
          "title": "Шоколадное соленое и ванильное мороженое",
          "desc": "",
          "price": "7",
          "cover": "",
          "id": "4",
          "score": {
            "stars": 0,
            "votes": 0,
            "dist": {
              "1": 0,
              "2": 0,
              "3": 0,
              "4": 0,
              "5": 0
            }
          }
        },
        {
          "type": "item",
          "title": "Тарт татин и ванильное мороженое",
          "desc": "",
          "price": "7",
          "cover": "",
          "id": "5",
          "score": {
            "stars": 0,
            "votes": 0,
            "dist": {
              "1": 0,
              "2": 0,
              "3": 0,
              "4": 0,
              "5": 0
            }
          }
        },
        {
          "type": "item",
          "title": "Лимонный мусс",
          "desc": "",
          "price": "4,5",
          "cover": "",
          "id": "6",
          "score": {
            "stars": 0,
            "votes": 0,
            "dist": {
              "1": 0,
              "2": 0,
              "3": 0,
              "4": 0,
              "5": 0
            }
          }
        },
        {
          "type": "item",
          "title": "Лимонный мусс с красным фруктовым кулисом",
          "desc": "",
          "price": "5",
          "cover": "",
          "id": "7",
          "score": {
            "stars": 0,
            "votes": 0,
            "dist": {
              "1": 0,
              "2": 0,
              "3": 0,
              "4": 0,
              "5": 0
            }
          }
        },
        {
          "type": "item",
          "title": "Лимонный мусс с лимончелло",
          "desc": "",
          "price": "7",
          "cover": "",
          "id": "8",
          "score": {
            "stars": 0,
            "votes": 0,
            "dist": {
              "1": 0,
              "2": 0,
              "3": 0,
              "4": 0,
              "5": 0
            }
          }
        }
      ]
    },
    {
      "id": "9",
      "title": "мороженое",
      "desc": "Наши духи: ваниль, шоколад, кофе, клубника, лимон",
      "items": [
        {
          "type": "item",
          "title": "Кубок 2 мяча",
          "desc": "",
          "price": "4,5",
          "cover": "",
          "id": "0",
          "score": {
            "stars": 0,
            "votes": 0,
            "dist": {
              "1": 0,
              "2": 0,
              "3": 0,
              "4": 0,
              "5": 0
            }
          }
        },
        {
          "type": "item",
          "title": "3 шара шара",
          "desc": "",
          "price": "5,5",
          "cover": "",
          "id": "1",
          "score": {
            "stars": 0,
            "votes": 0,
            "dist": {
              "1": 0,
              "2": 0,
              "3": 0,
              "4": 0,
              "5": 0
            }
          }
        },
        {
          "type": "item",
          "title": "Дополнение Chantilly",
          "desc": "",
          "price": "1",
          "cover": "",
          "id": "2",
          "score": {
            "stars": 0,
            "votes": 0,
            "dist": {
              "1": 0,
              "2": 0,
              "3": 0,
              "4": 0,
              "5": 0
            }
          }
        },
        {
          "type": "item",
          "title": "Сложные составы",
          "desc": "«Кофе или шоколад liegois Кофе или шоколадное мороженое, взбитые сливки",
          "price": "8",
          "cover": "",
          "id": "3",
          "score": {
            "stars": 0,
            "votes": 0,
            "dist": {
              "1": 0,
              "2": 0,
              "3": 0,
              "4": 0,
              "5": 0
            }
          }
        },
        {
          "type": "item",
          "title": "Белая леди",
          "desc": "Ванильное мороженое, шоколадный соус, взбитые сливки",
          "price": "8",
          "cover": "",
          "id": "4",
          "score": {
            "stars": 0,
            "votes": 0,
            "dist": {
              "1": 0,
              "2": 0,
              "3": 0,
              "4": 0,
              "5": 0
            }
          }
        },
        {
          "type": "item",
          "title": "Кубок с алкоголем",
          "desc": "Полковник - водка, лимонный сорбет",
          "price": "9",
          "cover": "",
          "id": "5",
          "score": {
            "stars": 0,
            "votes": 0,
            "dist": {
              "1": 0,
              "2": 0,
              "3": 0,
              "4": 0,
              "5": 0
            }
          }
        }
      ]
    },
    {
      "id": "10",
      "title": "МЕНЮ 25 €",
      "desc": "",
      "items": [
        {
          "type": "item",
          "title": "запись",
          "desc": "Луковый суп au gratin или 6 бордовых улиток или моллюски или салат nicoise или лососевый тартар с укропом или теплый осьминог салат«Луковый суп au gratin",
          "price": "0",
          "cover": "",
          "id": "0",
          "score": {
            "stars": 0,
            "votes": 0,
            "dist": {
              "1": 0,
              "2": 0,
              "3": 0,
              "4": 0,
              "5": 0
            }
          }
        },
        {
          "type": "item",
          "title": "квартира",
          "desc": "Румстеак на гриле или в соусе (грибы, перец или сыр рокфор) или Утиная грудка с перечным соусом или Домашние лазаньи или Треска с девственным соусом или свежий цельный волк с фенхелем (дополнительно 4 €)",
          "price": "0",
          "cover": "",
          "id": "1",
          "score": {
            "stars": 0,
            "votes": 0,
            "dist": {
              "1": 0,
              "2": 0,
              "3": 0,
              "4": 0,
              "5": 0
            }
          }
        },
        {
          "type": "item",
          "title": "десерт",
          "desc": "Домашние профитроли или тирамису или Creme brulee или Салат из свежих фруктов или tarte tatin или Шоколадный спелый",
          "price": "0",
          "cover": "",
          "id": "2",
          "score": {
            "stars": 0,
            "votes": 0,
            "dist": {
              "1": 0,
              "2": 0,
              "3": 0,
              "4": 0,
              "5": 0
            }
          }
        }
      ]
    },
    {
      "id": "11",
      "title": "ДЕТСКОЕ МЕНЮ 10.5 €",
      "desc": "до 10 лет",
      "items": [
        {
          "type": "item",
          "title": "квартира",
          "desc": "Нарезанный стейк или Куриные самородки, украшенные макаронами или картофелем фри",
          "price": "0",
          "cover": "",
          "id": "0",
          "score": {
            "stars": 0,
            "votes": 0,
            "dist": {
              "1": 0,
              "2": 0,
              "3": 0,
              "4": 0,
              "5": 0
            }
          }
        },
        {
          "type": "item",
          "title": "десерт",
          "desc": "Салат из свежих фруктов или мороженое 2 шара",
          "price": "0",
          "cover": "",
          "id": "1",
          "score": {
            "stars": 0,
            "votes": 0,
            "dist": {
              "1": 0,
              "2": 0,
              "3": 0,
              "4": 0,
              "5": 0
            }
          }
        }
      ]
    },
    {
      "id": "12",
      "title": "Питьевые карты",
      "desc": "",
      "items": [
        {
          "type": "subcategory",
          "title": "Свежие напитки",
          "desc": ""
        },
        {
          "type": "item",
          "title": "Сода 33 cl",
          "desc": "Coca-Cola, Coca-Cola Zero, Coca-Cola Light, Orange Fanta, Lemon Fanta, Sprite, Perrier, Schweppes Citrus 25c1, Lemonade 25c1,",
          "price": "4",
          "cover": "",
          "id": "0",
          "score": {
            "stars": 0,
            "votes": 0,
            "dist": {
              "1": 0,
              "2": 0,
              "3": 0,
              "4": 0,
              "5": 0
            }
          }
        },
        {
          "type": "item",
          "title": "Минеральная вода 50cl",
          "desc": "Виттель или Сан-Пеллегрино",
          "price": "4",
          "cover": "",
          "id": "1",
          "score": {
            "stars": 0,
            "votes": 0,
            "dist": {
              "1": 0,
              "2": 0,
              "3": 0,
              "4": 0,
              "5": 0
            }
          }
        },
        {
          "type": "item",
          "title": "Минеральная вода 1л",
          "desc": "Виттель или Сан-Пеллегрино",
          "price": "4,8",
          "cover": "",
          "id": "2",
          "score": {
            "stars": 0,
            "votes": 0,
            "dist": {
              "1": 0,
              "2": 0,
              "3": 0,
              "4": 0,
              "5": 0
            }
          }
        },
        {
          "type": "item",
          "title": "Водонепроницаемость 1л",
          "desc": "",
          "price": "5",
          "cover": "",
          "id": "3",
          "score": {
            "stars": 0,
            "votes": 0,
            "dist": {
              "1": 0,
              "2": 0,
              "3": 0,
              "4": 0,
              "5": 0
            }
          }
        },
        {
          "type": "item",
          "title": "Diabolo",
          "desc": "",
          "price": "4",
          "cover": "",
          "id": "4",
          "score": {
            "stars": 0,
            "votes": 0,
            "dist": {
              "1": 0,
              "2": 0,
              "3": 0,
              "4": 0,
              "5": 0
            }
          }
        },
        {
          "type": "item",
          "title": "Сироп с водой",
          "desc": "",
          "price": "2,5",
          "cover": "",
          "id": "5",
          "score": {
            "stars": 0,
            "votes": 0,
            "dist": {
              "1": 0,
              "2": 0,
              "3": 0,
              "4": 0,
              "5": 0
            }
          }
        },
        {
          "type": "item",
          "title": "Фруктовое желе 25cl",
          "desc": "Оранжевый, яблочный, ананас, абрикос, помидор",
          "price": "4",
          "cover": "",
          "id": "6",
          "score": {
            "stars": 0,
            "votes": 0,
            "dist": {
              "1": 0,
              "2": 0,
              "3": 0,
              "4": 0,
              "5": 0
            }
          }
        },
        {
          "type": "item",
          "title": "Сжатый фруктовый сок",
          "desc": "",
          "price": "5",
          "cover": "",
          "id": "7",
          "score": {
            "stars": 0,
            "votes": 0,
            "dist": {
              "1": 0,
              "2": 0,
              "3": 0,
              "4": 0,
              "5": 0
            }
          }
        },
        {
          "type": "item",
          "title": "Добавка сиропа",
          "desc": "",
          "price": "0,5",
          "cover": "",
          "id": "8",
          "score": {
            "stars": 0,
            "votes": 0,
            "dist": {
              "1": 0,
              "2": 0,
              "3": 0,
              "4": 0,
              "5": 0
            }
          }
        },
        {
          "type": "item",
          "title": "Стакан молока",
          "desc": "",
          "price": "2",
          "cover": "",
          "id": "9",
          "score": {
            "stars": 0,
            "votes": 0,
            "dist": {
              "1": 0,
              "2": 0,
              "3": 0,
              "4": 0,
              "5": 0
            }
          }
        },
        {
          "type": "subcategory",
          "title": "Горячие напитки",
          "desc": ""
        },
        {
          "type": "item",
          "title": "Кофе эспрессо или без кофеина",
          "desc": "",
          "price": "1,9",
          "cover": "",
          "id": "10",
          "score": {
            "stars": 0,
            "votes": 0,
            "dist": {
              "1": 0,
              "2": 0,
              "3": 0,
              "4": 0,
              "5": 0
            }
          }
        },
        {
          "type": "item",
          "title": "Двойной кофе эспрессо",
          "desc": "",
          "price": "3,2",
          "cover": "",
          "id": "11",
          "score": {
            "stars": 0,
            "votes": 0,
            "dist": {
              "1": 0,
              "2": 0,
              "3": 0,
              "4": 0,
              "5": 0
            }
          }
        },
        {
          "type": "item",
          "title": "американский",
          "desc": "",
          "price": "2,5",
          "cover": "",
          "id": "12",
          "score": {
            "stars": 0,
            "votes": 0,
            "dist": {
              "1": 0,
              "2": 0,
              "3": 0,
              "4": 0,
              "5": 0
            }
          }
        },
        {
          "type": "item",
          "title": "фундук",
          "desc": "",
          "price": "2",
          "cover": "",
          "id": "13",
          "score": {
            "stars": 0,
            "votes": 0,
            "dist": {
              "1": 0,
              "2": 0,
              "3": 0,
              "4": 0,
              "5": 0
            }
          }
        },
        {
          "type": "item",
          "title": "Крем-кофе",
          "desc": "",
          "price": "3,2",
          "cover": "",
          "id": "14",
          "score": {
            "stars": 0,
            "votes": 0,
            "dist": {
              "1": 0,
              "2": 0,
              "3": 0,
              "4": 0,
              "5": 0
            }
          }
        },
        {
          "type": "item",
          "title": "каппучино",
          "desc": "",
          "price": "3,5",
          "cover": "",
          "id": "15",
          "score": {
            "stars": 0,
            "votes": 0,
            "dist": {
              "1": 0,
              "2": 0,
              "3": 0,
              "4": 0,
              "5": 0
            }
          }
        },
        {
          "type": "item",
          "title": "шоколад",
          "desc": "",
          "price": "3,5",
          "cover": "",
          "id": "16",
          "score": {
            "stars": 0,
            "votes": 0,
            "dist": {
              "1": 0,
              "2": 0,
              "3": 0,
              "4": 0,
              "5": 0
            }
          }
        },
        {
          "type": "item",
          "title": "чай",
          "desc": "природа, ароматизатор или вливание",
          "price": "3,5",
          "cover": "",
          "id": "17",
          "score": {
            "stars": 0,
            "votes": 0,
            "dist": {
              "1": 0,
              "2": 0,
              "3": 0,
              "4": 0,
              "5": 0
            }
          }
        },
        {
          "type": "item",
          "title": "Чай с молоком или лимоном",
          "desc": "",
          "price": "3,8",
          "cover": "",
          "id": "18",
          "score": {
            "stars": 0,
            "votes": 0,
            "dist": {
              "1": 0,
              "2": 0,
              "3": 0,
              "4": 0,
              "5": 0
            }
          }
        },
        {
          "type": "item",
          "title": "Добавка для молочного кувшина",
          "desc": "",
          "price": "0,5",
          "cover": "",
          "id": "19",
          "score": {
            "stars": 0,
            "votes": 0,
            "dist": {
              "1": 0,
              "2": 0,
              "3": 0,
              "4": 0,
              "5": 0
            }
          }
        },
        {
          "type": "subcategory",
          "title": "Проект пива",
          "desc": ""
        },
        {
          "type": "item",
          "title": "Кронбембург (25кл)",
          "desc": "От 50 до 6,8 евро, 1 л до 12 евро",
          "price": "3,8",
          "cover": "",
          "id": "20",
          "score": {
            "stars": 0,
            "votes": 0,
            "dist": {
              "1": 0,
              "2": 0,
              "3": 0,
              "4": 0,
              "5": 0
            }
          }
        },
        {
          "type": "item",
          "title": "Grimbergen Elixir (25cl)",
          "desc": "33Cl до 5.5 €, 50cl до 8 €, 1l до 14 €",
          "price": "4,2",
          "cover": "",
          "id": "21",
          "score": {
            "stars": 0,
            "votes": 0,
            "dist": {
              "1": 0,
              "2": 0,
              "3": 0,
              "4": 0,
              "5": 0
            }
          }
        },
        {
          "type": "item",
          "title": "Разнообразный (25кл)",
          "desc": "",
          "price": "3,8",
          "cover": "",
          "id": "22",
          "score": {
            "stars": 0,
            "votes": 0,
            "dist": {
              "1": 0,
              "2": 0,
              "3": 0,
              "4": 0,
              "5": 0
            }
          }
        },
        {
          "type": "item",
          "title": "дополнение",
          "desc": "",
          "price": "0,5",
          "cover": "",
          "id": "23",
          "score": {
            "stars": 0,
            "votes": 0,
            "dist": {
              "1": 0,
              "2": 0,
              "3": 0,
              "4": 0,
              "5": 0
            }
          }
        },
        {
          "type": "subcategory",
          "title": "Пивной погреб",
          "desc": ""
        },
        {
          "type": "item",
          "title": "Kronembourg 1664 33cl",
          "desc": "",
          "price": "4",
          "cover": "",
          "id": "24",
          "score": {
            "stars": 0,
            "votes": 0,
            "dist": {
              "1": 0,
              "2": 0,
              "3": 0,
              "4": 0,
              "5": 0
            }
          }
        },
        {
          "type": "item",
          "title": "Heineken 33Cl",
          "desc": "",
          "price": "4,5",
          "cover": "",
          "id": "25",
          "score": {
            "stars": 0,
            "votes": 0,
            "dist": {
              "1": 0,
              "2": 0,
              "3": 0,
              "4": 0,
              "5": 0
            }
          }
        },
        {
          "type": "item",
          "title": "Carlsberg 33cl",
          "desc": "",
          "price": "4,5",
          "cover": "",
          "id": "26",
          "score": {
            "stars": 0,
            "votes": 0,
            "dist": {
              "1": 0,
              "2": 0,
              "3": 0,
              "4": 0,
              "5": 0
            }
          }
        },
        {
          "type": "item",
          "title": "Corona extra 33cl",
          "desc": "",
          "price": "4,8",
          "cover": "",
          "id": "27",
          "score": {
            "stars": 0,
            "votes": 0,
            "dist": {
              "1": 0,
              "2": 0,
              "3": 0,
              "4": 0,
              "5": 0
            }
          }
        },
        {
          "type": "subcategory",
          "title": "закуски",
          "desc": ""
        },
        {
          "type": "item",
          "title": "Вермут 7cl",
          "desc": "Белый или красный мартини, Порто, Кампари",
          "price": "4",
          "cover": "",
          "id": "28",
          "score": {
            "stars": 0,
            "votes": 0,
            "dist": {
              "1": 0,
              "2": 0,
              "3": 0,
              "4": 0,
              "5": 0
            }
          }
        },
        {
          "type": "item",
          "title": "Anise 2cl",
          "desc": "Пастис 51, Рикард",
          "price": "3,5",
          "cover": "",
          "id": "29",
          "score": {
            "stars": 0,
            "votes": 0,
            "dist": {
              "1": 0,
              "2": 0,
              "3": 0,
              "4": 0,
              "5": 0
            }
          }
        },
        {
          "type": "item",
          "title": "Горький Сан Пеллегрино",
          "desc": "",
          "price": "3,5",
          "cover": "",
          "id": "30",
          "score": {
            "stars": 0,
            "votes": 0,
            "dist": {
              "1": 0,
              "2": 0,
              "3": 0,
              "4": 0,
              "5": 0
            }
          }
        },
        {
          "type": "item",
          "title": "Кир белое вино 10cl",
          "desc": "Крем из черной смородины, ежевика, персик",
          "price": "4",
          "cover": "",
          "id": "31",
          "score": {
            "stars": 0,
            "votes": 0,
            "dist": {
              "1": 0,
              "2": 0,
              "3": 0,
              "4": 0,
              "5": 0
            }
          }
        },
        {
          "type": "item",
          "title": "Orange capari",
          "desc": "",
          "price": "5,5",
          "cover": "",
          "id": "32",
          "score": {
            "stars": 0,
            "votes": 0,
            "dist": {
              "1": 0,
              "2": 0,
              "3": 0,
              "4": 0,
              "5": 0
            }
          }
        },
        {
          "type": "item",
          "title": "Добавка сиропа",
          "desc": "",
          "price": "0,5",
          "cover": "",
          "id": "33",
          "score": {
            "stars": 0,
            "votes": 0,
            "dist": {
              "1": 0,
              "2": 0,
              "3": 0,
              "4": 0,
              "5": 0
            }
          }
        },
        {
          "type": "item",
          "title": "Кубок PROSECCO 10cl",
          "desc": "",
          "price": "6",
          "cover": "",
          "id": "34",
          "score": {
            "stars": 0,
            "votes": 0,
            "dist": {
              "1": 0,
              "2": 0,
              "3": 0,
              "4": 0,
              "5": 0
            }
          }
        },
        {
          "type": "subcategory",
          "title": "Ликеры 4cl",
          "desc": ""
        },
        {
          "type": "item",
          "title": "Cointreau",
          "desc": "",
          "price": "7",
          "cover": "",
          "id": "35",
          "score": {
            "stars": 0,
            "votes": 0,
            "dist": {
              "1": 0,
              "2": 0,
              "3": 0,
              "4": 0,
              "5": 0
            }
          }
        },
        {
          "type": "item",
          "title": "Grand marnier",
          "desc": "",
          "price": "7",
          "cover": "",
          "id": "36",
          "score": {
            "stars": 0,
            "votes": 0,
            "dist": {
              "1": 0,
              "2": 0,
              "3": 0,
              "4": 0,
              "5": 0
            }
          }
        },
        {
          "type": "item",
          "title": "Бейли",
          "desc": "",
          "price": "8,5",
          "cover": "",
          "id": "37",
          "score": {
            "stars": 0,
            "votes": 0,
            "dist": {
              "1": 0,
              "2": 0,
              "3": 0,
              "4": 0,
              "5": 0
            }
          }
        },
        {
          "type": "item",
          "title": "Malibu",
          "desc": "",
          "price": "7",
          "cover": "",
          "id": "38",
          "score": {
            "stars": 0,
            "votes": 0,
            "dist": {
              "1": 0,
              "2": 0,
              "3": 0,
              "4": 0,
              "5": 0
            }
          }
        },
        {
          "type": "item",
          "title": "Амаретто",
          "desc": "",
          "price": "7",
          "cover": "",
          "id": "39",
          "score": {
            "stars": 0,
            "votes": 0,
            "dist": {
              "1": 0,
              "2": 0,
              "3": 0,
              "4": 0,
              "5": 0
            }
          }
        },
        {
          "type": "item",
          "title": "Получите 27",
          "desc": "",
          "price": "7",
          "cover": "",
          "id": "40",
          "score": {
            "stars": 0,
            "votes": 0,
            "dist": {
              "1": 0,
              "2": 0,
              "3": 0,
              "4": 0,
              "5": 0
            }
          }
        },
        {
          "type": "item",
          "title": "Лимончелло",
          "desc": "",
          "price": "6",
          "cover": "",
          "id": "41",
          "score": {
            "stars": 0,
            "votes": 0,
            "dist": {
              "1": 0,
              "2": 0,
              "3": 0,
              "4": 0,
              "5": 0
            }
          }
        },
        {
          "type": "subcategory",
          "title": "Спирты 4cl",
          "desc": ""
        },
        {
          "type": "item",
          "title": "Водка Eristof",
          "desc": "",
          "price": "7",
          "cover": "",
          "id": "42",
          "score": {
            "stars": 0,
            "votes": 0,
            "dist": {
              "1": 0,
              "2": 0,
              "3": 0,
              "4": 0,
              "5": 0
            }
          }
        },
        {
          "type": "item",
          "title": "Абсолютная водка",
          "desc": "",
          "price": "8",
          "cover": "",
          "id": "43",
          "score": {
            "stars": 0,
            "votes": 0,
            "dist": {
              "1": 0,
              "2": 0,
              "3": 0,
              "4": 0,
              "5": 0
            }
          }
        },
        {
          "type": "item",
          "title": "Джин Гордон",
          "desc": "",
          "price": "7",
          "cover": "",
          "id": "44",
          "score": {
            "stars": 0,
            "votes": 0,
            "dist": {
              "1": 0,
              "2": 0,
              "3": 0,
              "4": 0,
              "5": 0
            }
          }
        },
        {
          "type": "item",
          "title": "Bacardi",
          "desc": "",
          "price": "7",
          "cover": "",
          "id": "45",
          "score": {
            "stars": 0,
            "votes": 0,
            "dist": {
              "1": 0,
              "2": 0,
              "3": 0,
              "4": 0,
              "5": 0
            }
          }
        },
        {
          "type": "item",
          "title": "текила",
          "desc": "",
          "price": "7",
          "cover": "",
          "id": "46",
          "score": {
            "stars": 0,
            "votes": 0,
            "dist": {
              "1": 0,
              "2": 0,
              "3": 0,
              "4": 0,
              "5": 0
            }
          }
        },
        {
          "type": "item",
          "title": "Классический коньяк",
          "desc": "",
          "price": "7",
          "cover": "",
          "id": "47",
          "score": {
            "stars": 0,
            "votes": 0,
            "dist": {
              "1": 0,
              "2": 0,
              "3": 0,
              "4": 0,
              "5": 0
            }
          }
        },
        {
          "type": "item",
          "title": "Коньяк Hennessy",
          "desc": "",
          "price": "8",
          "cover": "",
          "id": "48",
          "score": {
            "stars": 0,
            "votes": 0,
            "dist": {
              "1": 0,
              "2": 0,
              "3": 0,
              "4": 0,
              "5": 0
            }
          }
        },
        {
          "type": "item",
          "title": "арманьяк",
          "desc": "",
          "price": "7",
          "cover": "",
          "id": "49",
          "score": {
            "stars": 0,
            "votes": 0,
            "dist": {
              "1": 0,
              "2": 0,
              "3": 0,
              "4": 0,
              "5": 0
            }
          }
        },
        {
          "type": "item",
          "title": "кальвадос",
          "desc": "",
          "price": "7",
          "cover": "",
          "id": "50",
          "score": {
            "stars": 0,
            "votes": 0,
            "dist": {
              "1": 0,
              "2": 0,
              "3": 0,
              "4": 0,
              "5": 0
            }
          }
        },
        {
          "type": "item",
          "title": "граппа",
          "desc": "",
          "price": "7",
          "cover": "",
          "id": "51",
          "score": {
            "stars": 0,
            "votes": 0,
            "dist": {
              "1": 0,
              "2": 0,
              "3": 0,
              "4": 0,
              "5": 0
            }
          }
        },
        {
          "type": "subcategory",
          "title": "виски",
          "desc": ""
        },
        {
          "type": "item",
          "title": "Baby classic 2cl",
          "desc": "",
          "price": "4",
          "cover": "",
          "id": "52",
          "score": {
            "stars": 0,
            "votes": 0,
            "dist": {
              "1": 0,
              "2": 0,
              "3": 0,
              "4": 0,
              "5": 0
            }
          }
        },
        {
          "type": "item",
          "title": "Виски J & B 4cl",
          "desc": "",
          "price": "7,5",
          "cover": "",
          "id": "53",
          "score": {
            "stars": 0,
            "votes": 0,
            "dist": {
              "1": 0,
              "2": 0,
              "3": 0,
              "4": 0,
              "5": 0
            }
          }
        },
        {
          "type": "item",
          "title": "Джек Дэниелс (Бурбон) 4cl",
          "desc": "",
          "price": "9",
          "cover": "",
          "id": "54",
          "score": {
            "stars": 0,
            "votes": 0,
            "dist": {
              "1": 0,
              "2": 0,
              "3": 0,
              "4": 0,
              "5": 0
            }
          }
        },
        {
          "type": "item",
          "title": "Ballatines 4cl",
          "desc": "",
          "price": "8",
          "cover": "",
          "id": "55",
          "score": {
            "stars": 0,
            "votes": 0,
            "dist": {
              "1": 0,
              "2": 0,
              "3": 0,
              "4": 0,
              "5": 0
            }
          }
        },
        {
          "type": "item",
          "title": "Chivas Regal (12 лет) 4cl",
          "desc": "",
          "price": "9",
          "cover": "",
          "id": "56",
          "score": {
            "stars": 0,
            "votes": 0,
            "dist": {
              "1": 0,
              "2": 0,
              "3": 0,
              "4": 0,
              "5": 0
            }
          }
        },
        {
          "type": "item",
          "title": "Glenfiddish 4cl",
          "desc": "12 лет, чистый солод",
          "price": "9",
          "cover": "",
          "id": "57",
          "score": {
            "stars": 0,
            "votes": 0,
            "dist": {
              "1": 0,
              "2": 0,
              "3": 0,
              "4": 0,
              "5": 0
            }
          }
        },
        {
          "type": "item",
          "title": "Jameson 4cl",
          "desc": "",
          "price": "9",
          "cover": "",
          "id": "58",
          "score": {
            "stars": 0,
            "votes": 0,
            "dist": {
              "1": 0,
              "2": 0,
              "3": 0,
              "4": 0,
              "5": 0
            }
          }
        },
        {
          "type": "item",
          "title": "содовая добавка",
          "desc": "",
          "price": "1",
          "cover": "",
          "id": "59",
          "score": {
            "stars": 0,
            "votes": 0,
            "dist": {
              "1": 0,
              "2": 0,
              "3": 0,
              "4": 0,
              "5": 0
            }
          }
        },
        {
          "type": "subcategory",
          "title": "шампанское",
          "desc": "Nicolas Feuillatte"
        },
        {
          "type": "item",
          "title": "брутто 75cl",
          "desc": "",
          "price": "58",
          "cover": "",
          "id": "60",
          "score": {
            "stars": 0,
            "votes": 0,
            "dist": {
              "1": 0,
              "2": 0,
              "3": 0,
              "4": 0,
              "5": 0
            }
          }
        },
        {
          "type": "item",
          "title": "Кубок 10cl",
          "desc": "",
          "price": "9",
          "cover": "",
          "id": "61",
          "score": {
            "stars": 0,
            "votes": 0,
            "dist": {
              "1": 0,
              "2": 0,
              "3": 0,
              "4": 0,
              "5": 0
            }
          }
        },
        {
          "type": "item",
          "title": "Бассейн 12cl",
          "desc": "",
          "price": "12",
          "cover": "",
          "id": "62",
          "score": {
            "stars": 0,
            "votes": 0,
            "dist": {
              "1": 0,
              "2": 0,
              "3": 0,
              "4": 0,
              "5": 0
            }
          }
        },
        {
          "type": "subcategory",
          "title": "Шампанское коктейль",
          "desc": ""
        },
        {
          "type": "item",
          "title": "Royal Kir 10cl",
          "desc": "шампанское, крем из шасси, ежевика, персик",
          "price": "9,5",
          "cover": "",
          "id": "63",
          "score": {
            "stars": 0,
            "votes": 0,
            "dist": {
              "1": 0,
              "2": 0,
              "3": 0,
              "4": 0,
              "5": 0
            }
          }
        },
        {
          "type": "subcategory",
          "title": "Коктейли с алкоголем",
          "desc": ""
        },
        {
          "type": "item",
          "title": "Мохито",
          "desc": "Баккарди, тростниковый сахар, известь, свежая мята, сверкающая вода",
          "price": "8,5",
          "cover": "",
          "id": "64",
          "score": {
            "stars": 0,
            "votes": 0,
            "dist": {
              "1": 0,
              "2": 0,
              "3": 0,
              "4": 0,
              "5": 0
            }
          }
        },
        {
          "type": "item",
          "title": "Джин-тоник или водка",
          "desc": "",
          "price": "8",
          "cover": "",
          "id": "65",
          "score": {
            "stars": 0,
            "votes": 0,
            "dist": {
              "1": 0,
              "2": 0,
              "3": 0,
              "4": 0,
              "5": 0
            }
          }
        },
        {
          "type": "item",
          "title": "Текила восход солнца",
          "desc": "Текила, апельсиновый сок, сироп гренадин",
          "price": "8",
          "cover": "",
          "id": "66",
          "score": {
            "stars": 0,
            "votes": 0,
            "dist": {
              "1": 0,
              "2": 0,
              "3": 0,
              "4": 0,
              "5": 0
            }
          }
        },
        {
          "type": "item",
          "title": "Куба бесплатно",
          "desc": "баккарди, кока-кола, лимонный сок, лимонная цедра",
          "price": "8",
          "cover": "",
          "id": "67",
          "score": {
            "stars": 0,
            "votes": 0,
            "dist": {
              "1": 0,
              "2": 0,
              "3": 0,
              "4": 0,
              "5": 0
            }
          }
        },
        {
          "type": "item",
          "title": "Королевский Мартини",
          "desc": "белый мартини, сок лайма, PROSECCO",
          "price": "8",
          "cover": "",
          "id": "68",
          "score": {
            "stars": 0,
            "votes": 0,
            "dist": {
              "1": 0,
              "2": 0,
              "3": 0,
              "4": 0,
              "5": 0
            }
          }
        },
        {
          "type": "item",
          "title": "Тоник Мартини",
          "desc": "Мартини белый, красный или розовый, schweppes",
          "price": "7,5",
          "cover": "",
          "id": "69",
          "score": {
            "stars": 0,
            "votes": 0,
            "dist": {
              "1": 0,
              "2": 0,
              "3": 0,
              "4": 0,
              "5": 0
            }
          }
        },
        {
          "type": "item",
          "title": "Aperol spritz",
          "desc": "Aperol, PROSECCO, перье",
          "price": "8",
          "cover": "",
          "id": "70",
          "score": {
            "stars": 0,
            "votes": 0,
            "dist": {
              "1": 0,
              "2": 0,
              "3": 0,
              "4": 0,
              "5": 0
            }
          }
        },
        {
          "type": "subcategory",
          "title": "Безалкогольные фруктовые коктейли",
          "desc": ""
        },
        {
          "type": "item",
          "title": "Бора-Бора",
          "desc": "сок анана, сок манго, лимонный сок, гренадин",
          "price": "6,5",
          "cover": "",
          "id": "71",
          "score": {
            "stars": 0,
            "votes": 0,
            "dist": {
              "1": 0,
              "2": 0,
              "3": 0,
              "4": 0,
              "5": 0
            }
          }
        },
        {
          "type": "item",
          "title": "Флорида",
          "desc": "апельсиновый сок, лимонный сок, сироп гренадин",
          "price": "6",
          "cover": "",
          "id": "72",
          "score": {
            "stars": 0,
            "votes": 0,
            "dist": {
              "1": 0,
              "2": 0,
              "3": 0,
              "4": 0,
              "5": 0
            }
          }
        },
        {
          "type": "item",
          "title": "Богоматерь Мохито",
          "desc": "свежая мята, известь, ароматизированный ром из сиропа, игристая вода",
          "price": "6,5",
          "cover": "",
          "id": "73",
          "score": {
            "stars": 0,
            "votes": 0,
            "dist": {
              "1": 0,
              "2": 0,
              "3": 0,
              "4": 0,
              "5": 0
            }
          }
        }
      ]
    },
    {
      "id": "13",
      "title": "Винная карта",
      "desc": "",
      "items": [
        {
          "type": "subcategory",
          "title": "Вино по стеклу 12cl",
          "desc": ""
        },
        {
          "type": "subcategory",
          "title": "белый",
          "desc": ""
        },
        {
          "type": "item",
          "title": "Побережье Прованса",
          "desc": "",
          "price": "4",
          "cover": "",
          "id": "0",
          "score": {
            "stars": 0,
            "votes": 0,
            "dist": {
              "1": 0,
              "2": 0,
              "3": 0,
              "4": 0,
              "5": 0
            }
          }
        },
        {
          "type": "item",
          "title": "Chardonnay",
          "desc": "Вино Pays d'Oc",
          "price": "3,8",
          "cover": "",
          "id": "1",
          "score": {
            "stars": 0,
            "votes": 0,
            "dist": {
              "1": 0,
              "2": 0,
              "3": 0,
              "4": 0,
              "5": 0
            }
          }
        },
        {
          "type": "item",
          "title": "Muscadet",
          "desc": "",
          "price": "4",
          "cover": "",
          "id": "2",
          "score": {
            "stars": 0,
            "votes": 0,
            "dist": {
              "1": 0,
              "2": 0,
              "3": 0,
              "4": 0,
              "5": 0
            }
          }
        },
        {
          "type": "item",
          "title": "рислинг",
          "desc": "",
          "price": "4",
          "cover": "",
          "id": "3",
          "score": {
            "stars": 0,
            "votes": 0,
            "dist": {
              "1": 0,
              "2": 0,
              "3": 0,
              "4": 0,
              "5": 0
            }
          }
        },
        {
          "type": "item",
          "title": "Sancerre",
          "desc": "",
          "price": "6,5",
          "cover": "",
          "id": "4",
          "score": {
            "stars": 0,
            "votes": 0,
            "dist": {
              "1": 0,
              "2": 0,
              "3": 0,
              "4": 0,
              "5": 0
            }
          }
        },
        {
          "type": "subcategory",
          "title": "красный",
          "desc": ""
        },
        {
          "type": "item",
          "title": "Вино из Вар",
          "desc": "",
          "price": "3,8",
          "cover": "",
          "id": "5",
          "score": {
            "stars": 0,
            "votes": 0,
            "dist": {
              "1": 0,
              "2": 0,
              "3": 0,
              "4": 0,
              "5": 0
            }
          }
        },
        {
          "type": "item",
          "title": "Côtes de provence",
          "desc": "",
          "price": "4",
          "cover": "",
          "id": "6",
          "score": {
            "stars": 0,
            "votes": 0,
            "dist": {
              "1": 0,
              "2": 0,
              "3": 0,
              "4": 0,
              "5": 0
            }
          }
        },
        {
          "type": "item",
          "title": "Beaujolais",
          "desc": "",
          "price": "4,5",
          "cover": "",
          "id": "7",
          "score": {
            "stars": 0,
            "votes": 0,
            "dist": {
              "1": 0,
              "2": 0,
              "3": 0,
              "4": 0,
              "5": 0
            }
          }
        },
        {
          "type": "item",
          "title": "Бордо",
          "desc": "",
          "price": "4",
          "cover": "",
          "id": "8",
          "score": {
            "stars": 0,
            "votes": 0,
            "dist": {
              "1": 0,
              "2": 0,
              "3": 0,
              "4": 0,
              "5": 0
            }
          }
        },
        {
          "type": "subcategory",
          "title": "розовый",
          "desc": ""
        },
        {
          "type": "item",
          "title": "Вино из Вар",
          "desc": "",
          "price": "3,8",
          "cover": "",
          "id": "9",
          "score": {
            "stars": 0,
            "votes": 0,
            "dist": {
              "1": 0,
              "2": 0,
              "3": 0,
              "4": 0,
              "5": 0
            }
          }
        },
        {
          "type": "item",
          "title": "Côtes de provence",
          "desc": "",
          "price": "4",
          "cover": "",
          "id": "10",
          "score": {
            "stars": 0,
            "votes": 0,
            "dist": {
              "1": 0,
              "2": 0,
              "3": 0,
              "4": 0,
              "5": 0
            }
          }
        },
        {
          "type": "subcategory",
          "title": "Вина Прованса",
          "desc": ""
        },
        {
          "type": "item",
          "title": "Côtes de provence wild rose (75cl)",
          "desc": "«Разливка в собственность (белый, красный, розовый) - от 50 до 14 евро»",
          "price": "18",
          "cover": "",
          "id": "11",
          "score": {
            "stars": 0,
            "votes": 0,
            "dist": {
              "1": 0,
              "2": 0,
              "3": 0,
              "4": 0,
              "5": 0
            }
          }
        },
        {
          "type": "item",
          "title": "Жемчужина розелина (75кл)",
          "desc": "«Белый, красный, розовый - от 50 до 17 евро»",
          "price": "21",
          "cover": "",
          "id": "12",
          "score": {
            "stars": 0,
            "votes": 0,
            "dist": {
              "1": 0,
              "2": 0,
              "3": 0,
              "4": 0,
              "5": 0
            }
          }
        },
        {
          "type": "item",
          "title": "Rosé Proese «Органический» (75cl)",
          "desc": "",
          "price": "26",
          "cover": "",
          "id": "13",
          "score": {
            "stars": 0,
            "votes": 0,
            "dist": {
              "1": 0,
              "2": 0,
              "3": 0,
              "4": 0,
              "5": 0
            }
          }
        },
        {
          "type": "item",
          "title": "Бернский замок «Земля Берна»",
          "desc": "«Белый, красный, розовый - от 50 до 17 евро»",
          "price": "28",
          "cover": "",
          "id": "14",
          "score": {
            "stars": 0,
            "votes": 0,
            "dist": {
              "1": 0,
              "2": 0,
              "3": 0,
              "4": 0,
              "5": 0
            }
          }
        },
        {
          "type": "item",
          "title": "М Минуты (75cl)",
          "desc": "«Красный, Розовый - от 50 до 24 евро»",
          "price": "29",
          "cover": "",
          "id": "15",
          "score": {
            "stars": 0,
            "votes": 0,
            "dist": {
              "1": 0,
              "2": 0,
              "3": 0,
              "4": 0,
              "5": 0
            }
          }
        },
        {
          "type": "subcategory",
          "title": "Côtes du Rhône",
          "desc": "красный"
        },
        {
          "type": "item",
          "title": "Венецианский дворец (75кл)",
          "desc": "«Крю из Кот-дю-Рона - 37,5 см за 15 евро»",
          "price": "23",
          "cover": "",
          "id": "16",
          "score": {
            "stars": 0,
            "votes": 0,
            "dist": {
              "1": 0,
              "2": 0,
              "3": 0,
              "4": 0,
              "5": 0
            }
          }
        },
        {
          "type": "item",
          "title": "Vacqueyras (75cl)",
          "desc": "",
          "price": "31",
          "cover": "",
          "id": "17",
          "score": {
            "stars": 0,
            "votes": 0,
            "dist": {
              "1": 0,
              "2": 0,
              "3": 0,
              "4": 0,
              "5": 0
            }
          }
        },
        {
          "type": "subcategory",
          "title": "Плайя де ла Луара",
          "desc": "белый"
        },
        {
          "type": "item",
          "title": "Мускард Севр и Мэн на лисе (75кл)",
          "desc": "",
          "price": "19",
          "cover": "",
          "id": "18",
          "score": {
            "stars": 0,
            "votes": 0,
            "dist": {
              "1": 0,
              "2": 0,
              "3": 0,
              "4": 0,
              "5": 0
            }
          }
        },
        {
          "type": "item",
          "title": "Сансер (75кл)",
          "desc": "",
          "price": "35",
          "cover": "",
          "id": "19",
          "score": {
            "stars": 0,
            "votes": 0,
            "dist": {
              "1": 0,
              "2": 0,
              "3": 0,
              "4": 0,
              "5": 0
            }
          }
        },
        {
          "type": "subcategory",
          "title": "Бордо",
          "desc": ""
        },
        {
          "type": "item",
          "title": "Замок Brague (75cl)",
          "desc": "",
          "price": "23",
          "cover": "",
          "id": "20",
          "score": {
            "stars": 0,
            "votes": 0,
            "dist": {
              "1": 0,
              "2": 0,
              "3": 0,
              "4": 0,
              "5": 0
            }
          }
        },
        {
          "type": "item",
          "title": "Сен-Эмильон (75кл)",
          "desc": "часовня троицы",
          "price": "34",
          "cover": "",
          "id": "21",
          "score": {
            "stars": 0,
            "votes": 0,
            "dist": {
              "1": 0,
              "2": 0,
              "3": 0,
              "4": 0,
              "5": 0
            }
          }
        },
        {
          "type": "item",
          "title": "Margaux Cross (Margaux) (75cl)",
          "desc": "",
          "price": "42",
          "cover": "",
          "id": "22",
          "score": {
            "stars": 0,
            "votes": 0,
            "dist": {
              "1": 0,
              "2": 0,
              "3": 0,
              "4": 0,
              "5": 0
            }
          }
        },
        {
          "type": "subcategory",
          "title": "Beaujolais",
          "desc": "красный"
        },
        {
          "type": "item",
          "title": "Деревня Божоле (75кл)",
          "desc": "",
          "price": "23",
          "cover": "",
          "id": "23",
          "score": {
            "stars": 0,
            "votes": 0,
            "dist": {
              "1": 0,
              "2": 0,
              "3": 0,
              "4": 0,
              "5": 0
            }
          }
        },
        {
          "type": "item",
          "title": "Бруилли (75cl)",
          "desc": "",
          "price": "25",
          "cover": "",
          "id": "24",
          "score": {
            "stars": 0,
            "votes": 0,
            "dist": {
              "1": 0,
              "2": 0,
              "3": 0,
              "4": 0,
              "5": 0
            }
          }
        },
        {
          "type": "subcategory",
          "title": "Бургундия",
          "desc": "Blan"
        },
        {
          "type": "item",
          "title": "Шабли (75cl)",
          "desc": "",
          "price": "36",
          "cover": "",
          "id": "25",
          "score": {
            "stars": 0,
            "votes": 0,
            "dist": {
              "1": 0,
              "2": 0,
              "3": 0,
              "4": 0,
              "5": 0
            }
          }
        },
        {
          "type": "subcategory",
          "title": "Алсатские вина",
          "desc": "белый"
        },
        {
          "type": "item",
          "title": "Рислинг (75cl)",
          "desc": "",
          "price": "22",
          "cover": "",
          "id": "26",
          "score": {
            "stars": 0,
            "votes": 0,
            "dist": {
              "1": 0,
              "2": 0,
              "3": 0,
              "4": 0,
              "5": 0
            }
          }
        },
        {
          "type": "subcategory",
          "title": "шампанские",
          "desc": ""
        },
        {
          "type": "item",
          "title": "Nicolas Feuillatte brut (10кл)",
          "desc": "",
          "price": "9",
          "cover": "",
          "id": "27",
          "score": {
            "stars": 0,
            "votes": 0,
            "dist": {
              "1": 0,
              "2": 0,
              "3": 0,
              "4": 0,
              "5": 0
            }
          }
        },
        {
          "type": "item",
          "title": "Nicolas Feuillatte brut (12cl)",
          "desc": "",
          "price": "12",
          "cover": "",
          "id": "28",
          "score": {
            "stars": 0,
            "votes": 0,
            "dist": {
              "1": 0,
              "2": 0,
              "3": 0,
              "4": 0,
              "5": 0
            }
          }
        },
        {
          "type": "item",
          "title": "Nicolas Feuillate brut (75cl)",
          "desc": "",
          "price": "58",
          "cover": "",
          "id": "29",
          "score": {
            "stars": 0,
            "votes": 0,
            "dist": {
              "1": 0,
              "2": 0,
              "3": 0,
              "4": 0,
              "5": 0
            }
          }
        },
        {
          "type": "subcategory",
          "title": "Итальянское вино",
          "desc": ""
        },
        {
          "type": "item",
          "title": "Prosecco (6cl)",
          "desc": "",
          "price": "6",
          "cover": "",
          "id": "30",
          "score": {
            "stars": 0,
            "votes": 0,
            "dist": {
              "1": 0,
              "2": 0,
              "3": 0,
              "4": 0,
              "5": 0
            }
          }
        },
        {
          "type": "item",
          "title": "Prosecco (75cl)",
          "desc": "",
          "price": "30",
          "cover": "",
          "id": "31",
          "score": {
            "stars": 0,
            "votes": 0,
            "dist": {
              "1": 0,
              "2": 0,
              "3": 0,
              "4": 0,
              "5": 0
            }
          }
        }
      ]
    }
  ]
}
