{
  "pages": [
    {
      "id": "0",
      "title": "Specialità (hm)",
      "desc": "Il mezzé è un assortimento di specialità calde e fredde I prezzi sono per persona",
      "items": [
        {
          "type": "item",
          "title": "Piccola Mezze",
          "desc": "(minimo 2 persone)",
          "price": "22,00",
          "cover": "",
          "id": "0",
          "score": {
            "stars": 0,
            "votes": 0,
            "dist": {
              "1": 0,
              "2": 0,
              "3": 0,
              "4": 0,
              "5": 0
            }
          }
        },
        {
          "type": "item",
          "title": "Grand Mezze",
          "desc": "(minimo 2 persone)",
          "price": "26,00",
          "cover": "",
          "id": "1",
          "score": {
            "stars": 0,
            "votes": 0,
            "dist": {
              "1": 0,
              "2": 0,
              "3": 0,
              "4": 0,
              "5": 0
            }
          }
        },
        {
          "type": "item",
          "title": "Mezzé Vegetariano o Vegano",
          "desc": "(minimo 2 persone)",
          "price": "24,00",
          "cover": "",
          "id": "2",
          "score": {
            "stars": 0,
            "votes": 0,
            "dist": {
              "1": 0,
              "2": 0,
              "3": 0,
              "4": 0,
              "5": 0
            }
          }
        },
        {
          "type": "item",
          "title": "Mezze Royal",
          "desc": "Piccolo mezzé e grill",
          "price": "32,00",
          "cover": "",
          "id": "3",
          "score": {
            "stars": 0,
            "votes": 0,
            "dist": {
              "1": 0,
              "2": 0,
              "3": 0,
              "4": 0,
              "5": 0
            }
          }
        },
        {
          "type": "item",
          "title": "Mezze Prince of Arabia",
          "desc": "Su ordinazione (minimo 4 persone) Piccoli mezzé e agnello o capretto",
          "price": "70,00",
          "cover": "",
          "id": "4",
          "score": {
            "stars": 0,
            "votes": 0,
            "dist": {
              "1": 0,
              "2": 0,
              "3": 0,
              "4": 0,
              "5": 0
            }
          }
        }
      ]
    },
    {
      "id": "1",
      "title": "Insalate (hm)",
      "desc": "",
      "items": [
        {
          "type": "subcategory",
          "title": "Insalata greca",
          "desc": "14,00 €"
        },
        {
          "type": "item",
          "title": "fatouche",
          "desc": "Verdure crude, pita",
          "price": "14,00",
          "cover": "",
          "id": "0",
          "score": {
            "stars": 0,
            "votes": 0,
            "dist": {
              "1": 0,
              "2": 0,
              "3": 0,
              "4": 0,
              "5": 0
            }
          }
        },
        {
          "type": "item",
          "title": "tabbouleh",
          "desc": "Persil, bulgur",
          "price": "8,00",
          "cover": "",
          "id": "1",
          "score": {
            "stars": 0,
            "votes": 0,
            "dist": {
              "1": 0,
              "2": 0,
              "3": 0,
              "4": 0,
              "5": 0
            }
          }
        },
        {
          "type": "item",
          "title": "Big Taboulé",
          "desc": "Persil, bulgur",
          "price": "15,00",
          "cover": "",
          "id": "2",
          "score": {
            "stars": 0,
            "votes": 0,
            "dist": {
              "1": 0,
              "2": 0,
              "3": 0,
              "4": 0,
              "5": 0
            }
          }
        },
        {
          "type": "item",
          "title": "Cesare",
          "desc": "Romaine, crostini, uova, pomodori, pollame, parmigiano",
          "price": "16",
          "cover": "",
          "id": "3",
          "score": {
            "stars": 0,
            "votes": 0,
            "dist": {
              "1": 0,
              "2": 0,
              "3": 0,
              "4": 0,
              "5": 0
            }
          }
        },
        {
          "type": "item",
          "title": "nizzarda",
          "desc": "Insalata, pomodori, olive, uova, peperoni, acciughe, bistecche, ravanelli",
          "price": "15",
          "cover": "",
          "id": "4",
          "score": {
            "stars": 0,
            "votes": 0,
            "dist": {
              "1": 0,
              "2": 0,
              "3": 0,
              "4": 0,
              "5": 0
            }
          }
        }
      ]
    },
    {
      "id": "2",
      "title": "Avviatori a freddo (hm)",
      "desc": "",
      "items": [
        {
          "type": "subcategory",
          "title": "Formaggio bianco",
          "desc": "7,00 €"
        },
        {
          "type": "item",
          "title": "Laban Bikhyar",
          "desc": "Yogurt, cetriolo",
          "price": "8,00",
          "cover": "",
          "id": "0",
          "score": {
            "stars": 0,
            "votes": 0,
            "dist": {
              "1": 0,
              "2": 0,
              "3": 0,
              "4": 0,
              "5": 0
            }
          }
        },
        {
          "type": "item",
          "title": "Hummus - Hummus",
          "desc": "Purea di ceci",
          "price": "7,00",
          "cover": "",
          "id": "1",
          "score": {
            "stars": 0,
            "votes": 0,
            "dist": {
              "1": 0,
              "2": 0,
              "3": 0,
              "4": 0,
              "5": 0
            }
          }
        },
        {
          "type": "item",
          "title": "Babaghannouge - Moutabal",
          "desc": "Purea di melanzane con sesamo",
          "price": "7,00",
          "cover": "",
          "id": "2",
          "score": {
            "stars": 0,
            "votes": 0,
            "dist": {
              "1": 0,
              "2": 0,
              "3": 0,
              "4": 0,
              "5": 0
            }
          }
        },
        {
          "type": "item",
          "title": "Raheb",
          "desc": "Caviale di melanzane, olio d'oliva",
          "price": "8",
          "cover": "",
          "id": "3",
          "score": {
            "stars": 0,
            "votes": 0,
            "dist": {
              "1": 0,
              "2": 0,
              "3": 0,
              "4": 0,
              "5": 0
            }
          }
        },
        {
          "type": "item",
          "title": "Mehamara",
          "desc": "Purè di peperoni dolci, noci",
          "price": "9",
          "cover": "",
          "id": "4",
          "score": {
            "stars": 0,
            "votes": 0,
            "dist": {
              "1": 0,
              "2": 0,
              "3": 0,
              "4": 0,
              "5": 0
            }
          }
        }
      ]
    },
    {
      "id": "3",
      "title": "Hot entries (hm)",
      "desc": "",
      "items": [
        {
          "type": "subcategory",
          "title": "Formaggio alla griglia",
          "desc": "12,00 €"
        },
        {
          "type": "item",
          "title": "fallo",
          "desc": "Insalata di fagioli",
          "price": "9,00",
          "cover": "",
          "id": "0",
          "score": {
            "stars": 0,
            "votes": 0,
            "dist": {
              "1": 0,
              "2": 0,
              "3": 0,
              "4": 0,
              "5": 0
            }
          }
        },
        {
          "type": "item",
          "title": "Samboussi",
          "desc": "Pasta sfoglia di carne",
          "price": "9,00",
          "cover": "",
          "id": "1",
          "score": {
            "stars": 0,
            "votes": 0,
            "dist": {
              "1": 0,
              "2": 0,
              "3": 0,
              "4": 0,
              "5": 0
            }
          }
        },
        {
          "type": "item",
          "title": "Hommos Blahme",
          "desc": "Purea di ceci con carne",
          "price": "12,00",
          "cover": "",
          "id": "2",
          "score": {
            "stars": 0,
            "votes": 0,
            "dist": {
              "1": 0,
              "2": 0,
              "3": 0,
              "4": 0,
              "5": 0
            }
          }
        },
        {
          "type": "item",
          "title": "Ali di pollo",
          "desc": "",
          "price": "12",
          "cover": "",
          "id": "3",
          "score": {
            "stars": 0,
            "votes": 0,
            "dist": {
              "1": 0,
              "2": 0,
              "3": 0,
              "4": 0,
              "5": 0
            }
          }
        },
        {
          "type": "item",
          "title": "Falafel",
          "desc": "Purè di peperoni dolci, noci",
          "price": "8",
          "cover": "",
          "id": "4",
          "score": {
            "stars": 0,
            "votes": 0,
            "dist": {
              "1": 0,
              "2": 0,
              "3": 0,
              "4": 0,
              "5": 0
            }
          }
        },
        {
          "type": "item",
          "title": "kebbe",
          "desc": "Gnocchi di ceci piccanti",
          "price": "9",
          "cover": "",
          "id": "5",
          "score": {
            "stars": 0,
            "votes": 0,
            "dist": {
              "1": 0,
              "2": 0,
              "3": 0,
              "4": 0,
              "5": 0
            }
          }
        },
        {
          "type": "item",
          "title": "Roukak",
          "desc": "Pasta sfoglia al formaggio",
          "price": "8",
          "cover": "",
          "id": "6",
          "score": {
            "stars": 0,
            "votes": 0,
            "dist": {
              "1": 0,
              "2": 0,
              "3": 0,
              "4": 0,
              "5": 0
            }
          }
        },
        {
          "type": "item",
          "title": "fatayer",
          "desc": "Sfogliatine di spinaci",
          "price": "9",
          "cover": "",
          "id": "7",
          "score": {
            "stars": 0,
            "votes": 0,
            "dist": {
              "1": 0,
              "2": 0,
              "3": 0,
              "4": 0,
              "5": 0
            }
          }
        },
        {
          "type": "item",
          "title": "Warak Enab - Dolma Vegano",
          "desc": "Foglie di vite ripiene",
          "price": "9",
          "cover": "",
          "id": "8",
          "score": {
            "stars": 0,
            "votes": 0,
            "dist": {
              "1": 0,
              "2": 0,
              "3": 0,
              "4": 0,
              "5": 0
            }
          }
        },
        {
          "type": "item",
          "title": "moussaka",
          "desc": "Melanzane con salsa di pomodoro",
          "price": "9",
          "cover": "",
          "id": "9",
          "score": {
            "stars": 0,
            "votes": 0,
            "dist": {
              "1": 0,
              "2": 0,
              "3": 0,
              "4": 0,
              "5": 0
            }
          }
        },
        {
          "type": "item",
          "title": "Bamia / Okra",
          "desc": "Gombo, pomodori, coriandolo",
          "price": "10",
          "cover": "",
          "id": "10",
          "score": {
            "stars": 0,
            "votes": 0,
            "dist": {
              "1": 0,
              "2": 0,
              "3": 0,
              "4": 0,
              "5": 0
            }
          }
        },
        {
          "type": "item",
          "title": "Arayess Lahme",
          "desc": "Pita ripiena di carne macinata",
          "price": "12",
          "cover": "",
          "id": "11",
          "score": {
            "stars": 0,
            "votes": 0,
            "dist": {
              "1": 0,
              "2": 0,
              "3": 0,
              "4": 0,
              "5": 0
            }
          }
        },
        {
          "type": "item",
          "title": "Arayess Jebne",
          "desc": "Pita, formaggio, cipolle, origano",
          "price": "10",
          "cover": "",
          "id": "12",
          "score": {
            "stars": 0,
            "votes": 0,
            "dist": {
              "1": 0,
              "2": 0,
              "3": 0,
              "4": 0,
              "5": 0
            }
          }
        },
        {
          "type": "item",
          "title": "Arayess Khodra",
          "desc": "Pita al vegetariano",
          "price": "10",
          "cover": "",
          "id": "13",
          "score": {
            "stars": 0,
            "votes": 0,
            "dist": {
              "1": 0,
              "2": 0,
              "3": 0,
              "4": 0,
              "5": 0
            }
          }
        },
        {
          "type": "item",
          "title": "chorba",
          "desc": "Zuppa di lenticchie",
          "price": "12",
          "cover": "",
          "id": "14",
          "score": {
            "stars": 0,
            "votes": 0,
            "dist": {
              "1": 0,
              "2": 0,
              "3": 0,
              "4": 0,
              "5": 0
            }
          }
        },
        {
          "type": "item",
          "title": "Batata Harra",
          "desc": "Patate fritte, aglio, coriandolo",
          "price": "7",
          "cover": "",
          "id": "15",
          "score": {
            "stars": 0,
            "votes": 0,
            "dist": {
              "1": 0,
              "2": 0,
              "3": 0,
              "4": 0,
              "5": 0
            }
          }
        }
      ]
    },
    {
      "id": "4",
      "title": "Pesce (hm)",
      "desc": "",
      "items": [
        {
          "type": "item",
          "title": "Gambas grigliati o saltati",
          "desc": "",
          "price": "28,00",
          "cover": "",
          "id": "0",
          "score": {
            "stars": 0,
            "votes": 0,
            "dist": {
              "1": 0,
              "2": 0,
              "3": 0,
              "4": 0,
              "5": 0
            }
          }
        },
        {
          "type": "item",
          "title": "Bistecca di salmone",
          "desc": "",
          "price": "21,00",
          "cover": "",
          "id": "1",
          "score": {
            "stars": 0,
            "votes": 0,
            "dist": {
              "1": 0,
              "2": 0,
              "3": 0,
              "4": 0,
              "5": 0
            }
          }
        }
      ]
    },
    {
      "id": "5",
      "title": "Carne (hm)",
      "desc": "Tutte le nostre carni sono accompagnate da verdure, riso o patatine fritte",
      "items": [
        {
          "type": "item",
          "title": "Cotoletta libanese",
          "desc": "Pollo al limone, pomodori freschi",
          "price": "21,00",
          "cover": "",
          "id": "0",
          "score": {
            "stars": 0,
            "votes": 0,
            "dist": {
              "1": 0,
              "2": 0,
              "3": 0,
              "4": 0,
              "5": 0
            }
          }
        },
        {
          "type": "item",
          "title": "chawarma",
          "desc": "Pollo marinato",
          "price": "22,00",
          "cover": "",
          "id": "1",
          "score": {
            "stars": 0,
            "votes": 0,
            "dist": {
              "1": 0,
              "2": 0,
              "3": 0,
              "4": 0,
              "5": 0
            }
          }
        }
      ]
    },
    {
      "id": "6",
      "title": "Grill (hm)",
      "desc": "Tutte le nostre carni sono accompagnate da verdure, riso o patatine fritte",
      "items": [
        {
          "type": "item",
          "title": "Costolette di agnello con erbe",
          "desc": "",
          "price": "24,00",
          "cover": "",
          "id": "0",
          "score": {
            "stars": 0,
            "votes": 0,
            "dist": {
              "1": 0,
              "2": 0,
              "3": 0,
              "4": 0,
              "5": 0
            }
          }
        },
        {
          "type": "item",
          "title": "Braciola di vitello",
          "desc": "",
          "price": "20,00",
          "cover": "",
          "id": "1",
          "score": {
            "stars": 0,
            "votes": 0,
            "dist": {
              "1": 0,
              "2": 0,
              "3": 0,
              "4": 0,
              "5": 0
            }
          }
        },
        {
          "type": "item",
          "title": "Entrecote (250 Gr)",
          "desc": "",
          "price": "24,00",
          "cover": "",
          "id": "2",
          "score": {
            "stars": 0,
            "votes": 0,
            "dist": {
              "1": 0,
              "2": 0,
              "3": 0,
              "4": 0,
              "5": 0
            }
          }
        },
        {
          "type": "item",
          "title": "Orfali",
          "desc": "Carne macinata, melanzane",
          "price": "19,00",
          "cover": "",
          "id": "3",
          "score": {
            "stars": 0,
            "votes": 0,
            "dist": {
              "1": 0,
              "2": 0,
              "3": 0,
              "4": 0,
              "5": 0
            }
          }
        },
        {
          "type": "item",
          "title": "Lahme al Chiche",
          "desc": "Spiedini di agnello",
          "price": "19,00",
          "cover": "",
          "id": "4",
          "score": {
            "stars": 0,
            "votes": 0,
            "dist": {
              "1": 0,
              "2": 0,
              "3": 0,
              "4": 0,
              "5": 0
            }
          }
        },
        {
          "type": "item",
          "title": "Chiche Taouk",
          "desc": "Spiedini di pollo",
          "price": "18,00",
          "cover": "",
          "id": "5",
          "score": {
            "stars": 0,
            "votes": 0,
            "dist": {
              "1": 0,
              "2": 0,
              "3": 0,
              "4": 0,
              "5": 0
            }
          }
        },
        {
          "type": "item",
          "title": "kafta",
          "desc": "Spiedini di carne macinata",
          "price": "18,00",
          "cover": "",
          "id": "6",
          "score": {
            "stars": 0,
            "votes": 0,
            "dist": {
              "1": 0,
              "2": 0,
              "3": 0,
              "4": 0,
              "5": 0
            }
          }
        },
        {
          "type": "item",
          "title": "Khechkhache",
          "desc": "Kafta con salsa di pomodoro",
          "price": "19,00",
          "cover": "",
          "id": "7",
          "score": {
            "stars": 0,
            "votes": 0,
            "dist": {
              "1": 0,
              "2": 0,
              "3": 0,
              "4": 0,
              "5": 0
            }
          }
        },
        {
          "type": "item",
          "title": "Mashawi",
          "desc": "Spiedini assortiti",
          "price": "24,00",
          "cover": "",
          "id": "8",
          "score": {
            "stars": 0,
            "votes": 0,
            "dist": {
              "1": 0,
              "2": 0,
              "3": 0,
              "4": 0,
              "5": 0
            }
          }
        },
        {
          "type": "item",
          "title": "Byblo's Grill per 2 persone",
          "desc": "Grigliate miste, assortimento di varie carni",
          "price": "62,00",
          "cover": "",
          "id": "9",
          "score": {
            "stars": 0,
            "votes": 0,
            "dist": {
              "1": 0,
              "2": 0,
              "3": 0,
              "4": 0,
              "5": 0
            }
          }
        }
      ]
    },
    {
      "id": "7",
      "title": "Hamburger (hm)",
      "desc": "",
      "items": [
        {
          "type": "subcategory",
          "title": "Manzo, pomodoro, cipolle, insalata, patatine fritte, cheddar, salsa fatta in casa",
          "desc": "22,00 €"
        },
        {
          "type": "item",
          "title": "Hamburger vegetariano",
          "desc": "Falafel, pomodoro, cipolle, insalata, patatine fritte, melanzane, hummus",
          "price": "21,00",
          "cover": "",
          "id": "0",
          "score": {
            "stars": 0,
            "votes": 0,
            "dist": {
              "1": 0,
              "2": 0,
              "3": 0,
              "4": 0,
              "5": 0
            }
          }
        },
        {
          "type": "item",
          "title": "Baby Burger",
          "desc": "Manzo, pomodoro, cipolle, insalata, patatine fritte, cheddar, salsa fatta in casa",
          "price": "16,00",
          "cover": "",
          "id": "1",
          "score": {
            "stars": 0,
            "votes": 0,
            "dist": {
              "1": 0,
              "2": 0,
              "3": 0,
              "4": 0,
              "5": 0
            }
          }
        }
      ]
    },
    {
      "id": "8",
      "title": "Dessert (hm)",
      "desc": "",
      "items": [
        {
          "type": "subcategory",
          "title": "Pasta sfoglia al pistacchio",
          "desc": "8,00 €"
        },
        {
          "type": "item",
          "title": "Knefe Bjeben",
          "desc": "Semola con panna",
          "price": "9,00",
          "cover": "",
          "id": "0",
          "score": {
            "stars": 0,
            "votes": 0,
            "dist": {
              "1": 0,
              "2": 0,
              "3": 0,
              "4": 0,
              "5": 0
            }
          }
        },
        {
          "type": "item",
          "title": "Fondente al cioccolato",
          "desc": "",
          "price": "8,00",
          "cover": "",
          "id": "1",
          "score": {
            "stars": 0,
            "votes": 0,
            "dist": {
              "1": 0,
              "2": 0,
              "3": 0,
              "4": 0,
              "5": 0
            }
          }
        },
        {
          "type": "item",
          "title": "Osmalie",
          "desc": "Capelli d'angelo con crema",
          "price": "9,00",
          "cover": "",
          "id": "2",
          "score": {
            "stars": 0,
            "votes": 0,
            "dist": {
              "1": 0,
              "2": 0,
              "3": 0,
              "4": 0,
              "5": 0
            }
          }
        },
        {
          "type": "item",
          "title": "sorbetti",
          "desc": "3 palle",
          "price": "8,00",
          "cover": "",
          "id": "3",
          "score": {
            "stars": 0,
            "votes": 0,
            "dist": {
              "1": 0,
              "2": 0,
              "3": 0,
              "4": 0,
              "5": 0
            }
          }
        },
        {
          "type": "item",
          "title": "Mehalbie",
          "desc": "Crema di latte profumata con fiori d'arancio",
          "price": "9,00",
          "cover": "",
          "id": "4",
          "score": {
            "stars": 0,
            "votes": 0,
            "dist": {
              "1": 0,
              "2": 0,
              "3": 0,
              "4": 0,
              "5": 0
            }
          }
        },
        {
          "type": "item",
          "title": "profiterole",
          "desc": "Piccolo cavolo, gelato, cioccolato",
          "price": "9,00",
          "cover": "",
          "id": "5",
          "score": {
            "stars": 0,
            "votes": 0,
            "dist": {
              "1": 0,
              "2": 0,
              "3": 0,
              "4": 0,
              "5": 0
            }
          }
        }
      ]
    },
    {
      "id": "9",
      "title": "Formula ora di pranzo (hm)",
      "desc": "",
      "items": [
        {
          "type": "subcategory",
          "title": "Spiedini di pollo, hommos, caviale di melanzane, taboulé, riso basmati",
          "desc": "14,5"
        },
        {
          "type": "item",
          "title": "Byblo's Beef",
          "desc": "Brochette di carne macinata, hommos, caviale di melanzane, taboulé, riso basmati",
          "price": "14,5",
          "cover": "",
          "id": "0",
          "score": {
            "stars": 0,
            "votes": 0,
            "dist": {
              "1": 0,
              "2": 0,
              "3": 0,
              "4": 0,
              "5": 0
            }
          }
        },
        {
          "type": "item",
          "title": "Byblo's Chawarma",
          "desc": "Pollo marinato, hommos, caviale di melanzane, taboulé, riso basmati",
          "price": "16,00",
          "cover": "",
          "id": "1",
          "score": {
            "stars": 0,
            "votes": 0,
            "dist": {
              "1": 0,
              "2": 0,
              "3": 0,
              "4": 0,
              "5": 0
            }
          }
        },
        {
          "type": "item",
          "title": "Byblo's Vegetarian",
          "desc": "Falafel, hommos, caviale di melanzane, tabulé, riso basmati",
          "price": "14,5",
          "cover": "",
          "id": "2",
          "score": {
            "stars": 0,
            "votes": 0,
            "dist": {
              "1": 0,
              "2": 0,
              "3": 0,
              "4": 0,
              "5": 0
            }
          }
        },
        {
          "type": "item",
          "title": "Byblo's Chef",
          "desc": "Doppi spiedini di pollo o manzo, hommos, caviale di melanzane, tabbouleh, riso",
          "price": "16,00",
          "cover": "",
          "id": "3",
          "score": {
            "stars": 0,
            "votes": 0,
            "dist": {
              "1": 0,
              "2": 0,
              "3": 0,
              "4": 0,
              "5": 0
            }
          }
        }
      ]
    },
    {
      "id": "10",
      "title": "Bevande calde",
      "desc": "",
      "items": [
        {
          "type": "item",
          "title": "Expresso",
          "desc": "",
          "price": "2,00",
          "cover": "",
          "id": "0",
          "score": {
            "stars": 0,
            "votes": 0,
            "dist": {
              "1": 0,
              "2": 0,
              "3": 0,
              "4": 0,
              "5": 0
            }
          }
        },
        {
          "type": "item",
          "title": "Caffè libanese",
          "desc": "Con cardamomo",
          "price": "3,50",
          "cover": "",
          "id": "1",
          "score": {
            "stars": 0,
            "votes": 0,
            "dist": {
              "1": 0,
              "2": 0,
              "3": 0,
              "4": 0,
              "5": 0
            }
          }
        },
        {
          "type": "item",
          "title": "Caffè bianco",
          "desc": "Con fiori d'arancio",
          "price": "4,00",
          "cover": "",
          "id": "2",
          "score": {
            "stars": 0,
            "votes": 0,
            "dist": {
              "1": 0,
              "2": 0,
              "3": 0,
              "4": 0,
              "5": 0
            }
          }
        },
        {
          "type": "item",
          "title": "cappuccino",
          "desc": "",
          "price": "4,50",
          "cover": "",
          "id": "3",
          "score": {
            "stars": 0,
            "votes": 0,
            "dist": {
              "1": 0,
              "2": 0,
              "3": 0,
              "4": 0,
              "5": 0
            }
          }
        },
        {
          "type": "item",
          "title": "americana",
          "desc": "",
          "price": "3,00",
          "cover": "",
          "id": "4",
          "score": {
            "stars": 0,
            "votes": 0,
            "dist": {
              "1": 0,
              "2": 0,
              "3": 0,
              "4": 0,
              "5": 0
            }
          }
        },
        {
          "type": "item",
          "title": "ThéNature",
          "desc": "",
          "price": "4,00",
          "cover": "",
          "id": "5",
          "score": {
            "stars": 0,
            "votes": 0,
            "dist": {
              "1": 0,
              "2": 0,
              "3": 0,
              "4": 0,
              "5": 0
            }
          }
        },
        {
          "type": "item",
          "title": "Tè alla menta con menta",
          "desc": "The con menta fresca / Tè alla menta fresca",
          "price": "4,00",
          "cover": "",
          "id": "6",
          "score": {
            "stars": 0,
            "votes": 0,
            "dist": {
              "1": 0,
              "2": 0,
              "3": 0,
              "4": 0,
              "5": 0
            }
          }
        },
        {
          "type": "item",
          "title": "Infusi",
          "desc": "",
          "price": "4,50",
          "cover": "",
          "id": "7",
          "score": {
            "stars": 0,
            "votes": 0,
            "dist": {
              "1": 0,
              "2": 0,
              "3": 0,
              "4": 0,
              "5": 0
            }
          }
        }
      ]
    }
  ]
}
