{
  "pages": [
    {
      "id": "0",
      "title": "poilânes三明治（hm）",
      "desc": "面包在木火上煮熟，点缀和涂上油，配上沙拉",
      "items": [
        {
          "type": "item",
          "title": "塞甘小姐",
          "desc": "温暖的山羊奶酪配蜂蜜花，蜜饯香料，葡萄干，杏仁和核桃，新鲜茄子鱼子酱",
          "price": "15,9",
          "cover": "",
          "id": "0",
          "score": {
            "stars": 0,
            "votes": 0,
            "dist": {
              "1": 0,
              "2": 0,
              "3": 0,
              "4": 0,
              "5": 0
            }
          }
        },
        {
          "type": "item",
          "title": "伊索拉",
          "desc": "烟熏mortuacienne香肠焗烤与土豆泥，蒸土豆或焗烤dauphinois，小黄瓜",
          "price": "16,9",
          "cover": "",
          "id": "1",
          "score": {
            "stars": 0,
            "votes": 0,
            "dist": {
              "1": 0,
              "2": 0,
              "3": 0,
              "4": 0,
              "5": 0
            }
          }
        },
        {
          "type": "item",
          "title": "意大利",
          "desc": "新鲜的西红柿，芝士，橄榄，生火腿，西红柿配罗勒",
          "price": "15,9",
          "cover": "",
          "id": "2",
          "score": {
            "stars": 0,
            "votes": 0,
            "dist": {
              "1": 0,
              "2": 0,
              "3": 0,
              "4": 0,
              "5": 0
            }
          }
        },
        {
          "type": "item",
          "title": "森林",
          "desc": "新鲜的蘑菇混合奶油，在县里吃",
          "price": "16,9",
          "cover": "",
          "id": "3",
          "score": {
            "stars": 0,
            "votes": 0,
            "dist": {
              "1": 0,
              "2": 0,
              "3": 0,
              "4": 0,
              "5": 0
            }
          }
        },
        {
          "type": "item",
          "title": "西南",
          "desc": "自制鹅肝配无花果，鸭胸，森林蘑菇，蜜饯梨",
          "price": "21,9",
          "cover": "",
          "id": "4",
          "score": {
            "stars": 0,
            "votes": 0,
            "dist": {
              "1": 0,
              "2": 0,
              "3": 0,
              "4": 0,
              "5": 0
            }
          }
        },
        {
          "type": "item",
          "title": "东方的",
          "desc": "用茄子鱼子酱切成薄片用蒸蔬菜，西红柿用草药",
          "price": "16,9",
          "cover": "",
          "id": "5",
          "score": {
            "stars": 0,
            "votes": 0,
            "dist": {
              "1": 0,
              "2": 0,
              "3": 0,
              "4": 0,
              "5": 0
            }
          }
        },
        {
          "type": "item",
          "title": "克里特岛",
          "desc": "切好的蔬菜。市场用橄榄油焗羊奶酪，橄榄酱，新鲜罗勒",
          "price": "15,9",
          "cover": "",
          "id": "6",
          "score": {
            "stars": 0,
            "votes": 0,
            "dist": {
              "1": 0,
              "2": 0,
              "3": 0,
              "4": 0,
              "5": 0
            }
          }
        },
        {
          "type": "item",
          "title": "拉法利",
          "desc": "火腿或用蜜饯苹果，法国布里乳酪，小黄瓜，蜂蜜和沙拉炖",
          "price": "15,9",
          "cover": "",
          "id": "7",
          "score": {
            "stars": 0,
            "votes": 0,
            "dist": {
              "1": 0,
              "2": 0,
              "3": 0,
              "4": 0,
              "5": 0
            }
          }
        },
        {
          "type": "item",
          "title": "挪威",
          "desc": "烟熏三文鱼，柠檬，莳萝鲜奶油，市场蔬菜，凸轮花",
          "price": "17,9",
          "cover": "",
          "id": "8",
          "score": {
            "stars": 0,
            "votes": 0,
            "dist": {
              "1": 0,
              "2": 0,
              "3": 0,
              "4": 0,
              "5": 0
            }
          }
        }
      ]
    },
    {
      "id": "1",
      "title": "鸡尾酒与酒精",
      "desc": "",
      "items": [
        {
          "type": "item",
          "title": "莫吉托",
          "desc": "古巴朗姆酒苏打水，石灰，蔗糖，薄荷叶和冰块",
          "price": "10",
          "cover": "",
          "id": "0",
          "score": {
            "stars": 0,
            "votes": 0,
            "dist": {
              "1": 0,
              "2": 0,
              "3": 0,
              "4": 0,
              "5": 0
            }
          }
        },
        {
          "type": "item",
          "title": "草莓鸡尾酒",
          "desc": "古巴朗姆酒，草莓汁，苏打水，石灰，薄荷蔗糖和冰块",
          "price": "11",
          "cover": "",
          "id": "1",
          "score": {
            "stars": 0,
            "votes": 0,
            "dist": {
              "1": 0,
              "2": 0,
              "3": 0,
              "4": 0,
              "5": 0
            }
          }
        },
        {
          "type": "item",
          "title": "面包师的妻子鸡尾酒",
          "desc": "伏特加，菠萝汁，橙汁，红石榴糖浆，橙片和冰块",
          "price": "10",
          "cover": "",
          "id": "2",
          "score": {
            "stars": 0,
            "votes": 0,
            "dist": {
              "1": 0,
              "2": 0,
              "3": 0,
              "4": 0,
              "5": 0
            }
          }
        },
        {
          "type": "item",
          "title": "斯普茨",
          "desc": "aperol，普罗赛克，苏打水，切片的橙色和冰柱",
          "price": "9",
          "cover": "",
          "id": "3",
          "score": {
            "stars": 0,
            "votes": 0,
            "dist": {
              "1": 0,
              "2": 0,
              "3": 0,
              "4": 0,
              "5": 0
            }
          }
        },
        {
          "type": "item",
          "title": "杜松子酒",
          "desc": "杜松子酒，柠檬汁，蔗糖糖浆，苏打水，柠檬片，薄荷叶和冰块",
          "price": "10",
          "cover": "",
          "id": "4",
          "score": {
            "stars": 0,
            "votes": 0,
            "dist": {
              "1": 0,
              "2": 0,
              "3": 0,
              "4": 0,
              "5": 0
            }
          }
        }
      ]
    },
    {
      "id": "2",
      "title": "不含酒精的鸡尾酒",
      "desc": "",
      "items": [
        {
          "type": "item",
          "title": "处女莫吉托",
          "desc": "莫吉托糖浆，苏打水，石灰，蔗糖，薄荷叶和冰块",
          "price": "8",
          "cover": "",
          "id": "0",
          "score": {
            "stars": 0,
            "votes": 0,
            "dist": {
              "1": 0,
              "2": 0,
              "3": 0,
              "4": 0,
              "5": 0
            }
          }
        },
        {
          "type": "item",
          "title": "处女mojito草莓",
          "desc": "草莓汁，苏打水，石灰，薄荷蔗糖和冰块",
          "price": "8,5",
          "cover": "",
          "id": "1",
          "score": {
            "stars": 0,
            "votes": 0,
            "dist": {
              "1": 0,
              "2": 0,
              "3": 0,
              "4": 0,
              "5": 0
            }
          }
        },
        {
          "type": "item",
          "title": "面包师的妻子处女",
          "desc": "菠萝汁，橙汁，红石榴糖浆和覆盆子糖浆，橙片和冰块",
          "price": "8",
          "cover": "",
          "id": "2",
          "score": {
            "stars": 0,
            "votes": 0,
            "dist": {
              "1": 0,
              "2": 0,
              "3": 0,
              "4": 0,
              "5": 0
            }
          }
        },
        {
          "type": "item",
          "title": "处女喷",
          "desc": "橙色苦，schweppes滋补品，柠檬水，切片的橙色和冰柱",
          "price": "7欧元",
          "cover": "",
          "id": "3",
          "score": {
            "stars": 0,
            "votes": 0,
            "dist": {
              "1": 0,
              "2": 0,
              "3": 0,
              "4": 0,
              "5": 0
            }
          }
        },
        {
          "type": "item",
          "title": "处女杜松子酒",
          "desc": "柠檬汁，甘蔗糖浆，苏打水，柠檬片，薄荷叶和冰块",
          "price": "8",
          "cover": "",
          "id": "4",
          "score": {
            "stars": 0,
            "votes": 0,
            "dist": {
              "1": 0,
              "2": 0,
              "3": 0,
              "4": 0,
              "5": 0
            }
          }
        }
      ]
    }
  ]
}
