{
  "pages": [
    {
      "id": "0",
      "title": "PIZZA",
      "desc": "FAIT MAISON Notre pizza est une demi-lune Notre pâte est fabriquée maison et cuite au feu de bois",
      "items": [
        {
          "type": "item",
          "title": "Marguerite",
          "desc": "Fromage, tomate, origan",
          "price": "11,9",
          "cover": "",
          "id": "0",
          "score": {
            "stars": 0,
            "votes": 0,
            "dist": {
              "1": 0,
              "2": 0,
              "3": 0,
              "4": 0,
              "5": 0
            }
          }
        },
        {
          "type": "item",
          "title": "Napolitaine",
          "desc": "Fromage, tomate, anchois, olives, origan",
          "price": "12,4",
          "cover": "",
          "id": "1",
          "score": {
            "stars": 0,
            "votes": 0,
            "dist": {
              "1": 0,
              "2": 0,
              "3": 0,
              "4": 0,
              "5": 0
            }
          }
        },
        {
          "type": "item",
          "title": "Reine",
          "desc": "Fromage, tomate, épaule cuite, champignons, origan",
          "price": "13,4",
          "cover": "",
          "id": "2",
          "score": {
            "stars": 0,
            "votes": 0,
            "dist": {
              "1": 0,
              "2": 0,
              "3": 0,
              "4": 0,
              "5": 0
            }
          }
        },
        {
          "type": "item",
          "title": "Aubergines",
          "desc": "Fromage, tomate, aubergine, ail, persil, origan",
          "price": "13,7",
          "cover": "",
          "id": "3",
          "score": {
            "stars": 0,
            "votes": 0,
            "dist": {
              "1": 0,
              "2": 0,
              "3": 0,
              "4": 0,
              "5": 0
            }
          }
        },
        {
          "type": "item",
          "title": "Pepperoni",
          "desc": "Fromage, tomate, saucisse pimentée, origan",
          "price": "13,4",
          "cover": "",
          "id": "4",
          "score": {
            "stars": 0,
            "votes": 0,
            "dist": {
              "1": 0,
              "2": 0,
              "3": 0,
              "4": 0,
              "5": 0
            }
          }
        },
        {
          "type": "item",
          "title": "Quatre fromages",
          "desc": "Assortiment de fromages, tomate, origan",
          "price": "14,5",
          "cover": "",
          "id": "5",
          "score": {
            "stars": 0,
            "votes": 0,
            "dist": {
              "1": 0,
              "2": 0,
              "3": 0,
              "4": 0,
              "5": 0
            }
          }
        },
        {
          "type": "item",
          "title": "Marinara",
          "desc": "Tomate, ail, persil, origan",
          "price": "9,9",
          "cover": "",
          "id": "6",
          "score": {
            "stars": 0,
            "votes": 0,
            "dist": {
              "1": 0,
              "2": 0,
              "3": 0,
              "4": 0,
              "5": 0
            }
          }
        },
        {
          "type": "item",
          "title": "Oignon",
          "desc": "Fromage, tomate, oignons, origan",
          "price": "11,9",
          "cover": "",
          "id": "7",
          "score": {
            "stars": 0,
            "votes": 0,
            "dist": {
              "1": 0,
              "2": 0,
              "3": 0,
              "4": 0,
              "5": 0
            }
          }
        },
        {
          "type": "item",
          "title": "Sicilienne",
          "desc": "Tomate, anchois, câpres, olives, origan",
          "price": "10,9",
          "cover": "",
          "id": "8",
          "score": {
            "stars": 0,
            "votes": 0,
            "dist": {
              "1": 0,
              "2": 0,
              "3": 0,
              "4": 0,
              "5": 0
            }
          }
        },
        {
          "type": "item",
          "title": "Cannibale",
          "desc": "Fromage, tomate, oignons, boeuf haché, origan, oeuf, ail, persil",
          "price": "15,7",
          "cover": "",
          "id": "9",
          "score": {
            "stars": 0,
            "votes": 0,
            "dist": {
              "1": 0,
              "2": 0,
              "3": 0,
              "4": 0,
              "5": 0
            }
          }
        },
        {
          "type": "item",
          "title": "Neptune",
          "desc": "Tomate, thon, origan",
          "price": "13,5",
          "cover": "",
          "id": "10",
          "score": {
            "stars": 0,
            "votes": 0,
            "dist": {
              "1": 0,
              "2": 0,
              "3": 0,
              "4": 0,
              "5": 0
            }
          }
        },
        {
          "type": "item",
          "title": "Moules",
          "desc": "Tomate, moules, ail, persil, origan",
          "price": "14,2",
          "cover": "",
          "id": "11",
          "score": {
            "stars": 0,
            "votes": 0,
            "dist": {
              "1": 0,
              "2": 0,
              "3": 0,
              "4": 0,
              "5": 0
            }
          }
        },
        {
          "type": "item",
          "title": "Focaccia",
          "desc": "",
          "price": "7,4",
          "cover": "",
          "id": "12",
          "score": {
            "stars": 0,
            "votes": 0,
            "dist": {
              "1": 0,
              "2": 0,
              "3": 0,
              "4": 0,
              "5": 0
            }
          }
        },
        {
          "type": "subcategory",
          "title": "Suppléments",
          "desc": "Notre pizza peut être servie avec suppléments"
        },
        {
          "type": "item",
          "title": "Moules, Thon ou Boeuf haché",
          "desc": "",
          "price": "3,6",
          "cover": "",
          "id": "13",
          "score": {
            "stars": 0,
            "votes": 0,
            "dist": {
              "1": 0,
              "2": 0,
              "3": 0,
              "4": 0,
              "5": 0
            }
          }
        },
        {
          "type": "item",
          "title": "Œuf ou autres",
          "desc": "",
          "price": "1,6",
          "cover": "",
          "id": "14",
          "score": {
            "stars": 0,
            "votes": 0,
            "dist": {
              "1": 0,
              "2": 0,
              "3": 0,
              "4": 0,
              "5": 0
            }
          }
        }
      ]
    },
    {
      "id": "1",
      "title": "APPETIZERS & ENTRÉES",
      "desc": "FAIT MAISON",
      "items": [
        {
          "type": "item",
          "title": "Nachos, Cheddar et Jalapenos",
          "desc": "",
          "price": "7,5",
          "cover": "",
          "id": "0",
          "score": {
            "stars": 0,
            "votes": 0,
            "dist": {
              "1": 0,
              "2": 0,
              "3": 0,
              "4": 0,
              "5": 0
            }
          }
        },
        {
          "type": "item",
          "title": "Plancha de Tapas",
          "desc": "",
          "price": "12,50",
          "cover": "",
          "id": "1",
          "score": {
            "stars": 0,
            "votes": 0,
            "dist": {
              "1": 0,
              "2": 0,
              "3": 0,
              "4": 0,
              "5": 0
            }
          }
        },
        {
          "type": "item",
          "title": "Escargots (les 6)",
          "desc": "",
          "price": "9,9",
          "cover": "",
          "id": "2",
          "score": {
            "stars": 0,
            "votes": 0,
            "dist": {
              "1": 0,
              "2": 0,
              "3": 0,
              "4": 0,
              "5": 0
            }
          }
        },
        {
          "type": "item",
          "title": "Escargots (les 12)",
          "desc": "",
          "price": "17,5",
          "cover": "",
          "id": "3",
          "score": {
            "stars": 0,
            "votes": 0,
            "dist": {
              "1": 0,
              "2": 0,
              "3": 0,
              "4": 0,
              "5": 0
            }
          }
        },
        {
          "type": "item",
          "title": "Soupe à l'oignon gratinée",
          "desc": "",
          "price": "11,8",
          "cover": "",
          "id": "4",
          "score": {
            "stars": 0,
            "votes": 0,
            "dist": {
              "1": 0,
              "2": 0,
              "3": 0,
              "4": 0,
              "5": 0
            }
          }
        }
      ]
    },
    {
      "id": "2",
      "title": "SALADES",
      "desc": "FAIT MAISON",
      "items": [
        {
          "type": "item",
          "title": "Salade de Saison",
          "desc": "",
          "price": "6,4",
          "cover": "",
          "id": "0",
          "score": {
            "stars": 0,
            "votes": 0,
            "dist": {
              "1": 0,
              "2": 0,
              "3": 0,
              "4": 0,
              "5": 0
            }
          }
        },
        {
          "type": "item",
          "title": "Salade de Tomates",
          "desc": "",
          "price": "7,1",
          "cover": "",
          "id": "1",
          "score": {
            "stars": 0,
            "votes": 0,
            "dist": {
              "1": 0,
              "2": 0,
              "3": 0,
              "4": 0,
              "5": 0
            }
          }
        },
        {
          "type": "item",
          "title": "Salade Mixte",
          "desc": "",
          "price": "7,1",
          "cover": "",
          "id": "2",
          "score": {
            "stars": 0,
            "votes": 0,
            "dist": {
              "1": 0,
              "2": 0,
              "3": 0,
              "4": 0,
              "5": 0
            }
          }
        },
        {
          "type": "item",
          "title": "Salade de Chèvre Chaud",
          "desc": "",
          "price": "14,1",
          "cover": "",
          "id": "3",
          "score": {
            "stars": 0,
            "votes": 0,
            "dist": {
              "1": 0,
              "2": 0,
              "3": 0,
              "4": 0,
              "5": 0
            }
          }
        },
        {
          "type": "item",
          "title": "Tomates Mozzarella",
          "desc": "",
          "price": "13,1",
          "cover": "",
          "id": "4",
          "score": {
            "stars": 0,
            "votes": 0,
            "dist": {
              "1": 0,
              "2": 0,
              "3": 0,
              "4": 0,
              "5": 0
            }
          }
        },
        {
          "type": "item",
          "title": "Salade Niçoise",
          "desc": "",
          "price": "14,1",
          "cover": "",
          "id": "5",
          "score": {
            "stars": 0,
            "votes": 0,
            "dist": {
              "1": 0,
              "2": 0,
              "3": 0,
              "4": 0,
              "5": 0
            }
          }
        },
        {
          "type": "item",
          "title": "Salade de Foies de Volaille",
          "desc": "",
          "price": "14,1",
          "cover": "",
          "id": "6",
          "score": {
            "stars": 0,
            "votes": 0,
            "dist": {
              "1": 0,
              "2": 0,
              "3": 0,
              "4": 0,
              "5": 0
            }
          }
        },
        {
          "type": "item",
          "title": "Salade Mexicaine",
          "desc": "",
          "price": "14,1",
          "cover": "",
          "id": "7",
          "score": {
            "stars": 0,
            "votes": 0,
            "dist": {
              "1": 0,
              "2": 0,
              "3": 0,
              "4": 0,
              "5": 0
            }
          }
        },
        {
          "type": "item",
          "title": "Salade César au poulet",
          "desc": "",
          "price": "14,1",
          "cover": "",
          "id": "8",
          "score": {
            "stars": 0,
            "votes": 0,
            "dist": {
              "1": 0,
              "2": 0,
              "3": 0,
              "4": 0,
              "5": 0
            }
          }
        }
      ]
    },
    {
      "id": "3",
      "title": "OMELETTES",
      "desc": "FAIT MAISON",
      "items": [
        {
          "type": "item",
          "title": "Omelette aux fines herbes",
          "desc": "",
          "price": "11,5",
          "cover": "",
          "id": "0",
          "score": {
            "stars": 0,
            "votes": 0,
            "dist": {
              "1": 0,
              "2": 0,
              "3": 0,
              "4": 0,
              "5": 0
            }
          }
        },
        {
          "type": "item",
          "title": "Omelette aux champignons",
          "desc": "",
          "price": "12,5",
          "cover": "",
          "id": "1",
          "score": {
            "stars": 0,
            "votes": 0,
            "dist": {
              "1": 0,
              "2": 0,
              "3": 0,
              "4": 0,
              "5": 0
            }
          }
        },
        {
          "type": "item",
          "title": "Omelette Queen",
          "desc": "",
          "price": "13,6",
          "cover": "",
          "id": "2",
          "score": {
            "stars": 0,
            "votes": 0,
            "dist": {
              "1": 0,
              "2": 0,
              "3": 0,
              "4": 0,
              "5": 0
            }
          }
        }
      ]
    },
    {
      "id": "4",
      "title": "SPECIALITES AMERICAINES",
      "desc": "FAIT MAISON",
      "items": [
        {
          "type": "item",
          "title": "Poutine Québecoise au Poulet",
          "desc": "",
          "price": "14",
          "cover": "",
          "id": "0",
          "score": {
            "stars": 0,
            "votes": 0,
            "dist": {
              "1": 0,
              "2": 0,
              "3": 0,
              "4": 0,
              "5": 0
            }
          }
        },
        {
          "type": "item",
          "title": "Travers de porc à la Canadienne",
          "desc": "",
          "price": "19,7",
          "cover": "",
          "id": "1",
          "score": {
            "stars": 0,
            "votes": 0,
            "dist": {
              "1": 0,
              "2": 0,
              "3": 0,
              "4": 0,
              "5": 0
            }
          }
        },
        {
          "type": "item",
          "title": "Escalopes de poulet façon Cajun",
          "desc": "",
          "price": "15,9",
          "cover": "",
          "id": "2",
          "score": {
            "stars": 0,
            "votes": 0,
            "dist": {
              "1": 0,
              "2": 0,
              "3": 0,
              "4": 0,
              "5": 0
            }
          }
        },
        {
          "type": "item",
          "title": "Fajitas de poulet",
          "desc": "",
          "price": "19,7",
          "cover": "",
          "id": "3",
          "score": {
            "stars": 0,
            "votes": 0,
            "dist": {
              "1": 0,
              "2": 0,
              "3": 0,
              "4": 0,
              "5": 0
            }
          }
        }
      ]
    },
    {
      "id": "5",
      "title": "STEAK HOUSE",
      "desc": "FAIT MAISON Nos plats sont garnis Nos tartares peuvent être poëlés",
      "items": [
        {
          "type": "item",
          "title": "Pavé de boeuf grillé",
          "desc": "",
          "price": "19,5",
          "cover": "",
          "id": "0",
          "score": {
            "stars": 0,
            "votes": 0,
            "dist": {
              "1": 0,
              "2": 0,
              "3": 0,
              "4": 0,
              "5": 0
            }
          }
        },
        {
          "type": "item",
          "title": "Entrecôte grillée",
          "desc": "",
          "price": "25,2",
          "cover": "",
          "id": "1",
          "score": {
            "stars": 0,
            "votes": 0,
            "dist": {
              "1": 0,
              "2": 0,
              "3": 0,
              "4": 0,
              "5": 0
            }
          }
        },
        {
          "type": "item",
          "title": "Bavette à l'échalotte",
          "desc": "",
          "price": "21",
          "cover": "",
          "id": "2",
          "score": {
            "stars": 0,
            "votes": 0,
            "dist": {
              "1": 0,
              "2": 0,
              "3": 0,
              "4": 0,
              "5": 0
            }
          }
        },
        {
          "type": "item",
          "title": "Filet de boeuf grillé",
          "desc": "",
          "price": "27,4",
          "cover": "",
          "id": "3",
          "score": {
            "stars": 0,
            "votes": 0,
            "dist": {
              "1": 0,
              "2": 0,
              "3": 0,
              "4": 0,
              "5": 0
            }
          }
        },
        {
          "type": "item",
          "title": "Côte de boeuf 500gr",
          "desc": "",
          "price": "28,5",
          "cover": "",
          "id": "4",
          "score": {
            "stars": 0,
            "votes": 0,
            "dist": {
              "1": 0,
              "2": 0,
              "3": 0,
              "4": 0,
              "5": 0
            }
          }
        },
        {
          "type": "item",
          "title": "1/4 Poulet fermier rôti",
          "desc": "",
          "price": "11,3",
          "cover": "",
          "id": "5",
          "score": {
            "stars": 0,
            "votes": 0,
            "dist": {
              "1": 0,
              "2": 0,
              "3": 0,
              "4": 0,
              "5": 0
            }
          }
        },
        {
          "type": "item",
          "title": "1/2 Poulet fermier rôti",
          "desc": "",
          "price": "19,5",
          "cover": "",
          "id": "6",
          "score": {
            "stars": 0,
            "votes": 0,
            "dist": {
              "1": 0,
              "2": 0,
              "3": 0,
              "4": 0,
              "5": 0
            }
          }
        },
        {
          "type": "item",
          "title": "Steak Tartare (Small 150g)",
          "desc": "",
          "price": "16,9",
          "cover": "",
          "id": "7",
          "score": {
            "stars": 0,
            "votes": 0,
            "dist": {
              "1": 0,
              "2": 0,
              "3": 0,
              "4": 0,
              "5": 0
            }
          }
        },
        {
          "type": "item",
          "title": "Steak Tartare (Large 250gr)",
          "desc": "",
          "price": "24,7",
          "cover": "",
          "id": "8",
          "score": {
            "stars": 0,
            "votes": 0,
            "dist": {
              "1": 0,
              "2": 0,
              "3": 0,
              "4": 0,
              "5": 0
            }
          }
        },
        {
          "type": "item",
          "title": "SAUCES AUX CHOIX",
          "desc": "BBQ, Poivre, Roquefort, Cajun ou Béarnaise",
          "price": "1,9",
          "cover": "",
          "id": "9",
          "score": {
            "stars": 0,
            "votes": 0,
            "dist": {
              "1": 0,
              "2": 0,
              "3": 0,
              "4": 0,
              "5": 0
            }
          }
        },
        {
          "type": "subcategory",
          "title": "GARNITURES",
          "desc": "Frites de patates douces /Haricots verts Pommes frites / Baked potatoe / Riz au beurre"
        },
        {
          "type": "item",
          "title": "Small",
          "desc": "",
          "price": "3,9",
          "cover": "",
          "id": "10",
          "score": {
            "stars": 0,
            "votes": 0,
            "dist": {
              "1": 0,
              "2": 0,
              "3": 0,
              "4": 0,
              "5": 0
            }
          }
        },
        {
          "type": "item",
          "title": "Large",
          "desc": "",
          "price": "7,4",
          "cover": "",
          "id": "11",
          "score": {
            "stars": 0,
            "votes": 0,
            "dist": {
              "1": 0,
              "2": 0,
              "3": 0,
              "4": 0,
              "5": 0
            }
          }
        }
      ]
    },
    {
      "id": "6",
      "title": "HAMBURGERS",
      "desc": "FAIT MAISON Nos plats sont garnis Nos Burgers sont réalisés avec de la viande fraîche",
      "items": [
        {
          "type": "item",
          "title": "Hamburger Simple",
          "desc": "",
          "price": "12,8",
          "cover": "",
          "id": "0",
          "score": {
            "stars": 0,
            "votes": 0,
            "dist": {
              "1": 0,
              "2": 0,
              "3": 0,
              "4": 0,
              "5": 0
            }
          }
        },
        {
          "type": "item",
          "title": "Hamburger Québec Beef 150gr, bacon, cheese, egg",
          "desc": "",
          "price": "16,9",
          "cover": "",
          "id": "1",
          "score": {
            "stars": 0,
            "votes": 0,
            "dist": {
              "1": 0,
              "2": 0,
              "3": 0,
              "4": 0,
              "5": 0
            }
          }
        },
        {
          "type": "item",
          "title": "Double Burger Québec Beef 300gr",
          "desc": "",
          "price": "24,2",
          "cover": "",
          "id": "2",
          "score": {
            "stars": 0,
            "votes": 0,
            "dist": {
              "1": 0,
              "2": 0,
              "3": 0,
              "4": 0,
              "5": 0
            }
          }
        },
        {
          "type": "item",
          "title": "Le Hambourgeois Our favorite beef Burger 150gr",
          "desc": "",
          "price": "15,9",
          "cover": "",
          "id": "3",
          "score": {
            "stars": 0,
            "votes": 0,
            "dist": {
              "1": 0,
              "2": 0,
              "3": 0,
              "4": 0,
              "5": 0
            }
          }
        },
        {
          "type": "item",
          "title": "Chicken Burger Chicken filet, cajun sauce",
          "desc": "",
          "price": "14,9",
          "cover": "",
          "id": "4",
          "score": {
            "stars": 0,
            "votes": 0,
            "dist": {
              "1": 0,
              "2": 0,
              "3": 0,
              "4": 0,
              "5": 0
            }
          }
        },
        {
          "type": "item",
          "title": "Duo de Burgers",
          "desc": "",
          "price": "16,9",
          "cover": "",
          "id": "5",
          "score": {
            "stars": 0,
            "votes": 0,
            "dist": {
              "1": 0,
              "2": 0,
              "3": 0,
              "4": 0,
              "5": 0
            }
          }
        },
        {
          "type": "item",
          "title": "TOPPINGS",
          "desc": "Guacamole, fromage, oeuf ou bacon",
          "price": "1,6",
          "cover": "",
          "id": "6",
          "score": {
            "stars": 0,
            "votes": 0,
            "dist": {
              "1": 0,
              "2": 0,
              "3": 0,
              "4": 0,
              "5": 0
            }
          }
        }
      ]
    },
    {
      "id": "7",
      "title": "PATES",
      "desc": "FAIT MAISON Spaghetti ou penne",
      "items": [
        {
          "type": "item",
          "title": "Napolitaine",
          "desc": "",
          "price": "10,5",
          "cover": "",
          "id": "0",
          "score": {
            "stars": 0,
            "votes": 0,
            "dist": {
              "1": 0,
              "2": 0,
              "3": 0,
              "4": 0,
              "5": 0
            }
          }
        },
        {
          "type": "item",
          "title": "Bolognaise",
          "desc": "",
          "price": "14,3",
          "cover": "",
          "id": "1",
          "score": {
            "stars": 0,
            "votes": 0,
            "dist": {
              "1": 0,
              "2": 0,
              "3": 0,
              "4": 0,
              "5": 0
            }
          }
        },
        {
          "type": "item",
          "title": "Carbonara",
          "desc": "",
          "price": "14,3",
          "cover": "",
          "id": "2",
          "score": {
            "stars": 0,
            "votes": 0,
            "dist": {
              "1": 0,
              "2": 0,
              "3": 0,
              "4": 0,
              "5": 0
            }
          }
        },
        {
          "type": "item",
          "title": "Saumon",
          "desc": "",
          "price": "15,3",
          "cover": "",
          "id": "3",
          "score": {
            "stars": 0,
            "votes": 0,
            "dist": {
              "1": 0,
              "2": 0,
              "3": 0,
              "4": 0,
              "5": 0
            }
          }
        },
        {
          "type": "item",
          "title": "Lasagne al forno",
          "desc": "",
          "price": "16,4",
          "cover": "",
          "id": "4",
          "score": {
            "stars": 0,
            "votes": 0,
            "dist": {
              "1": 0,
              "2": 0,
              "3": 0,
              "4": 0,
              "5": 0
            }
          }
        }
      ]
    },
    {
      "id": "8",
      "title": "DESSERTS",
      "desc": "FAIT MAISON",
      "items": [
        {
          "type": "item",
          "title": "Crème brûlée",
          "desc": "",
          "price": "7,9",
          "cover": "",
          "id": "0",
          "score": {
            "stars": 0,
            "votes": 0,
            "dist": {
              "1": 0,
              "2": 0,
              "3": 0,
              "4": 0,
              "5": 0
            }
          }
        },
        {
          "type": "item",
          "title": "Brownie au chocolat",
          "desc": "",
          "price": "7,9",
          "cover": "",
          "id": "1",
          "score": {
            "stars": 0,
            "votes": 0,
            "dist": {
              "1": 0,
              "2": 0,
              "3": 0,
              "4": 0,
              "5": 0
            }
          }
        },
        {
          "type": "item",
          "title": "Cheese cake",
          "desc": "",
          "price": "7,9",
          "cover": "",
          "id": "2",
          "score": {
            "stars": 0,
            "votes": 0,
            "dist": {
              "1": 0,
              "2": 0,
              "3": 0,
              "4": 0,
              "5": 0
            }
          }
        },
        {
          "type": "item",
          "title": "Ile flottante et sa crème anglaise",
          "desc": "",
          "price": "7,9",
          "cover": "",
          "id": "3",
          "score": {
            "stars": 0,
            "votes": 0,
            "dist": {
              "1": 0,
              "2": 0,
              "3": 0,
              "4": 0,
              "5": 0
            }
          }
        },
        {
          "type": "item",
          "title": "Crème de marron Chantilly",
          "desc": "",
          "price": "7,9",
          "cover": "",
          "id": "4",
          "score": {
            "stars": 0,
            "votes": 0,
            "dist": {
              "1": 0,
              "2": 0,
              "3": 0,
              "4": 0,
              "5": 0
            }
          }
        },
        {
          "type": "item",
          "title": "Ananas frais",
          "desc": "",
          "price": "8,4",
          "cover": "",
          "id": "5",
          "score": {
            "stars": 0,
            "votes": 0,
            "dist": {
              "1": 0,
              "2": 0,
              "3": 0,
              "4": 0,
              "5": 0
            }
          }
        },
        {
          "type": "item",
          "title": "Tarte aux pommes chaude",
          "desc": "",
          "price": "9,1",
          "cover": "",
          "id": "6",
          "score": {
            "stars": 0,
            "votes": 0,
            "dist": {
              "1": 0,
              "2": 0,
              "3": 0,
              "4": 0,
              "5": 0
            }
          }
        },
        {
          "type": "subcategory",
          "title": "WAFFLES",
          "desc": "FAIT MAISON"
        },
        {
          "type": "item",
          "title": "Gaufre façon U.S.",
          "desc": "Choix de suppléments en bas de page",
          "price": "4,2",
          "cover": "",
          "id": "7",
          "score": {
            "stars": 0,
            "votes": 0,
            "dist": {
              "1": 0,
              "2": 0,
              "3": 0,
              "4": 0,
              "5": 0
            }
          }
        },
        {
          "type": "subcategory",
          "title": "GLACES ARTISANALES",
          "desc": "par notre Artisan, Maître Glacier, Neige Azur"
        },
        {
          "type": "item",
          "title": "Coupe simple",
          "desc": "2 boules au choix - Glaces : vanille, café, chocolat, pistache, malaga, fleur de lait, noisette Sorbets : cassis, citron, coco, fraise, poire",
          "price": "7,4",
          "cover": "",
          "id": "8",
          "score": {
            "stars": 0,
            "votes": 0,
            "dist": {
              "1": 0,
              "2": 0,
              "3": 0,
              "4": 0,
              "5": 0
            }
          }
        },
        {
          "type": "item",
          "title": "Sundae caramel",
          "desc": "",
          "price": "7,9",
          "cover": "",
          "id": "9",
          "score": {
            "stars": 0,
            "votes": 0,
            "dist": {
              "1": 0,
              "2": 0,
              "3": 0,
              "4": 0,
              "5": 0
            }
          }
        },
        {
          "type": "item",
          "title": "Café ou Chocolat Liégeois",
          "desc": "",
          "price": "9,8",
          "cover": "",
          "id": "10",
          "score": {
            "stars": 0,
            "votes": 0,
            "dist": {
              "1": 0,
              "2": 0,
              "3": 0,
              "4": 0,
              "5": 0
            }
          }
        },
        {
          "type": "item",
          "title": "Dame Blanche",
          "desc": "Glace vanille, chocolat chaud, chantilly & amandes",
          "price": "9,8",
          "cover": "",
          "id": "11",
          "score": {
            "stars": 0,
            "votes": 0,
            "dist": {
              "1": 0,
              "2": 0,
              "3": 0,
              "4": 0,
              "5": 0
            }
          }
        },
        {
          "type": "item",
          "title": "Coupe Cherry",
          "desc": "Glaces praliné & pistache, griottes, chantilly",
          "price": "10,3",
          "cover": "",
          "id": "12",
          "score": {
            "stars": 0,
            "votes": 0,
            "dist": {
              "1": 0,
              "2": 0,
              "3": 0,
              "4": 0,
              "5": 0
            }
          }
        },
        {
          "type": "item",
          "title": "Coupe Banquise",
          "desc": "Glace vanille, crème de marron, chantilly & amandes",
          "price": "9,8",
          "cover": "",
          "id": "13",
          "score": {
            "stars": 0,
            "votes": 0,
            "dist": {
              "1": 0,
              "2": 0,
              "3": 0,
              "4": 0,
              "5": 0
            }
          }
        },
        {
          "type": "item",
          "title": "Coupe Colonel",
          "desc": "Sorbet citron, vodka",
          "price": "10,3",
          "cover": "",
          "id": "14",
          "score": {
            "stars": 0,
            "votes": 0,
            "dist": {
              "1": 0,
              "2": 0,
              "3": 0,
              "4": 0,
              "5": 0
            }
          }
        },
        {
          "type": "item",
          "title": "Coupe Moskova",
          "desc": "Sorbet cassis, vodka",
          "price": "10,3",
          "cover": "",
          "id": "15",
          "score": {
            "stars": 0,
            "votes": 0,
            "dist": {
              "1": 0,
              "2": 0,
              "3": 0,
              "4": 0,
              "5": 0
            }
          }
        },
        {
          "type": "item",
          "title": "Profiteroles maison au chocolat",
          "desc": "",
          "price": "10,3",
          "cover": "",
          "id": "16",
          "score": {
            "stars": 0,
            "votes": 0,
            "dist": {
              "1": 0,
              "2": 0,
              "3": 0,
              "4": 0,
              "5": 0
            }
          }
        },
        {
          "type": "subcategory",
          "title": "TOPPINGS",
          "desc": ""
        },
        {
          "type": "item",
          "title": "Chantilly, chocolat chaud ou caramel",
          "desc": "",
          "price": "1,1",
          "cover": "",
          "id": "17",
          "score": {
            "stars": 0,
            "votes": 0,
            "dist": {
              "1": 0,
              "2": 0,
              "3": 0,
              "4": 0,
              "5": 0
            }
          }
        },
        {
          "type": "item",
          "title": "Sirop d'érable, glace ou crème de marrons",
          "desc": "",
          "price": "1,7",
          "cover": "",
          "id": "18",
          "score": {
            "stars": 0,
            "votes": 0,
            "dist": {
              "1": 0,
              "2": 0,
              "3": 0,
              "4": 0,
              "5": 0
            }
          }
        }
      ]
    },
    {
      "id": "9",
      "title": "POISSONS",
      "desc": "FAIT MAISON Nos plats sont garnis",
      "items": [
        {
          "type": "item",
          "title": "Fish and chips",
          "desc": "",
          "price": "19,5",
          "cover": "",
          "id": "0",
          "score": {
            "stars": 0,
            "votes": 0,
            "dist": {
              "1": 0,
              "2": 0,
              "3": 0,
              "4": 0,
              "5": 0
            }
          }
        },
        {
          "type": "item",
          "title": "Saumon grillé Grilled salmon",
          "desc": "",
          "price": "18,5",
          "cover": "",
          "id": "1",
          "score": {
            "stars": 0,
            "votes": 0,
            "dist": {
              "1": 0,
              "2": 0,
              "3": 0,
              "4": 0,
              "5": 0
            }
          }
        },
        {
          "type": "item",
          "title": "Moules Marinières (selon saison)",
          "desc": "",
          "price": "15,9",
          "cover": "",
          "id": "2",
          "score": {
            "stars": 0,
            "votes": 0,
            "dist": {
              "1": 0,
              "2": 0,
              "3": 0,
              "4": 0,
              "5": 0
            }
          }
        },
        {
          "type": "item",
          "title": "Moules Poulettes (selon saison)",
          "desc": "",
          "price": "15,9",
          "cover": "",
          "id": "3",
          "score": {
            "stars": 0,
            "votes": 0,
            "dist": {
              "1": 0,
              "2": 0,
              "3": 0,
              "4": 0,
              "5": 0
            }
          }
        }
      ]
    },
    {
      "id": "10",
      "title": "FROMAGES",
      "desc": "",
      "items": [
        {
          "type": "item",
          "title": "Roquefort ou Chèvre...",
          "desc": "",
          "price": "8,4",
          "cover": "",
          "id": "0",
          "score": {
            "stars": 0,
            "votes": 0,
            "dist": {
              "1": 0,
              "2": 0,
              "3": 0,
              "4": 0,
              "5": 0
            }
          }
        },
        {
          "type": "item",
          "title": "Duo de fromages",
          "desc": "",
          "price": "11,5",
          "cover": "",
          "id": "1",
          "score": {
            "stars": 0,
            "votes": 0,
            "dist": {
              "1": 0,
              "2": 0,
              "3": 0,
              "4": 0,
              "5": 0
            }
          }
        }
      ]
    },
    {
      "id": "11",
      "title": "LES VINS",
      "desc": "",
      "items": [
        {
          "type": "subcategory",
          "title": "Côtes de Provence",
          "desc": ""
        },
        {
          "type": "item",
          "title": "VIN DE CRESCI (75cl)",
          "desc": "Rouge, Rosé  37,5cl à 10,30€",
          "price": "18,6",
          "cover": "",
          "id": "0",
          "score": {
            "stars": 0,
            "votes": 0,
            "dist": {
              "1": 0,
              "2": 0,
              "3": 0,
              "4": 0,
              "5": 0
            }
          }
        },
        {
          "type": "item",
          "title": "TERRES NOBLES (50cl)",
          "desc": "Rouge, Rosé, Blanc",
          "price": "17,60",
          "cover": "",
          "id": "1",
          "score": {
            "stars": 0,
            "votes": 0,
            "dist": {
              "1": 0,
              "2": 0,
              "3": 0,
              "4": 0,
              "5": 0
            }
          }
        },
        {
          "type": "item",
          "title": "MINUTY PRESTIGE (1,5l)",
          "desc": "Rouge, Rosé  75cl à 37,00€, 50cl à 24,50€",
          "price": "68,00",
          "cover": "",
          "id": "2",
          "score": {
            "stars": 0,
            "votes": 0,
            "dist": {
              "1": 0,
              "2": 0,
              "3": 0,
              "4": 0,
              "5": 0
            }
          }
        },
        {
          "type": "subcategory",
          "title": "Vallée du Rhône",
          "desc": ""
        },
        {
          "type": "item",
          "title": "LES MAGERANS (75cl)",
          "desc": "Côtes du Rhône  37,5cl à 14,6€",
          "price": "25,50",
          "cover": "",
          "id": "3",
          "score": {
            "stars": 0,
            "votes": 0,
            "dist": {
              "1": 0,
              "2": 0,
              "3": 0,
              "4": 0,
              "5": 0
            }
          }
        },
        {
          "type": "item",
          "title": "PIERRE AMADIEU (75cl)",
          "desc": "Chateauneuf-du-Pape",
          "price": "56,00",
          "cover": "",
          "id": "4",
          "score": {
            "stars": 0,
            "votes": 0,
            "dist": {
              "1": 0,
              "2": 0,
              "3": 0,
              "4": 0,
              "5": 0
            }
          }
        },
        {
          "type": "subcategory",
          "title": "Beaujolais",
          "desc": ""
        },
        {
          "type": "item",
          "title": "DOMAINE DU BOIS DES CHÊNES (75cl)",
          "desc": "Beaujolais Villages   37,5cl à 14,6€",
          "price": "25,50",
          "cover": "",
          "id": "5",
          "score": {
            "stars": 0,
            "votes": 0,
            "dist": {
              "1": 0,
              "2": 0,
              "3": 0,
              "4": 0,
              "5": 0
            }
          }
        }
      ]
    },
    {
      "id": "12",
      "title": "Bordeaux",
      "desc": "",
      "items": [
        {
          "type": "subcategory",
          "title": "Saint-Emilion 37,5cl à 19,6€",
          "desc": "36,50€"
        },
        {
          "type": "item",
          "title": "CHATEAU VIEUX CARDINAL LAFAURIE(75cl)",
          "desc": "Lalande Pomerol",
          "price": "47",
          "cover": "",
          "id": "0",
          "score": {
            "stars": 0,
            "votes": 0,
            "dist": {
              "1": 0,
              "2": 0,
              "3": 0,
              "4": 0,
              "5": 0
            }
          }
        },
        {
          "type": "subcategory",
          "title": "Italie",
          "desc": ""
        },
        {
          "type": "item",
          "title": "CHIANTI RUFFINO (75cl)",
          "desc": "Rouge  37,5cl à 16,8€",
          "price": "28",
          "cover": "",
          "id": "1",
          "score": {
            "stars": 0,
            "votes": 0,
            "dist": {
              "1": 0,
              "2": 0,
              "3": 0,
              "4": 0,
              "5": 0
            }
          }
        },
        {
          "type": "subcategory",
          "title": "Amérique",
          "desc": ""
        },
        {
          "type": "item",
          "title": "GOLD COUNTRY,",
          "desc": "Californie, Cabernet Sauvignon Rouge",
          "price": "27",
          "cover": "",
          "id": "2",
          "score": {
            "stars": 0,
            "votes": 0,
            "dist": {
              "1": 0,
              "2": 0,
              "3": 0,
              "4": 0,
              "5": 0
            }
          }
        },
        {
          "type": "item",
          "title": "CAMELEON (75cl)",
          "desc": "Argentine, Chardonnay Blanc",
          "price": "27,5",
          "cover": "",
          "id": "3",
          "score": {
            "stars": 0,
            "votes": 0,
            "dist": {
              "1": 0,
              "2": 0,
              "3": 0,
              "4": 0,
              "5": 0
            }
          }
        },
        {
          "type": "subcategory",
          "title": "Champagne",
          "desc": ""
        },
        {
          "type": "item",
          "title": "LOUIS ROEDERER   (75cl)",
          "desc": "37,5cl à 38,5€",
          "price": "71",
          "cover": "",
          "id": "4",
          "score": {
            "stars": 0,
            "votes": 0,
            "dist": {
              "1": 0,
              "2": 0,
              "3": 0,
              "4": 0,
              "5": 0
            }
          }
        },
        {
          "type": "item",
          "title": "Champagne Sélection Maison (75cl)",
          "desc": "",
          "price": "54",
          "cover": "",
          "id": "5",
          "score": {
            "stars": 0,
            "votes": 0,
            "dist": {
              "1": 0,
              "2": 0,
              "3": 0,
              "4": 0,
              "5": 0
            }
          }
        },
        {
          "type": "subcategory",
          "title": "Vins Sélection Maison",
          "desc": ""
        },
        {
          "type": "item",
          "title": "Le verre 16 cl",
          "desc": "Rouge Blan Rosé",
          "price": "3,9",
          "cover": "",
          "id": "6",
          "score": {
            "stars": 0,
            "votes": 0,
            "dist": {
              "1": 0,
              "2": 0,
              "3": 0,
              "4": 0,
              "5": 0
            }
          }
        },
        {
          "type": "item",
          "title": "Le carafon 25 cl",
          "desc": "Rouge Blan Rosé",
          "price": "6,6",
          "cover": "",
          "id": "7",
          "score": {
            "stars": 0,
            "votes": 0,
            "dist": {
              "1": 0,
              "2": 0,
              "3": 0,
              "4": 0,
              "5": 0
            }
          }
        },
        {
          "type": "item",
          "title": "La carafe 50 cl",
          "desc": "Rouge Blan Rosé",
          "price": "11,3",
          "cover": "",
          "id": "8",
          "score": {
            "stars": 0,
            "votes": 0,
            "dist": {
              "1": 0,
              "2": 0,
              "3": 0,
              "4": 0,
              "5": 0
            }
          }
        },
        {
          "type": "subcategory",
          "title": "Coup de coeur du moment",
          "desc": "Merci de demander au garçon"
        },
        {
          "type": "item",
          "title": "Le verre 16 cl",
          "desc": "Rouge Blan Rosé",
          "price": "4,9",
          "cover": "",
          "id": "9",
          "score": {
            "stars": 0,
            "votes": 0,
            "dist": {
              "1": 0,
              "2": 0,
              "3": 0,
              "4": 0,
              "5": 0
            }
          }
        },
        {
          "type": "item",
          "title": "Le carafon 25 cl",
          "desc": "Rouge Blan Rosé",
          "price": "8,1",
          "cover": "",
          "id": "10",
          "score": {
            "stars": 0,
            "votes": 0,
            "dist": {
              "1": 0,
              "2": 0,
              "3": 0,
              "4": 0,
              "5": 0
            }
          }
        },
        {
          "type": "item",
          "title": "La carafe 50 cl",
          "desc": "Rouge Blan Rosé",
          "price": "15,1",
          "cover": "",
          "id": "11",
          "score": {
            "stars": 0,
            "votes": 0,
            "dist": {
              "1": 0,
              "2": 0,
              "3": 0,
              "4": 0,
              "5": 0
            }
          }
        },
        {
          "type": "item",
          "title": "La bouteille 75cl",
          "desc": "Rouge Blan Rosé",
          "price": "22,5",
          "cover": "",
          "id": "12",
          "score": {
            "stars": 0,
            "votes": 0,
            "dist": {
              "1": 0,
              "2": 0,
              "3": 0,
              "4": 0,
              "5": 0
            }
          }
        }
      ]
    },
    {
      "id": "13",
      "title": "APERITIFS & CONSOMMATIONS",
      "desc": "",
      "items": [
        {
          "type": "item",
          "title": "Coupe de Champagne (13cl)",
          "desc": "",
          "price": "9,6",
          "cover": "",
          "id": "0",
          "score": {
            "stars": 0,
            "votes": 0,
            "dist": {
              "1": 0,
              "2": 0,
              "3": 0,
              "4": 0,
              "5": 0
            }
          }
        },
        {
          "type": "item",
          "title": "Kir (13cl)",
          "desc": "",
          "price": "4,8",
          "cover": "",
          "id": "1",
          "score": {
            "stars": 0,
            "votes": 0,
            "dist": {
              "1": 0,
              "2": 0,
              "3": 0,
              "4": 0,
              "5": 0
            }
          }
        },
        {
          "type": "item",
          "title": "Kir Royal (13cl)",
          "desc": "",
          "price": "10,6",
          "cover": "",
          "id": "2",
          "score": {
            "stars": 0,
            "votes": 0,
            "dist": {
              "1": 0,
              "2": 0,
              "3": 0,
              "4": 0,
              "5": 0
            }
          }
        },
        {
          "type": "item",
          "title": "Pastis, Ricard, 51 (2cl)",
          "desc": "",
          "price": "5",
          "cover": "",
          "id": "3",
          "score": {
            "stars": 0,
            "votes": 0,
            "dist": {
              "1": 0,
              "2": 0,
              "3": 0,
              "4": 0,
              "5": 0
            }
          }
        },
        {
          "type": "item",
          "title": "Martini, Suze, Porto, Campari (6cl)",
          "desc": "",
          "price": "5",
          "cover": "",
          "id": "4",
          "score": {
            "stars": 0,
            "votes": 0,
            "dist": {
              "1": 0,
              "2": 0,
              "3": 0,
              "4": 0,
              "5": 0
            }
          }
        },
        {
          "type": "item",
          "title": "Whisky, Vodka, Gin, Rhum, Tequila (4 cl)",
          "desc": "",
          "price": "7",
          "cover": "",
          "id": "5",
          "score": {
            "stars": 0,
            "votes": 0,
            "dist": {
              "1": 0,
              "2": 0,
              "3": 0,
              "4": 0,
              "5": 0
            }
          }
        },
        {
          "type": "item",
          "title": "Grappa, Calva, Cognac, Armagnac (4 cl)",
          "desc": "",
          "price": "7",
          "cover": "",
          "id": "6",
          "score": {
            "stars": 0,
            "votes": 0,
            "dist": {
              "1": 0,
              "2": 0,
              "3": 0,
              "4": 0,
              "5": 0
            }
          }
        },
        {
          "type": "item",
          "title": "Get 27, Bailey's, Limoncello, Cointreau (4 cl)",
          "desc": "",
          "price": "7",
          "cover": "",
          "id": "7",
          "score": {
            "stars": 0,
            "votes": 0,
            "dist": {
              "1": 0,
              "2": 0,
              "3": 0,
              "4": 0,
              "5": 0
            }
          }
        },
        {
          "type": "item",
          "title": "Cognac VSOP, Poire (4cl)",
          "desc": "",
          "price": "9",
          "cover": "",
          "id": "8",
          "score": {
            "stars": 0,
            "votes": 0,
            "dist": {
              "1": 0,
              "2": 0,
              "3": 0,
              "4": 0,
              "5": 0
            }
          }
        },
        {
          "type": "item",
          "title": "Jack Daniel's, JW Black Label (4cl)",
          "desc": "",
          "price": "9",
          "cover": "",
          "id": "9",
          "score": {
            "stars": 0,
            "votes": 0,
            "dist": {
              "1": 0,
              "2": 0,
              "3": 0,
              "4": 0,
              "5": 0
            }
          }
        },
        {
          "type": "item",
          "title": "Orangina, Diabolo, Iced Tea (25cl)",
          "desc": "",
          "price": "4,7",
          "cover": "",
          "id": "10",
          "score": {
            "stars": 0,
            "votes": 0,
            "dist": {
              "1": 0,
              "2": 0,
              "3": 0,
              "4": 0,
              "5": 0
            }
          }
        },
        {
          "type": "item",
          "title": "Jus de Fruits, Tonic (25cl)",
          "desc": "",
          "price": "4,7",
          "cover": "",
          "id": "11",
          "score": {
            "stars": 0,
            "votes": 0,
            "dist": {
              "1": 0,
              "2": 0,
              "3": 0,
              "4": 0,
              "5": 0
            }
          }
        },
        {
          "type": "item",
          "title": "PEPSI, PEPSI MAX (33cl)",
          "desc": "",
          "price": "4,30",
          "cover": "",
          "id": "12",
          "score": {
            "stars": 0,
            "votes": 0,
            "dist": {
              "1": 0,
              "2": 0,
              "3": 0,
              "4": 0,
              "5": 0
            }
          }
        },
        {
          "type": "item",
          "title": "CocaCola, Zero, Light (33cl)",
          "desc": "",
          "price": "4,90",
          "cover": "",
          "id": "13",
          "score": {
            "stars": 0,
            "votes": 0,
            "dist": {
              "1": 0,
              "2": 0,
              "3": 0,
              "4": 0,
              "5": 0
            }
          }
        },
        {
          "type": "item",
          "title": "Limonade (25cl)",
          "desc": "",
          "price": "4,00",
          "cover": "",
          "id": "14",
          "score": {
            "stars": 0,
            "votes": 0,
            "dist": {
              "1": 0,
              "2": 0,
              "3": 0,
              "4": 0,
              "5": 0
            }
          }
        },
        {
          "type": "item",
          "title": "Expresso",
          "desc": "",
          "price": "2",
          "cover": "",
          "id": "15",
          "score": {
            "stars": 0,
            "votes": 0,
            "dist": {
              "1": 0,
              "2": 0,
              "3": 0,
              "4": 0,
              "5": 0
            }
          }
        },
        {
          "type": "item",
          "title": "Décaféiné",
          "desc": "",
          "price": "2",
          "cover": "",
          "id": "16",
          "score": {
            "stars": 0,
            "votes": 0,
            "dist": {
              "1": 0,
              "2": 0,
              "3": 0,
              "4": 0,
              "5": 0
            }
          }
        },
        {
          "type": "item",
          "title": "Capuccino",
          "desc": "",
          "price": "4,4",
          "cover": "",
          "id": "17",
          "score": {
            "stars": 0,
            "votes": 0,
            "dist": {
              "1": 0,
              "2": 0,
              "3": 0,
              "4": 0,
              "5": 0
            }
          }
        },
        {
          "type": "item",
          "title": "Chocolat",
          "desc": "",
          "price": "4,4",
          "cover": "",
          "id": "18",
          "score": {
            "stars": 0,
            "votes": 0,
            "dist": {
              "1": 0,
              "2": 0,
              "3": 0,
              "4": 0,
              "5": 0
            }
          }
        },
        {
          "type": "item",
          "title": "Thé lait",
          "desc": "",
          "price": "3,90",
          "cover": "",
          "id": "19",
          "score": {
            "stars": 0,
            "votes": 0,
            "dist": {
              "1": 0,
              "2": 0,
              "3": 0,
              "4": 0,
              "5": 0
            }
          }
        },
        {
          "type": "item",
          "title": "Thé citron",
          "desc": "",
          "price": "3,90",
          "cover": "",
          "id": "20",
          "score": {
            "stars": 0,
            "votes": 0,
            "dist": {
              "1": 0,
              "2": 0,
              "3": 0,
              "4": 0,
              "5": 0
            }
          }
        },
        {
          "type": "item",
          "title": "Infusion",
          "desc": "",
          "price": "3,90",
          "cover": "",
          "id": "21",
          "score": {
            "stars": 0,
            "votes": 0,
            "dist": {
              "1": 0,
              "2": 0,
              "3": 0,
              "4": 0,
              "5": 0
            }
          }
        },
        {
          "type": "item",
          "title": "Café au lait",
          "desc": "",
          "price": "3,90",
          "cover": "",
          "id": "22",
          "score": {
            "stars": 0,
            "votes": 0,
            "dist": {
              "1": 0,
              "2": 0,
              "3": 0,
              "4": 0,
              "5": 0
            }
          }
        },
        {
          "type": "item",
          "title": "Café Viennois",
          "desc": "",
          "price": "5",
          "cover": "",
          "id": "23",
          "score": {
            "stars": 0,
            "votes": 0,
            "dist": {
              "1": 0,
              "2": 0,
              "3": 0,
              "4": 0,
              "5": 0
            }
          }
        },
        {
          "type": "item",
          "title": "Chocolat Viennois",
          "desc": "",
          "price": "5",
          "cover": "",
          "id": "24",
          "score": {
            "stars": 0,
            "votes": 0,
            "dist": {
              "1": 0,
              "2": 0,
              "3": 0,
              "4": 0,
              "5": 0
            }
          }
        },
        {
          "type": "item",
          "title": "Irish Coffee",
          "desc": "",
          "price": "9,80",
          "cover": "",
          "id": "25",
          "score": {
            "stars": 0,
            "votes": 0,
            "dist": {
              "1": 0,
              "2": 0,
              "3": 0,
              "4": 0,
              "5": 0
            }
          }
        }
      ]
    },
    {
      "id": "14",
      "title": "COCKTAILS",
      "desc": "",
      "items": [
        {
          "type": "subcategory",
          "title": "Tequila, cointreau, sorbet citron ou fraise, glace pilée 1l à 24€",
          "desc": "9,5"
        },
        {
          "type": "item",
          "title": "Frozen Caipiroska (25cl)",
          "desc": "Vodka, sorbet citron ou fraise, glace pilée 1l à 24€",
          "price": "9,5",
          "cover": "",
          "id": "0",
          "score": {
            "stars": 0,
            "votes": 0,
            "dist": {
              "1": 0,
              "2": 0,
              "3": 0,
              "4": 0,
              "5": 0
            }
          }
        },
        {
          "type": "item",
          "title": "Mojito (25cl)",
          "desc": "Citron vert, sucre de canne, menthe fraîche, ruhm, limonade 1l à 24€",
          "price": "9,5",
          "cover": "",
          "id": "1",
          "score": {
            "stars": 0,
            "votes": 0,
            "dist": {
              "1": 0,
              "2": 0,
              "3": 0,
              "4": 0,
              "5": 0
            }
          }
        },
        {
          "type": "item",
          "title": "Mojito Fraise (25cl)",
          "desc": "Citron vert, sucre de canne, menthe fraîche, ruhm, limonade, coulis de fraise (1l à 28€)",
          "price": "11",
          "cover": "",
          "id": "2",
          "score": {
            "stars": 0,
            "votes": 0,
            "dist": {
              "1": 0,
              "2": 0,
              "3": 0,
              "4": 0,
              "5": 0
            }
          }
        }
      ]
    },
    {
      "id": "15",
      "title": "BIÈRE À LA PRESSION",
      "desc": "",
      "items": [
        {
          "type": "subcategory",
          "title": "50cl à 7.7€",
          "desc": "4,30€"
        },
        {
          "type": "subcategory",
          "title": "Bières du Monde",
          "desc": ""
        },
        {
          "type": "item",
          "title": "Carlsberg",
          "desc": "33cl",
          "price": "6,30",
          "cover": "",
          "id": "0",
          "score": {
            "stars": 0,
            "votes": 0,
            "dist": {
              "1": 0,
              "2": 0,
              "3": 0,
              "4": 0,
              "5": 0
            }
          }
        },
        {
          "type": "item",
          "title": "Bière de Nice ambrée",
          "desc": "33 cl.",
          "price": "7,00",
          "cover": "",
          "id": "1",
          "score": {
            "stars": 0,
            "votes": 0,
            "dist": {
              "1": 0,
              "2": 0,
              "3": 0,
              "4": 0,
              "5": 0
            }
          }
        },
        {
          "type": "item",
          "title": "Tigre Bock Brune",
          "desc": "27,5 cl.",
          "price": "6,00",
          "cover": "",
          "id": "2",
          "score": {
            "stars": 0,
            "votes": 0,
            "dist": {
              "1": 0,
              "2": 0,
              "3": 0,
              "4": 0,
              "5": 0
            }
          }
        },
        {
          "type": "item",
          "title": "Budweiser",
          "desc": "33 cl",
          "price": "7,00",
          "cover": "",
          "id": "3",
          "score": {
            "stars": 0,
            "votes": 0,
            "dist": {
              "1": 0,
              "2": 0,
              "3": 0,
              "4": 0,
              "5": 0
            }
          }
        },
        {
          "type": "item",
          "title": "Corona",
          "desc": "33 cl",
          "price": "7,00",
          "cover": "",
          "id": "4",
          "score": {
            "stars": 0,
            "votes": 0,
            "dist": {
              "1": 0,
              "2": 0,
              "3": 0,
              "4": 0,
              "5": 0
            }
          }
        },
        {
          "type": "item",
          "title": "Abbaye de Grimbergen",
          "desc": "33 cl",
          "price": "6,60",
          "cover": "",
          "id": "5",
          "score": {
            "stars": 0,
            "votes": 0,
            "dist": {
              "1": 0,
              "2": 0,
              "3": 0,
              "4": 0,
              "5": 0
            }
          }
        },
        {
          "type": "item",
          "title": "Bière Blanche Grimbergen",
          "desc": "33 cl",
          "price": "6,60",
          "cover": "",
          "id": "6",
          "score": {
            "stars": 0,
            "votes": 0,
            "dist": {
              "1": 0,
              "2": 0,
              "3": 0,
              "4": 0,
              "5": 0
            }
          }
        },
        {
          "type": "item",
          "title": "Bière sans alcool",
          "desc": "25 cl",
          "price": "4,70",
          "cover": "",
          "id": "7",
          "score": {
            "stars": 0,
            "votes": 0,
            "dist": {
              "1": 0,
              "2": 0,
              "3": 0,
              "4": 0,
              "5": 0
            }
          }
        }
      ]
    },
    {
      "id": "16",
      "title": "EAUX MINERALES",
      "desc": "",
      "items": [
        {
          "type": "subcategory",
          "title": "1l à 6€",
          "desc": "4"
        },
        {
          "type": "item",
          "title": "Perrier fines bulles (1/2l)",
          "desc": "1l à 6€",
          "price": "4",
          "cover": "",
          "id": "0",
          "score": {
            "stars": 0,
            "votes": 0,
            "dist": {
              "1": 0,
              "2": 0,
              "3": 0,
              "4": 0,
              "5": 0
            }
          }
        },
        {
          "type": "item",
          "title": "Perrier (33cl)",
          "desc": "",
          "price": "3,8",
          "cover": "",
          "id": "1",
          "score": {
            "stars": 0,
            "votes": 0,
            "dist": {
              "1": 0,
              "2": 0,
              "3": 0,
              "4": 0,
              "5": 0
            }
          }
        }
      ]
    }
  ]
}
