{
  "pages": [
    {
      "id": "0",
      "title": "PIZZi",
      "desc": "Home made La nostra pizza è a mezzaluna La nostra pasta è fatta in casa e cotta su un fuoco di legna",
      "items": [
        {
          "type": "item",
          "title": "margherita",
          "desc": "Formaggio, pomodoro, origano",
          "price": "11,90",
          "cover": "",
          "id": "0",
          "score": {
            "stars": 0,
            "votes": 0,
            "dist": {
              "1": 0,
              "2": 0,
              "3": 0,
              "4": 0,
              "5": 0
            }
          }
        },
        {
          "type": "item",
          "title": "napoletano",
          "desc": "Formaggio, pomodoro, acciughe, olive, origano",
          "price": "$ 12,40",
          "cover": "",
          "id": "1",
          "score": {
            "stars": 0,
            "votes": 0,
            "dist": {
              "1": 0,
              "2": 0,
              "3": 0,
              "4": 0,
              "5": 0
            }
          }
        },
        {
          "type": "item",
          "title": "regina",
          "desc": "Formaggio, pomodoro, spalla cotta, funghi, origano",
          "price": "$ 13,40",
          "cover": "",
          "id": "2",
          "score": {
            "stars": 0,
            "votes": 0,
            "dist": {
              "1": 0,
              "2": 0,
              "3": 0,
              "4": 0,
              "5": 0
            }
          }
        },
        {
          "type": "item",
          "title": "melanzana",
          "desc": "Formaggio, pomodoro, melanzane, aglio, prezzemolo, origano",
          "price": "$ 13,70",
          "cover": "",
          "id": "3",
          "score": {
            "stars": 0,
            "votes": 0,
            "dist": {
              "1": 0,
              "2": 0,
              "3": 0,
              "4": 0,
              "5": 0
            }
          }
        },
        {
          "type": "item",
          "title": "peperoni",
          "desc": "Formaggio, pomodoro, salsiccia piccante, origano",
          "price": "$ 13,40",
          "cover": "",
          "id": "4",
          "score": {
            "stars": 0,
            "votes": 0,
            "dist": {
              "1": 0,
              "2": 0,
              "3": 0,
              "4": 0,
              "5": 0
            }
          }
        },
        {
          "type": "item",
          "title": "Quattro formaggi",
          "desc": "Formaggi assortiti, pomodoro, origano",
          "price": "14,5",
          "cover": "",
          "id": "5",
          "score": {
            "stars": 0,
            "votes": 0,
            "dist": {
              "1": 0,
              "2": 0,
              "3": 0,
              "4": 0,
              "5": 0
            }
          }
        },
        {
          "type": "item",
          "title": "Marinara",
          "desc": "Pomodoro, aglio, prezzemolo, origano",
          "price": "9,90",
          "cover": "",
          "id": "6",
          "score": {
            "stars": 0,
            "votes": 0,
            "dist": {
              "1": 0,
              "2": 0,
              "3": 0,
              "4": 0,
              "5": 0
            }
          }
        },
        {
          "type": "item",
          "title": "cipolla",
          "desc": "Formaggio, pomodoro, cipolle, origano",
          "price": "11,90",
          "cover": "",
          "id": "7",
          "score": {
            "stars": 0,
            "votes": 0,
            "dist": {
              "1": 0,
              "2": 0,
              "3": 0,
              "4": 0,
              "5": 0
            }
          }
        },
        {
          "type": "item",
          "title": "siciliano",
          "desc": "Pomodoro, acciughe, capperi, olive, origano",
          "price": "10,90",
          "cover": "",
          "id": "8",
          "score": {
            "stars": 0,
            "votes": 0,
            "dist": {
              "1": 0,
              "2": 0,
              "3": 0,
              "4": 0,
              "5": 0
            }
          }
        },
        {
          "type": "item",
          "title": "cannibale",
          "desc": "Formaggio, pomodoro, cipolle, carne macinata, origano, uovo, aglio, prezzemolo",
          "price": "$ 15,70",
          "cover": "",
          "id": "9",
          "score": {
            "stars": 0,
            "votes": 0,
            "dist": {
              "1": 0,
              "2": 0,
              "3": 0,
              "4": 0,
              "5": 0
            }
          }
        },
        {
          "type": "item",
          "title": "Nettuno",
          "desc": "Pomodoro, tonno, origano",
          "price": "13,50",
          "cover": "",
          "id": "10",
          "score": {
            "stars": 0,
            "votes": 0,
            "dist": {
              "1": 0,
              "2": 0,
              "3": 0,
              "4": 0,
              "5": 0
            }
          }
        },
        {
          "type": "item",
          "title": "Cozze",
          "desc": "Pomodoro, cozze, aglio, prezzemolo, origano",
          "price": "$ 14,20",
          "cover": "",
          "id": "11",
          "score": {
            "stars": 0,
            "votes": 0,
            "dist": {
              "1": 0,
              "2": 0,
              "3": 0,
              "4": 0,
              "5": 0
            }
          }
        },
        {
          "type": "item",
          "title": "focaccia",
          "desc": "",
          "price": "7,40",
          "cover": "",
          "id": "12",
          "score": {
            "stars": 0,
            "votes": 0,
            "dist": {
              "1": 0,
              "2": 0,
              "3": 0,
              "4": 0,
              "5": 0
            }
          }
        },
        {
          "type": "subcategory",
          "title": "integratori",
          "desc": "La nostra pizza può essere servita con supplementi"
        },
        {
          "type": "item",
          "title": "Cozze, tonno o carne macinata",
          "desc": "",
          "price": "3,60",
          "cover": "",
          "id": "13",
          "score": {
            "stars": 0,
            "votes": 0,
            "dist": {
              "1": 0,
              "2": 0,
              "3": 0,
              "4": 0,
              "5": 0
            }
          }
        },
        {
          "type": "item",
          "title": "Uovo o altro",
          "desc": "",
          "price": "1,60",
          "cover": "",
          "id": "14",
          "score": {
            "stars": 0,
            "votes": 0,
            "dist": {
              "1": 0,
              "2": 0,
              "3": 0,
              "4": 0,
              "5": 0
            }
          }
        }
      ]
    },
    {
      "id": "1",
      "title": "ANTIPASTI E ISCRIZIONI",
      "desc": "CASALINGO",
      "items": [
        {
          "type": "item",
          "title": "Nachos, Cheddar e Jalapenos",
          "desc": "",
          "price": "7,50",
          "cover": "",
          "id": "0",
          "score": {
            "stars": 0,
            "votes": 0,
            "dist": {
              "1": 0,
              "2": 0,
              "3": 0,
              "4": 0,
              "5": 0
            }
          }
        },
        {
          "type": "item",
          "title": "Plancha de Tapas",
          "desc": "",
          "price": "12,50",
          "cover": "",
          "id": "1",
          "score": {
            "stars": 0,
            "votes": 0,
            "dist": {
              "1": 0,
              "2": 0,
              "3": 0,
              "4": 0,
              "5": 0
            }
          }
        },
        {
          "type": "item",
          "title": "Lumache (6)",
          "desc": "",
          "price": "9,90",
          "cover": "",
          "id": "2",
          "score": {
            "stars": 0,
            "votes": 0,
            "dist": {
              "1": 0,
              "2": 0,
              "3": 0,
              "4": 0,
              "5": 0
            }
          }
        },
        {
          "type": "item",
          "title": "Lumache (i 12)",
          "desc": "",
          "price": "17,5",
          "cover": "",
          "id": "3",
          "score": {
            "stars": 0,
            "votes": 0,
            "dist": {
              "1": 0,
              "2": 0,
              "3": 0,
              "4": 0,
              "5": 0
            }
          }
        },
        {
          "type": "item",
          "title": "Zuppa di cipolle gratinata",
          "desc": "",
          "price": "11,8",
          "cover": "",
          "id": "4",
          "score": {
            "stars": 0,
            "votes": 0,
            "dist": {
              "1": 0,
              "2": 0,
              "3": 0,
              "4": 0,
              "5": 0
            }
          }
        }
      ]
    },
    {
      "id": "2",
      "title": "INSALATE",
      "desc": "CASALINGO",
      "items": [
        {
          "type": "item",
          "title": "Insalata di stagione",
          "desc": "",
          "price": "6,40",
          "cover": "",
          "id": "0",
          "score": {
            "stars": 0,
            "votes": 0,
            "dist": {
              "1": 0,
              "2": 0,
              "3": 0,
              "4": 0,
              "5": 0
            }
          }
        },
        {
          "type": "item",
          "title": "Insalata di pomodori",
          "desc": "",
          "price": "7,10",
          "cover": "",
          "id": "1",
          "score": {
            "stars": 0,
            "votes": 0,
            "dist": {
              "1": 0,
              "2": 0,
              "3": 0,
              "4": 0,
              "5": 0
            }
          }
        },
        {
          "type": "item",
          "title": "Insalata mista",
          "desc": "",
          "price": "7,10",
          "cover": "",
          "id": "2",
          "score": {
            "stars": 0,
            "votes": 0,
            "dist": {
              "1": 0,
              "2": 0,
              "3": 0,
              "4": 0,
              "5": 0
            }
          }
        },
        {
          "type": "item",
          "title": "Insalata di capra piccante",
          "desc": "",
          "price": "14,10",
          "cover": "",
          "id": "3",
          "score": {
            "stars": 0,
            "votes": 0,
            "dist": {
              "1": 0,
              "2": 0,
              "3": 0,
              "4": 0,
              "5": 0
            }
          }
        },
        {
          "type": "item",
          "title": "Pomodori mozzarella",
          "desc": "",
          "price": "$ 13,10",
          "cover": "",
          "id": "4",
          "score": {
            "stars": 0,
            "votes": 0,
            "dist": {
              "1": 0,
              "2": 0,
              "3": 0,
              "4": 0,
              "5": 0
            }
          }
        },
        {
          "type": "item",
          "title": "Insalata nizzarda",
          "desc": "",
          "price": "14,10",
          "cover": "",
          "id": "5",
          "score": {
            "stars": 0,
            "votes": 0,
            "dist": {
              "1": 0,
              "2": 0,
              "3": 0,
              "4": 0,
              "5": 0
            }
          }
        },
        {
          "type": "item",
          "title": "Insalata di fegati di pollame",
          "desc": "",
          "price": "14,10",
          "cover": "",
          "id": "6",
          "score": {
            "stars": 0,
            "votes": 0,
            "dist": {
              "1": 0,
              "2": 0,
              "3": 0,
              "4": 0,
              "5": 0
            }
          }
        },
        {
          "type": "item",
          "title": "Insalata messicana",
          "desc": "",
          "price": "14,10",
          "cover": "",
          "id": "7",
          "score": {
            "stars": 0,
            "votes": 0,
            "dist": {
              "1": 0,
              "2": 0,
              "3": 0,
              "4": 0,
              "5": 0
            }
          }
        },
        {
          "type": "item",
          "title": "Insalata Caesar con pollo",
          "desc": "",
          "price": "14,10",
          "cover": "",
          "id": "8",
          "score": {
            "stars": 0,
            "votes": 0,
            "dist": {
              "1": 0,
              "2": 0,
              "3": 0,
              "4": 0,
              "5": 0
            }
          }
        }
      ]
    },
    {
      "id": "3",
      "title": "OMELETTES",
      "desc": "CASALINGO",
      "items": [
        {
          "type": "item",
          "title": "Frittata alle erbe",
          "desc": "",
          "price": "11,50",
          "cover": "",
          "id": "0",
          "score": {
            "stars": 0,
            "votes": 0,
            "dist": {
              "1": 0,
              "2": 0,
              "3": 0,
              "4": 0,
              "5": 0
            }
          }
        },
        {
          "type": "item",
          "title": "Frittata ai funghi",
          "desc": "",
          "price": "12,50",
          "cover": "",
          "id": "1",
          "score": {
            "stars": 0,
            "votes": 0,
            "dist": {
              "1": 0,
              "2": 0,
              "3": 0,
              "4": 0,
              "5": 0
            }
          }
        },
        {
          "type": "item",
          "title": "Regina frittata",
          "desc": "",
          "price": "$ 13,60",
          "cover": "",
          "id": "2",
          "score": {
            "stars": 0,
            "votes": 0,
            "dist": {
              "1": 0,
              "2": 0,
              "3": 0,
              "4": 0,
              "5": 0
            }
          }
        }
      ]
    },
    {
      "id": "4",
      "title": "SPECIALITÀ USA",
      "desc": "CASALINGO",
      "items": [
        {
          "type": "item",
          "title": "Poutine della Quebec con pollo",
          "desc": "",
          "price": "14,00",
          "cover": "",
          "id": "0",
          "score": {
            "stars": 0,
            "votes": 0,
            "dist": {
              "1": 0,
              "2": 0,
              "3": 0,
              "4": 0,
              "5": 0
            }
          }
        },
        {
          "type": "item",
          "title": "Croce di maiale canadese",
          "desc": "",
          "price": "19,70",
          "cover": "",
          "id": "1",
          "score": {
            "stars": 0,
            "votes": 0,
            "dist": {
              "1": 0,
              "2": 0,
              "3": 0,
              "4": 0,
              "5": 0
            }
          }
        },
        {
          "type": "item",
          "title": "Cotolette di pollo in stile cajun",
          "desc": "",
          "price": "15,90",
          "cover": "",
          "id": "2",
          "score": {
            "stars": 0,
            "votes": 0,
            "dist": {
              "1": 0,
              "2": 0,
              "3": 0,
              "4": 0,
              "5": 0
            }
          }
        },
        {
          "type": "item",
          "title": "Fajitas di pollo",
          "desc": "",
          "price": "19,70",
          "cover": "",
          "id": "3",
          "score": {
            "stars": 0,
            "votes": 0,
            "dist": {
              "1": 0,
              "2": 0,
              "3": 0,
              "4": 0,
              "5": 0
            }
          }
        }
      ]
    },
    {
      "id": "5",
      "title": "CASA DI STEAK",
      "desc": "Home made I nostri piatti sono guarniti I nostri tartari possono essere affogati",
      "items": [
        {
          "type": "item",
          "title": "Bistecca di manzo alla griglia",
          "desc": "",
          "price": "$ 19,50",
          "cover": "",
          "id": "0",
          "score": {
            "stars": 0,
            "votes": 0,
            "dist": {
              "1": 0,
              "2": 0,
              "3": 0,
              "4": 0,
              "5": 0
            }
          }
        },
        {
          "type": "item",
          "title": "Entrecote alla griglia",
          "desc": "",
          "price": "$ 25,20",
          "cover": "",
          "id": "1",
          "score": {
            "stars": 0,
            "votes": 0,
            "dist": {
              "1": 0,
              "2": 0,
              "3": 0,
              "4": 0,
              "5": 0
            }
          }
        },
        {
          "type": "item",
          "title": "Bavette allo scalogno",
          "desc": "",
          "price": "21,00",
          "cover": "",
          "id": "2",
          "score": {
            "stars": 0,
            "votes": 0,
            "dist": {
              "1": 0,
              "2": 0,
              "3": 0,
              "4": 0,
              "5": 0
            }
          }
        },
        {
          "type": "item",
          "title": "Filetto di manzo alla griglia",
          "desc": "",
          "price": "$ 27,40",
          "cover": "",
          "id": "3",
          "score": {
            "stars": 0,
            "votes": 0,
            "dist": {
              "1": 0,
              "2": 0,
              "3": 0,
              "4": 0,
              "5": 0
            }
          }
        },
        {
          "type": "item",
          "title": "Costata di manzo 500gr",
          "desc": "",
          "price": "28,50",
          "cover": "",
          "id": "4",
          "score": {
            "stars": 0,
            "votes": 0,
            "dist": {
              "1": 0,
              "2": 0,
              "3": 0,
              "4": 0,
              "5": 0
            }
          }
        },
        {
          "type": "item",
          "title": "1/4 di pollo alla griglia",
          "desc": "",
          "price": "11,30",
          "cover": "",
          "id": "5",
          "score": {
            "stars": 0,
            "votes": 0,
            "dist": {
              "1": 0,
              "2": 0,
              "3": 0,
              "4": 0,
              "5": 0
            }
          }
        },
        {
          "type": "item",
          "title": "1/2 pollo arrostito dell'azienda agricola",
          "desc": "",
          "price": "$ 19,50",
          "cover": "",
          "id": "6",
          "score": {
            "stars": 0,
            "votes": 0,
            "dist": {
              "1": 0,
              "2": 0,
              "3": 0,
              "4": 0,
              "5": 0
            }
          }
        },
        {
          "type": "item",
          "title": "Steak Tartare (Small 150g)",
          "desc": "",
          "price": "16,90",
          "cover": "",
          "id": "7",
          "score": {
            "stars": 0,
            "votes": 0,
            "dist": {
              "1": 0,
              "2": 0,
              "3": 0,
              "4": 0,
              "5": 0
            }
          }
        },
        {
          "type": "item",
          "title": " Steak Tartare (Large 250gr)",
          "desc": "",
          "price": "24,70",
          "cover": "",
          "id": "8",
          "score": {
            "stars": 0,
            "votes": 0,
            "dist": {
              "1": 0,
              "2": 0,
              "3": 0,
              "4": 0,
              "5": 0
            }
          }
        },
        {
          "type": "item",
          "title": "SALSE CON SCELTE",
          "desc": "BBQ, pepe, roquefort, cajun o bernese",
          "price": "1,90",
          "cover": "",
          "id": "9",
          "score": {
            "stars": 0,
            "votes": 0,
            "dist": {
              "1": 0,
              "2": 0,
              "3": 0,
              "4": 0,
              "5": 0
            }
          }
        },
        {
          "type": "subcategory",
          "title": "tagliare",
          "desc": "Patate dolci fritte / fagiolini Patate fritte / Patate al forno / Burro di riso"
        },
        {
          "type": "item",
          "title": "piccolo",
          "desc": "",
          "price": "3,90",
          "cover": "",
          "id": "10",
          "score": {
            "stars": 0,
            "votes": 0,
            "dist": {
              "1": 0,
              "2": 0,
              "3": 0,
              "4": 0,
              "5": 0
            }
          }
        },
        {
          "type": "item",
          "title": "largo",
          "desc": "",
          "price": "7,40",
          "cover": "",
          "id": "11",
          "score": {
            "stars": 0,
            "votes": 0,
            "dist": {
              "1": 0,
              "2": 0,
              "3": 0,
              "4": 0,
              "5": 0
            }
          }
        }
      ]
    },
    {
      "id": "6",
      "title": "HAMBURGER",
      "desc": "Home made I nostri piatti sono guarniti I nostri hamburger sono fatti con carne fresca",
      "items": [
        {
          "type": "item",
          "title": "Hamburger semplice",
          "desc": "",
          "price": "$ 12,80",
          "cover": "",
          "id": "0",
          "score": {
            "stars": 0,
            "votes": 0,
            "dist": {
              "1": 0,
              "2": 0,
              "3": 0,
              "4": 0,
              "5": 0
            }
          }
        },
        {
          "type": "item",
          "title": "Hamburger Québec Beef 150gr, pancetta, formaggio, uova",
          "desc": "",
          "price": "16,90",
          "cover": "",
          "id": "1",
          "score": {
            "stars": 0,
            "votes": 0,
            "dist": {
              "1": 0,
              "2": 0,
              "3": 0,
              "4": 0,
              "5": 0
            }
          }
        },
        {
          "type": "item",
          "title": "Double Burger Quebec Beef 300gr",
          "desc": "",
          "price": "$ 24,20",
          "cover": "",
          "id": "2",
          "score": {
            "stars": 0,
            "votes": 0,
            "dist": {
              "1": 0,
              "2": 0,
              "3": 0,
              "4": 0,
              "5": 0
            }
          }
        },
        {
          "type": "item",
          "title": "Hamburger Il nostro hamburger di manzo preferito 150gr",
          "desc": "",
          "price": "15,90",
          "cover": "",
          "id": "3",
          "score": {
            "stars": 0,
            "votes": 0,
            "dist": {
              "1": 0,
              "2": 0,
              "3": 0,
              "4": 0,
              "5": 0
            }
          }
        },
        {
          "type": "item",
          "title": "Chicken Burger Filetto di pollo, salsa Cajun",
          "desc": "",
          "price": "14,90",
          "cover": "",
          "id": "4",
          "score": {
            "stars": 0,
            "votes": 0,
            "dist": {
              "1": 0,
              "2": 0,
              "3": 0,
              "4": 0,
              "5": 0
            }
          }
        },
        {
          "type": "item",
          "title": "Duo di hamburger",
          "desc": "",
          "price": "16,90",
          "cover": "",
          "id": "5",
          "score": {
            "stars": 0,
            "votes": 0,
            "dist": {
              "1": 0,
              "2": 0,
              "3": 0,
              "4": 0,
              "5": 0
            }
          }
        },
        {
          "type": "item",
          "title": "TOPPINGS",
          "desc": "Guacamole, formaggio, uova o pancetta",
          "price": "1,60",
          "cover": "",
          "id": "6",
          "score": {
            "stars": 0,
            "votes": 0,
            "dist": {
              "1": 0,
              "2": 0,
              "3": 0,
              "4": 0,
              "5": 0
            }
          }
        }
      ]
    },
    {
      "id": "7",
      "title": "PASTA",
      "desc": "Home made Spaghetti o penne",
      "items": [
        {
          "type": "item",
          "title": "napoletano",
          "desc": "",
          "price": "10,50",
          "cover": "",
          "id": "0",
          "score": {
            "stars": 0,
            "votes": 0,
            "dist": {
              "1": 0,
              "2": 0,
              "3": 0,
              "4": 0,
              "5": 0
            }
          }
        },
        {
          "type": "item",
          "title": "bolognese",
          "desc": "",
          "price": "14,30",
          "cover": "",
          "id": "1",
          "score": {
            "stars": 0,
            "votes": 0,
            "dist": {
              "1": 0,
              "2": 0,
              "3": 0,
              "4": 0,
              "5": 0
            }
          }
        },
        {
          "type": "item",
          "title": "carbonara",
          "desc": "",
          "price": "14,30",
          "cover": "",
          "id": "2",
          "score": {
            "stars": 0,
            "votes": 0,
            "dist": {
              "1": 0,
              "2": 0,
              "3": 0,
              "4": 0,
              "5": 0
            }
          }
        },
        {
          "type": "item",
          "title": "salmone",
          "desc": "",
          "price": "15,30",
          "cover": "",
          "id": "3",
          "score": {
            "stars": 0,
            "votes": 0,
            "dist": {
              "1": 0,
              "2": 0,
              "3": 0,
              "4": 0,
              "5": 0
            }
          }
        },
        {
          "type": "item",
          "title": "Lasagne al forno",
          "desc": "",
          "price": "$ 16,40",
          "cover": "",
          "id": "4",
          "score": {
            "stars": 0,
            "votes": 0,
            "dist": {
              "1": 0,
              "2": 0,
              "3": 0,
              "4": 0,
              "5": 0
            }
          }
        }
      ]
    },
    {
      "id": "8",
      "title": "DOLCI",
      "desc": "CASALINGO",
      "items": [
        {
          "type": "item",
          "title": "Creme brulee",
          "desc": "",
          "price": "7,90",
          "cover": "",
          "id": "0",
          "score": {
            "stars": 0,
            "votes": 0,
            "dist": {
              "1": 0,
              "2": 0,
              "3": 0,
              "4": 0,
              "5": 0
            }
          }
        },
        {
          "type": "item",
          "title": "Biscotto al cioccolato",
          "desc": "",
          "price": "7,90",
          "cover": "",
          "id": "1",
          "score": {
            "stars": 0,
            "votes": 0,
            "dist": {
              "1": 0,
              "2": 0,
              "3": 0,
              "4": 0,
              "5": 0
            }
          }
        },
        {
          "type": "item",
          "title": "Torta di formaggio",
          "desc": "",
          "price": "7,90",
          "cover": "",
          "id": "2",
          "score": {
            "stars": 0,
            "votes": 0,
            "dist": {
              "1": 0,
              "2": 0,
              "3": 0,
              "4": 0,
              "5": 0
            }
          }
        },
        {
          "type": "item",
          "title": "Isola galleggiante e sua crema pasticcera",
          "desc": "",
          "price": "7,90",
          "cover": "",
          "id": "3",
          "score": {
            "stars": 0,
            "votes": 0,
            "dist": {
              "1": 0,
              "2": 0,
              "3": 0,
              "4": 0,
              "5": 0
            }
          }
        },
        {
          "type": "item",
          "title": "Crema di Chantilly Brown",
          "desc": "",
          "price": "7,90",
          "cover": "",
          "id": "4",
          "score": {
            "stars": 0,
            "votes": 0,
            "dist": {
              "1": 0,
              "2": 0,
              "3": 0,
              "4": 0,
              "5": 0
            }
          }
        },
        {
          "type": "item",
          "title": "Ananas fresco",
          "desc": "",
          "price": "8,40",
          "cover": "",
          "id": "5",
          "score": {
            "stars": 0,
            "votes": 0,
            "dist": {
              "1": 0,
              "2": 0,
              "3": 0,
              "4": 0,
              "5": 0
            }
          }
        },
        {
          "type": "item",
          "title": "Torta di mele calda",
          "desc": "",
          "price": "9,10",
          "cover": "",
          "id": "6",
          "score": {
            "stars": 0,
            "votes": 0,
            "dist": {
              "1": 0,
              "2": 0,
              "3": 0,
              "4": 0,
              "5": 0
            }
          }
        },
        {
          "type": "subcategory",
          "title": "WAFFLES",
          "desc": "CASALINGO"
        },
        {
          "type": "item",
          "title": "Waffle negli Stati Uniti",
          "desc": "Scelta di supplementi nella parte inferiore della pagina",
          "price": "4,20",
          "cover": "",
          "id": "7",
          "score": {
            "stars": 0,
            "votes": 0,
            "dist": {
              "1": 0,
              "2": 0,
              "3": 0,
              "4": 0,
              "5": 0
            }
          }
        },
        {
          "type": "subcategory",
          "title": "GHIACCIO ARTIGIANALE",
          "desc": "dal nostro Artisan, Master Glacier, Snow Azure"
        },
        {
          "type": "item",
          "title": "Taglio semplice",
          "desc": "2 palle tra cui scegliere - Gelato: vaniglia, caffè, cioccolato, pistacchio, malaga, fiore di latte, nocciola Sorbetti: ribes nero, limone, cocco, fragola, pera",
          "price": "7,40",
          "cover": "",
          "id": "8",
          "score": {
            "stars": 0,
            "votes": 0,
            "dist": {
              "1": 0,
              "2": 0,
              "3": 0,
              "4": 0,
              "5": 0
            }
          }
        },
        {
          "type": "item",
          "title": "Caramello Sundae",
          "desc": "",
          "price": "7,90",
          "cover": "",
          "id": "9",
          "score": {
            "stars": 0,
            "votes": 0,
            "dist": {
              "1": 0,
              "2": 0,
              "3": 0,
              "4": 0,
              "5": 0
            }
          }
        },
        {
          "type": "item",
          "title": "Liegi caffè o cioccolato",
          "desc": "",
          "price": "9,80",
          "cover": "",
          "id": "10",
          "score": {
            "stars": 0,
            "votes": 0,
            "dist": {
              "1": 0,
              "2": 0,
              "3": 0,
              "4": 0,
              "5": 0
            }
          }
        },
        {
          "type": "item",
          "title": "White Lady",
          "desc": "Gelato alla vaniglia, cioccolata calda, panna montata e mandorle",
          "price": "9,80",
          "cover": "",
          "id": "11",
          "score": {
            "stars": 0,
            "votes": 0,
            "dist": {
              "1": 0,
              "2": 0,
              "3": 0,
              "4": 0,
              "5": 0
            }
          }
        },
        {
          "type": "item",
          "title": "Cherry Cup",
          "desc": "Gelato alla pralina e al pistacchio, ciliegie, panna montata",
          "price": "10,30",
          "cover": "",
          "id": "12",
          "score": {
            "stars": 0,
            "votes": 0,
            "dist": {
              "1": 0,
              "2": 0,
              "3": 0,
              "4": 0,
              "5": 0
            }
          }
        },
        {
          "type": "item",
          "title": "Coppa del ghiaccio",
          "desc": "Gelato alla vaniglia, crema di castagne, panna montata e mandorle",
          "price": "9,80",
          "cover": "",
          "id": "13",
          "score": {
            "stars": 0,
            "votes": 0,
            "dist": {
              "1": 0,
              "2": 0,
              "3": 0,
              "4": 0,
              "5": 0
            }
          }
        },
        {
          "type": "item",
          "title": "Colonel Cup",
          "desc": "Sorbetto al limone, vodka",
          "price": "10,30",
          "cover": "",
          "id": "14",
          "score": {
            "stars": 0,
            "votes": 0,
            "dist": {
              "1": 0,
              "2": 0,
              "3": 0,
              "4": 0,
              "5": 0
            }
          }
        },
        {
          "type": "item",
          "title": "Coppa Moskova",
          "desc": "Sorbetto al ribes nero, vodka",
          "price": "10,30",
          "cover": "",
          "id": "15",
          "score": {
            "stars": 0,
            "votes": 0,
            "dist": {
              "1": 0,
              "2": 0,
              "3": 0,
              "4": 0,
              "5": 0
            }
          }
        },
        {
          "type": "item",
          "title": "Profiteroles al cioccolato fatti in casa",
          "desc": "",
          "price": "10,30",
          "cover": "",
          "id": "16",
          "score": {
            "stars": 0,
            "votes": 0,
            "dist": {
              "1": 0,
              "2": 0,
              "3": 0,
              "4": 0,
              "5": 0
            }
          }
        },
        {
          "type": "subcategory",
          "title": "TOPPINGS",
          "desc": ""
        },
        {
          "type": "item",
          "title": "Chantilly, cioccolata calda o caramello",
          "desc": "",
          "price": "1,10",
          "cover": "",
          "id": "17",
          "score": {
            "stars": 0,
            "votes": 0,
            "dist": {
              "1": 0,
              "2": 0,
              "3": 0,
              "4": 0,
              "5": 0
            }
          }
        },
        {
          "type": "item",
          "title": "Sciroppo d'acero, gelato o crema di castagne",
          "desc": "",
          "price": "1,70",
          "cover": "",
          "id": "18",
          "score": {
            "stars": 0,
            "votes": 0,
            "dist": {
              "1": 0,
              "2": 0,
              "3": 0,
              "4": 0,
              "5": 0
            }
          }
        }
      ]
    },
    {
      "id": "9",
      "title": "FISH",
      "desc": "Home made I nostri piatti sono guarniti",
      "items": [
        {
          "type": "item",
          "title": "Pesce e patatine",
          "desc": "",
          "price": "$ 19,50",
          "cover": "",
          "id": "0",
          "score": {
            "stars": 0,
            "votes": 0,
            "dist": {
              "1": 0,
              "2": 0,
              "3": 0,
              "4": 0,
              "5": 0
            }
          }
        },
        {
          "type": "item",
          "title": "Salmone alla griglia con salmone alla griglia",
          "desc": "",
          "price": "18,50",
          "cover": "",
          "id": "1",
          "score": {
            "stars": 0,
            "votes": 0,
            "dist": {
              "1": 0,
              "2": 0,
              "3": 0,
              "4": 0,
              "5": 0
            }
          }
        },
        {
          "type": "item",
          "title": "Cozze Marinière (secondo la stagione)",
          "desc": "",
          "price": "15,90",
          "cover": "",
          "id": "2",
          "score": {
            "stars": 0,
            "votes": 0,
            "dist": {
              "1": 0,
              "2": 0,
              "3": 0,
              "4": 0,
              "5": 0
            }
          }
        },
        {
          "type": "item",
          "title": "Cozze di pollo (a seconda della stagione)",
          "desc": "",
          "price": "15,90",
          "cover": "",
          "id": "3",
          "score": {
            "stars": 0,
            "votes": 0,
            "dist": {
              "1": 0,
              "2": 0,
              "3": 0,
              "4": 0,
              "5": 0
            }
          }
        }
      ]
    },
    {
      "id": "10",
      "title": "FORMAGGIO",
      "desc": "",
      "items": [
        {
          "type": "item",
          "title": "Roquefort o capra ...",
          "desc": "",
          "price": "8,40",
          "cover": "",
          "id": "0",
          "score": {
            "stars": 0,
            "votes": 0,
            "dist": {
              "1": 0,
              "2": 0,
              "3": 0,
              "4": 0,
              "5": 0
            }
          }
        },
        {
          "type": "item",
          "title": "Duo di formaggi",
          "desc": "",
          "price": "11,50",
          "cover": "",
          "id": "1",
          "score": {
            "stars": 0,
            "votes": 0,
            "dist": {
              "1": 0,
              "2": 0,
              "3": 0,
              "4": 0,
              "5": 0
            }
          }
        }
      ]
    },
    {
      "id": "11",
      "title": "VINI",
      "desc": "",
      "items": [
        {
          "type": "subcategory",
          "title": "Côtes de Provence",
          "desc": ""
        },
        {
          "type": "item",
          "title": "VINO DI CRESCI (75cl)",
          "desc": "Rosso, rosé Da 37,5 a 10,30 €",
          "price": "18,6",
          "cover": "",
          "id": "0",
          "score": {
            "stars": 0,
            "votes": 0,
            "dist": {
              "1": 0,
              "2": 0,
              "3": 0,
              "4": 0,
              "5": 0
            }
          }
        },
        {
          "type": "item",
          "title": "LAND NOBLES (50cl)",
          "desc": "Rosso, Rosé, Bianco",
          "price": "17,60",
          "cover": "",
          "id": "1",
          "score": {
            "stars": 0,
            "votes": 0,
            "dist": {
              "1": 0,
              "2": 0,
              "3": 0,
              "4": 0,
              "5": 0
            }
          }
        },
        {
          "type": "item",
          "title": "MINUTY PRESTIGE (1,5l)",
          "desc": "Rosso, rosé 75cl a 37,00 €, 50cl a 24,50 €",
          "price": "68,00",
          "cover": "",
          "id": "2",
          "score": {
            "stars": 0,
            "votes": 0,
            "dist": {
              "1": 0,
              "2": 0,
              "3": 0,
              "4": 0,
              "5": 0
            }
          }
        },
        {
          "type": "subcategory",
          "title": "Valle del Rodano",
          "desc": ""
        },
        {
          "type": "item",
          "title": "THE MAGERANS (75cl)",
          "desc": "Côtes du Rhône Da 37,5 a 14,6 €",
          "price": "25,5",
          "cover": "",
          "id": "3",
          "score": {
            "stars": 0,
            "votes": 0,
            "dist": {
              "1": 0,
              "2": 0,
              "3": 0,
              "4": 0,
              "5": 0
            }
          }
        },
        {
          "type": "item",
          "title": "PIERRE AMADIEU (75cl)",
          "desc": " Chateauneuf-du-Pape",
          "price": "56,00",
          "cover": "",
          "id": "4",
          "score": {
            "stars": 0,
            "votes": 0,
            "dist": {
              "1": 0,
              "2": 0,
              "3": 0,
              "4": 0,
              "5": 0
            }
          }
        },
        {
          "type": "subcategory",
          "title": "Beaujolais",
          "desc": ""
        },
        {
          "type": "item",
          "title": "DOMAINE OF OAK WOOD (75cl)",
          "desc": "Villaggi del Beaujolais Da 37,5 a 14,6 €",
          "price": "25,5",
          "cover": "",
          "id": "5",
          "score": {
            "stars": 0,
            "votes": 0,
            "dist": {
              "1": 0,
              "2": 0,
              "3": 0,
              "4": 0,
              "5": 0
            }
          }
        }
      ]
    },
    {
      "id": "12",
      "title": "bordò",
      "desc": "",
      "items": [
        {
          "type": "subcategory",
          "title": "Saint-Emilion Da 37,5 a 19,6 €",
          "desc": "36,5"
        },
        {
          "type": "item",
          "title": "CHATEAU OLD CARDINAL LAFAURIE (75cl)",
          "desc": "Lalande Pomerol",
          "price": "47,00",
          "cover": "",
          "id": "0",
          "score": {
            "stars": 0,
            "votes": 0,
            "dist": {
              "1": 0,
              "2": 0,
              "3": 0,
              "4": 0,
              "5": 0
            }
          }
        },
        {
          "type": "subcategory",
          "title": "Italia",
          "desc": ""
        },
        {
          "type": "item",
          "title": "CHIANTI RUFFINO (75cl)",
          "desc": "Rosso 37,5cl a 16,8 €",
          "price": "28,00",
          "cover": "",
          "id": "1",
          "score": {
            "stars": 0,
            "votes": 0,
            "dist": {
              "1": 0,
              "2": 0,
              "3": 0,
              "4": 0,
              "5": 0
            }
          }
        },
        {
          "type": "subcategory",
          "title": "America",
          "desc": ""
        },
        {
          "type": "item",
          "title": "GOLD COUNTRY,",
          "desc": "California, Red Cabernet Sauvignon",
          "price": "27,00",
          "cover": "",
          "id": "2",
          "score": {
            "stars": 0,
            "votes": 0,
            "dist": {
              "1": 0,
              "2": 0,
              "3": 0,
              "4": 0,
              "5": 0
            }
          }
        },
        {
          "type": "item",
          "title": "CAMELEON (75cl)",
          "desc": "Argentina, Chardonnay White",
          "price": "$ 27,50",
          "cover": "",
          "id": "3",
          "score": {
            "stars": 0,
            "votes": 0,
            "dist": {
              "1": 0,
              "2": 0,
              "3": 0,
              "4": 0,
              "5": 0
            }
          }
        },
        {
          "type": "subcategory",
          "title": "champagne",
          "desc": ""
        },
        {
          "type": "item",
          "title": "LOUIS ROEDERER (75cl)",
          "desc": "37,5cl a 38,5 €",
          "price": "71,00",
          "cover": "",
          "id": "4",
          "score": {
            "stars": 0,
            "votes": 0,
            "dist": {
              "1": 0,
              "2": 0,
              "3": 0,
              "4": 0,
              "5": 0
            }
          }
        },
        {
          "type": "item",
          "title": "Champagne Selection House (75cl)",
          "desc": "",
          "price": "54,00",
          "cover": "",
          "id": "5",
          "score": {
            "stars": 0,
            "votes": 0,
            "dist": {
              "1": 0,
              "2": 0,
              "3": 0,
              "4": 0,
              "5": 0
            }
          }
        },
        {
          "type": "subcategory",
          "title": "Selezione della casa",
          "desc": ""
        },
        {
          "type": "item",
          "title": "Il bicchiere 16 cl",
          "desc": "Red Blan Rosé",
          "price": "3,90",
          "cover": "",
          "id": "6",
          "score": {
            "stars": 0,
            "votes": 0,
            "dist": {
              "1": 0,
              "2": 0,
              "3": 0,
              "4": 0,
              "5": 0
            }
          }
        },
        {
          "type": "item",
          "title": "Il decanter 25 cl",
          "desc": "Red Blan Rosé",
          "price": "6,60",
          "cover": "",
          "id": "7",
          "score": {
            "stars": 0,
            "votes": 0,
            "dist": {
              "1": 0,
              "2": 0,
              "3": 0,
              "4": 0,
              "5": 0
            }
          }
        },
        {
          "type": "item",
          "title": "La caraffa 50 cl",
          "desc": "Red Blan Rosé",
          "price": "11,30",
          "cover": "",
          "id": "8",
          "score": {
            "stars": 0,
            "votes": 0,
            "dist": {
              "1": 0,
              "2": 0,
              "3": 0,
              "4": 0,
              "5": 0
            }
          }
        },
        {
          "type": "subcategory",
          "title": "Coup de coeur del momento",
          "desc": "Grazie a chiedere al ragazzo"
        },
        {
          "type": "item",
          "title": "Il bicchiere 16 cl",
          "desc": "Red Blan Rosé",
          "price": "4,90",
          "cover": "",
          "id": "9",
          "score": {
            "stars": 0,
            "votes": 0,
            "dist": {
              "1": 0,
              "2": 0,
              "3": 0,
              "4": 0,
              "5": 0
            }
          }
        },
        {
          "type": "item",
          "title": "Il decanter 25 cl",
          "desc": "Red Blan Rosé",
          "price": "8,10",
          "cover": "",
          "id": "10",
          "score": {
            "stars": 0,
            "votes": 0,
            "dist": {
              "1": 0,
              "2": 0,
              "3": 0,
              "4": 0,
              "5": 0
            }
          }
        },
        {
          "type": "item",
          "title": "La caraffa 50 cl",
          "desc": "Red Blan Rosé",
          "price": "$ 15,10",
          "cover": "",
          "id": "11",
          "score": {
            "stars": 0,
            "votes": 0,
            "dist": {
              "1": 0,
              "2": 0,
              "3": 0,
              "4": 0,
              "5": 0
            }
          }
        },
        {
          "type": "item",
          "title": "La bottiglia 75cl",
          "desc": "Red Blan Rosé",
          "price": "$ 22,50",
          "cover": "",
          "id": "12",
          "score": {
            "stars": 0,
            "votes": 0,
            "dist": {
              "1": 0,
              "2": 0,
              "3": 0,
              "4": 0,
              "5": 0
            }
          }
        }
      ]
    },
    {
      "id": "13",
      "title": "APERITIVI E CONSUMI",
      "desc": "",
      "items": [
        {
          "type": "item",
          "title": "Champagne Cup (13cl)",
          "desc": "",
          "price": "9,60",
          "cover": "",
          "id": "0",
          "score": {
            "stars": 0,
            "votes": 0,
            "dist": {
              "1": 0,
              "2": 0,
              "3": 0,
              "4": 0,
              "5": 0
            }
          }
        },
        {
          "type": "item",
          "title": "Kir (13cl)",
          "desc": "",
          "price": "4,80",
          "cover": "",
          "id": "1",
          "score": {
            "stars": 0,
            "votes": 0,
            "dist": {
              "1": 0,
              "2": 0,
              "3": 0,
              "4": 0,
              "5": 0
            }
          }
        },
        {
          "type": "item",
          "title": "Kir Royal (13cl)",
          "desc": "",
          "price": "10,60",
          "cover": "",
          "id": "2",
          "score": {
            "stars": 0,
            "votes": 0,
            "dist": {
              "1": 0,
              "2": 0,
              "3": 0,
              "4": 0,
              "5": 0
            }
          }
        },
        {
          "type": "item",
          "title": "Pastis, Ricard, 51 (2cl)",
          "desc": "",
          "price": "5,00",
          "cover": "",
          "id": "3",
          "score": {
            "stars": 0,
            "votes": 0,
            "dist": {
              "1": 0,
              "2": 0,
              "3": 0,
              "4": 0,
              "5": 0
            }
          }
        },
        {
          "type": "item",
          "title": "Martini, Suze, Porto, Campari (6cl)",
          "desc": "",
          "price": "5,00",
          "cover": "",
          "id": "4",
          "score": {
            "stars": 0,
            "votes": 0,
            "dist": {
              "1": 0,
              "2": 0,
              "3": 0,
              "4": 0,
              "5": 0
            }
          }
        },
        {
          "type": "item",
          "title": "Whisky, Vodka, Gin, Rum, Tequila (4 cl)",
          "desc": "",
          "price": "7,00",
          "cover": "",
          "id": "5",
          "score": {
            "stars": 0,
            "votes": 0,
            "dist": {
              "1": 0,
              "2": 0,
              "3": 0,
              "4": 0,
              "5": 0
            }
          }
        },
        {
          "type": "item",
          "title": "Grappa, Calva, Cognac, Armagnac (4 cl)",
          "desc": "",
          "price": "7,00",
          "cover": "",
          "id": "6",
          "score": {
            "stars": 0,
            "votes": 0,
            "dist": {
              "1": 0,
              "2": 0,
              "3": 0,
              "4": 0,
              "5": 0
            }
          }
        },
        {
          "type": "item",
          "title": "Ottieni 27, Bailey's, Limoncello, Cointreau (4 cl)",
          "desc": "",
          "price": "7,00",
          "cover": "",
          "id": "7",
          "score": {
            "stars": 0,
            "votes": 0,
            "dist": {
              "1": 0,
              "2": 0,
              "3": 0,
              "4": 0,
              "5": 0
            }
          }
        },
        {
          "type": "item",
          "title": "VSOP Cognac, Pera (4cl)",
          "desc": "",
          "price": "9,00",
          "cover": "",
          "id": "8",
          "score": {
            "stars": 0,
            "votes": 0,
            "dist": {
              "1": 0,
              "2": 0,
              "3": 0,
              "4": 0,
              "5": 0
            }
          }
        },
        {
          "type": "item",
          "title": "Jack Daniel's, JW Black Label (4cl)",
          "desc": "",
          "price": "9,00",
          "cover": "",
          "id": "9",
          "score": {
            "stars": 0,
            "votes": 0,
            "dist": {
              "1": 0,
              "2": 0,
              "3": 0,
              "4": 0,
              "5": 0
            }
          }
        },
        {
          "type": "item",
          "title": "Orangina, Diabolo, Iced Tea (25cl)",
          "desc": "",
          "price": "4,70",
          "cover": "",
          "id": "10",
          "score": {
            "stars": 0,
            "votes": 0,
            "dist": {
              "1": 0,
              "2": 0,
              "3": 0,
              "4": 0,
              "5": 0
            }
          }
        },
        {
          "type": "item",
          "title": "Succo di frutta, Tonic (25cl)",
          "desc": "",
          "price": "4,70",
          "cover": "",
          "id": "11",
          "score": {
            "stars": 0,
            "votes": 0,
            "dist": {
              "1": 0,
              "2": 0,
              "3": 0,
              "4": 0,
              "5": 0
            }
          }
        },
        {
          "type": "item",
          "title": "PEPSI, PEPSI MAX (33cl)",
          "desc": "",
          "price": "4,30",
          "cover": "",
          "id": "12",
          "score": {
            "stars": 0,
            "votes": 0,
            "dist": {
              "1": 0,
              "2": 0,
              "3": 0,
              "4": 0,
              "5": 0
            }
          }
        },
        {
          "type": "item",
          "title": "CocaCola, Zero, Light (33cl)",
          "desc": "",
          "price": "4,90",
          "cover": "",
          "id": "13",
          "score": {
            "stars": 0,
            "votes": 0,
            "dist": {
              "1": 0,
              "2": 0,
              "3": 0,
              "4": 0,
              "5": 0
            }
          }
        },
        {
          "type": "item",
          "title": "Lemonade (25cl)",
          "desc": "",
          "price": "4,00",
          "cover": "",
          "id": "14",
          "score": {
            "stars": 0,
            "votes": 0,
            "dist": {
              "1": 0,
              "2": 0,
              "3": 0,
              "4": 0,
              "5": 0
            }
          }
        },
        {
          "type": "item",
          "title": "Expresso",
          "desc": "",
          "price": "2",
          "cover": "",
          "id": "15",
          "score": {
            "stars": 0,
            "votes": 0,
            "dist": {
              "1": 0,
              "2": 0,
              "3": 0,
              "4": 0,
              "5": 0
            }
          }
        },
        {
          "type": "item",
          "title": "decaffeinato",
          "desc": "",
          "price": "2",
          "cover": "",
          "id": "16",
          "score": {
            "stars": 0,
            "votes": 0,
            "dist": {
              "1": 0,
              "2": 0,
              "3": 0,
              "4": 0,
              "5": 0
            }
          }
        },
        {
          "type": "item",
          "title": "cappuccino",
          "desc": "",
          "price": "4,4",
          "cover": "",
          "id": "17",
          "score": {
            "stars": 0,
            "votes": 0,
            "dist": {
              "1": 0,
              "2": 0,
              "3": 0,
              "4": 0,
              "5": 0
            }
          }
        },
        {
          "type": "item",
          "title": "cioccolato",
          "desc": "",
          "price": "4,4",
          "cover": "",
          "id": "18",
          "score": {
            "stars": 0,
            "votes": 0,
            "dist": {
              "1": 0,
              "2": 0,
              "3": 0,
              "4": 0,
              "5": 0
            }
          }
        },
        {
          "type": "item",
          "title": "Tè al latte",
          "desc": "",
          "price": "3,90",
          "cover": "",
          "id": "19",
          "score": {
            "stars": 0,
            "votes": 0,
            "dist": {
              "1": 0,
              "2": 0,
              "3": 0,
              "4": 0,
              "5": 0
            }
          }
        },
        {
          "type": "item",
          "title": "Tè al limone",
          "desc": "",
          "price": "3,90",
          "cover": "",
          "id": "20",
          "score": {
            "stars": 0,
            "votes": 0,
            "dist": {
              "1": 0,
              "2": 0,
              "3": 0,
              "4": 0,
              "5": 0
            }
          }
        },
        {
          "type": "item",
          "title": "infusione",
          "desc": "",
          "price": "3,90",
          "cover": "",
          "id": "21",
          "score": {
            "stars": 0,
            "votes": 0,
            "dist": {
              "1": 0,
              "2": 0,
              "3": 0,
              "4": 0,
              "5": 0
            }
          }
        },
        {
          "type": "item",
          "title": "Caffè con latte",
          "desc": "",
          "price": "3,90",
          "cover": "",
          "id": "22",
          "score": {
            "stars": 0,
            "votes": 0,
            "dist": {
              "1": 0,
              "2": 0,
              "3": 0,
              "4": 0,
              "5": 0
            }
          }
        },
        {
          "type": "item",
          "title": "Caffè viennese",
          "desc": "",
          "price": "5",
          "cover": "",
          "id": "23",
          "score": {
            "stars": 0,
            "votes": 0,
            "dist": {
              "1": 0,
              "2": 0,
              "3": 0,
              "4": 0,
              "5": 0
            }
          }
        },
        {
          "type": "item",
          "title": "Cioccolato viennese",
          "desc": "",
          "price": "5",
          "cover": "",
          "id": "24",
          "score": {
            "stars": 0,
            "votes": 0,
            "dist": {
              "1": 0,
              "2": 0,
              "3": 0,
              "4": 0,
              "5": 0
            }
          }
        },
        {
          "type": "item",
          "title": "Caffè irlandese",
          "desc": "",
          "price": "9,80",
          "cover": "",
          "id": "25",
          "score": {
            "stars": 0,
            "votes": 0,
            "dist": {
              "1": 0,
              "2": 0,
              "3": 0,
              "4": 0,
              "5": 0
            }
          }
        }
      ]
    },
    {
      "id": "14",
      "title": "cocktail",
      "desc": "",
      "items": [
        {
          "type": "subcategory",
          "title": "Tequila, cointreau, sorbetto al limone o alla fragola, ghiaccio tritato - da 1 litro a 24 €",
          "desc": "9,50 €"
        },
        {
          "type": "item",
          "title": "Frozen Caipiroska (25cl)",
          "desc": "Vodka, sorbetto al limone o alla fragola, ghiaccio tritato - da 1 litro a 24 €",
          "price": "9,50",
          "cover": "",
          "id": "0",
          "score": {
            "stars": 0,
            "votes": 0,
            "dist": {
              "1": 0,
              "2": 0,
              "3": 0,
              "4": 0,
              "5": 0
            }
          }
        },
        {
          "type": "item",
          "title": "Mojito (25cl)",
          "desc": "Calce, zucchero di canna, menta fresca, ruhm, limonata - 1 litro a 24 €",
          "price": "9,50",
          "cover": "",
          "id": "1",
          "score": {
            "stars": 0,
            "votes": 0,
            "dist": {
              "1": 0,
              "2": 0,
              "3": 0,
              "4": 0,
              "5": 0
            }
          }
        },
        {
          "type": "item",
          "title": "Mojito Strawberry (25cl)",
          "desc": "Calce, zucchero di canna, menta fresca, ruhm, limonata, coulis di fragole - (1 litro a 28 €)",
          "price": "11",
          "cover": "",
          "id": "2",
          "score": {
            "stars": 0,
            "votes": 0,
            "dist": {
              "1": 0,
              "2": 0,
              "3": 0,
              "4": 0,
              "5": 0
            }
          }
        }
      ]
    },
    {
      "id": "15",
      "title": "Birra alla pressione",
      "desc": "",
      "items": [
        {
          "type": "subcategory",
          "title": "Da 50 a 7,7 €",
          "desc": "€ 4,30"
        },
        {
          "type": "subcategory",
          "title": "Birre del mondo",
          "desc": ""
        },
        {
          "type": "item",
          "title": "Carlsberg",
          "desc": "33cl",
          "price": "6,30",
          "cover": "",
          "id": "0",
          "score": {
            "stars": 0,
            "votes": 0,
            "dist": {
              "1": 0,
              "2": 0,
              "3": 0,
              "4": 0,
              "5": 0
            }
          }
        },
        {
          "type": "item",
          "title": "Bella birra ambrata",
          "desc": "33 cl.",
          "price": "7,00",
          "cover": "",
          "id": "1",
          "score": {
            "stars": 0,
            "votes": 0,
            "dist": {
              "1": 0,
              "2": 0,
              "3": 0,
              "4": 0,
              "5": 0
            }
          }
        },
        {
          "type": "item",
          "title": "Tiger Bock Brown",
          "desc": "27,5 cl.",
          "price": "6,00",
          "cover": "",
          "id": "2",
          "score": {
            "stars": 0,
            "votes": 0,
            "dist": {
              "1": 0,
              "2": 0,
              "3": 0,
              "4": 0,
              "5": 0
            }
          }
        },
        {
          "type": "item",
          "title": "Budweiser",
          "desc": "33 cl",
          "price": "7,00",
          "cover": "",
          "id": "3",
          "score": {
            "stars": 0,
            "votes": 0,
            "dist": {
              "1": 0,
              "2": 0,
              "3": 0,
              "4": 0,
              "5": 0
            }
          }
        },
        {
          "type": "item",
          "title": "corona",
          "desc": "33 cl",
          "price": "7,00",
          "cover": "",
          "id": "4",
          "score": {
            "stars": 0,
            "votes": 0,
            "dist": {
              "1": 0,
              "2": 0,
              "3": 0,
              "4": 0,
              "5": 0
            }
          }
        },
        {
          "type": "item",
          "title": "Abbazia di Grimbergen",
          "desc": "33 cl",
          "price": "6,60",
          "cover": "",
          "id": "5",
          "score": {
            "stars": 0,
            "votes": 0,
            "dist": {
              "1": 0,
              "2": 0,
              "3": 0,
              "4": 0,
              "5": 0
            }
          }
        },
        {
          "type": "item",
          "title": "Birra bianca Grimbergen",
          "desc": "33 cl",
          "price": "6,60",
          "cover": "",
          "id": "6",
          "score": {
            "stars": 0,
            "votes": 0,
            "dist": {
              "1": 0,
              "2": 0,
              "3": 0,
              "4": 0,
              "5": 0
            }
          }
        },
        {
          "type": "item",
          "title": "Birra analcolica",
          "desc": "25 cl",
          "price": "4,7",
          "cover": "",
          "id": "7",
          "score": {
            "stars": 0,
            "votes": 0,
            "dist": {
              "1": 0,
              "2": 0,
              "3": 0,
              "4": 0,
              "5": 0
            }
          }
        }
      ]
    },
    {
      "id": "16",
      "title": "ACQUE MINERALI",
      "desc": "",
      "items": [
        {
          "type": "subcategory",
          "title": "Da 1 a 6 €",
          "desc": "4"
        },
        {
          "type": "item",
          "title": "Bolle fini Perrier (1 / 2l)",
          "desc": "Da 1 a 6 €",
          "price": "4,00",
          "cover": "",
          "id": "0",
          "score": {
            "stars": 0,
            "votes": 0,
            "dist": {
              "1": 0,
              "2": 0,
              "3": 0,
              "4": 0,
              "5": 0
            }
          }
        },
        {
          "type": "item",
          "title": "Perrier (33cl)",
          "desc": "",
          "price": "3,80",
          "cover": "",
          "id": "1",
          "score": {
            "stars": 0,
            "votes": 0,
            "dist": {
              "1": 0,
              "2": 0,
              "3": 0,
              "4": 0,
              "5": 0
            }
          }
        }
      ]
    }
  ]
}
