{
  "id": "101",
  "name": "Bazar Café",
  "address": "5 rue de France, 06000 Nice, France",
  "tel": "+33 4 93 91 16 91",
  "url": "https://www.facebook.com/bazarcafenice",
  "cover": "r101.jpg",
  "priceRange": "€€-€€€",
  "score": {
    "stars": 4,
    "votes": 126,
    "dist": {
      "1": 0,
      "2": 0,
      "3": 0,
      "4": 0,
      "5": 0
    }
  },
  "summary": {
    "de": "Salate, Pasta, Pizza, Burger, Wraps",
    "fr": "Salades, Pâtes, Pizzas, Burger Wraps",
    "en": "Salads, Pasta, Pizzas, Burgers, Wraps",
    "it": "Insalate, Pasta, Pizza, Hamburger, Wraps",
    "ru": "Салат, спагетти, пицца, гамбургер, обертывания",
    "zh": "沙拉，意大利面，比萨饼，汉堡包，卷"
  }
}
