{
  "id": "111",
  "name": "La Femme Du Boulanger",
  "address": "3, rue du Commandant Raffalli, 06000 Nice, France",
  "tel": "+33 4 89 03 43 03",
  "url": "https://www.facebook.com/femmeduboulanger",
  "cover": "r111.jpg",
  "priceRange": "€€-€€€",
  "score": {
    "stars": 4.4,
    "votes": 841,
    "dist": {
      "1": 0,
      "2": 0,
      "3": 0,
      "4": 0,
      "5": 0
    }
  },
  "summary": {
    "de": "Französisch, Europäisch, Internationale",
    "fr": "Française, Européenne, Internationale",
    "en": "French, European, International",
    "it": "Francese, Europea, Internazionale",
    "ru": "Французская, европейская, международная",
    "zh": "法国，欧洲，国际"
  }
}
