{
  "id": "117",
  "name": "Le Québec",
  "address": "43 rue Massena, 06000 Nice, France",
  "tel": "+33 4 93 87 84 21",
  "url": "http://maison-cresci.fr/fr/restaurant-pizza-nice/",
  "cover": "r117.jpg",
  "priceRange": "€€-€€€",
  "score": {
    "stars": 3.5,
    "votes": 726,
    "dist": {
      "1": 0,
      "2": 0,
      "3": 0,
      "4": 0,
      "5": 0
    }
  },
  "summary": {
    "de": "Italienische, Französische, Italienische",
    "fr": "Italienne, Française, Pizza",
    "en": "Italian, French, Pizza",
    "it": "Italiana, francese, pizza",
    "ru": "Итальянский, французский, Pizza",
    "zh": "意大利，法国，披萨"
  }
}
