{
  "pages": [
    {
      "id": "0",
      "title": "Menü um 19,9 €",
      "desc": "Menü 24,9 € mit einem Glas Champagner",
      "items": [
        {
          "type": "subcategory",
          "title": "Eingänge",
          "desc": ""
        },
        {
          "type": "item",
          "title": "Terrine der Entenleberpastete",
          "desc": "Mit Feigenmarmelade",
          "price": "",
          "cover": "",
          "id": "0",
          "score": {
            "stars": 0,
            "votes": 0,
            "dist": {
              "1": 0,
              "2": 0,
              "3": 0,
              "4": 0,
              "5": 0
            }
          }
        },
        {
          "type": "item",
          "title": "Fischsuppe",
          "desc": "Mediterraner Fisch, Croutons und Rost",
          "price": "",
          "cover": "",
          "id": "1",
          "score": {
            "stars": 0,
            "votes": 0,
            "dist": {
              "1": 0,
              "2": 0,
              "3": 0,
              "4": 0,
              "5": 0
            }
          }
        },
        {
          "type": "item",
          "title": "Frisch gegrillte Sardinen aus dem Land",
          "desc": "",
          "price": "",
          "cover": "",
          "id": "2",
          "score": {
            "stars": 0,
            "votes": 0,
            "dist": {
              "1": 0,
              "2": 0,
              "3": 0,
              "4": 0,
              "5": 0
            }
          }
        },
        {
          "type": "item",
          "title": "6 Burgunder Schnecken",
          "desc": "von unserem Küchenchef zubereitet",
          "price": "",
          "cover": "",
          "id": "3",
          "score": {
            "stars": 0,
            "votes": 0,
            "dist": {
              "1": 0,
              "2": 0,
              "3": 0,
              "4": 0,
              "5": 0
            }
          }
        },
        {
          "type": "item",
          "title": "Echter Niçoise-Marktsalat",
          "desc": "",
          "price": "",
          "cover": "",
          "id": "4",
          "score": {
            "stars": 0,
            "votes": 0,
            "dist": {
              "1": 0,
              "2": 0,
              "3": 0,
              "4": 0,
              "5": 0
            }
          }
        },
        {
          "type": "item",
          "title": "6 frische rosa Garnelen",
          "desc": "Serviert mit Cocktailsauce",
          "price": "",
          "cover": "",
          "id": "5",
          "score": {
            "stars": 0,
            "votes": 0,
            "dist": {
              "1": 0,
              "2": 0,
              "3": 0,
              "4": 0,
              "5": 0
            }
          }
        },
        {
          "type": "item",
          "title": "Muscheln von Bouchot mit der marinière (5 €€ gr)",
          "desc": "",
          "price": "",
          "cover": "",
          "id": "6",
          "score": {
            "stars": 0,
            "votes": 0,
            "dist": {
              "1": 0,
              "2": 0,
              "3": 0,
              "4": 0,
              "5": 0
            }
          }
        },
        {
          "type": "item",
          "title": "Rohschinken 'Serrano'",
          "desc": "Mit seinen getrockneten Tomaten",
          "price": "",
          "cover": "",
          "id": "7",
          "score": {
            "stars": 0,
            "votes": 0,
            "dist": {
              "1": 0,
              "2": 0,
              "3": 0,
              "4": 0,
              "5": 0
            }
          }
        },
        {
          "type": "item",
          "title": "Warmer Ziegenkäsesalat",
          "desc": "vegetarisches Gericht",
          "price": "",
          "cover": "",
          "id": "8",
          "score": {
            "stars": 0,
            "votes": 0,
            "dist": {
              "1": 0,
              "2": 0,
              "3": 0,
              "4": 0,
              "5": 0
            }
          }
        },
        {
          "type": "item",
          "title": "Minestrone Suppe",
          "desc": "vegetarisches Gericht",
          "price": "",
          "cover": "",
          "id": "9",
          "score": {
            "stars": 0,
            "votes": 0,
            "dist": {
              "1": 0,
              "2": 0,
              "3": 0,
              "4": 0,
              "5": 0
            }
          }
        },
        {
          "type": "subcategory",
          "title": "Geschirr",
          "desc": ""
        },
        {
          "type": "item",
          "title": "Lammkeule",
          "desc": "Serviert mit Beilage des Tages",
          "price": "",
          "cover": "",
          "id": "10",
          "score": {
            "stars": 0,
            "votes": 0,
            "dist": {
              "1": 0,
              "2": 0,
              "3": 0,
              "4": 0,
              "5": 0
            }
          }
        },
        {
          "type": "item",
          "title": "Rindersteak",
          "desc": "Serviert mit Pommes",
          "price": "",
          "cover": "",
          "id": "11",
          "score": {
            "stars": 0,
            "votes": 0,
            "dist": {
              "1": 0,
              "2": 0,
              "3": 0,
              "4": 0,
              "5": 0
            }
          }
        },
        {
          "type": "item",
          "title": "1/2 gebratenes Huhn (600gr)",
          "desc": "Kräuter der Provence, Pommes, Salat",
          "price": "",
          "cover": "",
          "id": "12",
          "score": {
            "stars": 0,
            "votes": 0,
            "dist": {
              "1": 0,
              "2": 0,
              "3": 0,
              "4": 0,
              "5": 0
            }
          }
        },
        {
          "type": "item",
          "title": "Frischer Goldbrasse oder Wolf (500gr)",
          "desc": "Serviert mit seinem Gemüse (Zuschlag von 8,9 €)",
          "price": "",
          "cover": "",
          "id": "13",
          "score": {
            "stars": 0,
            "votes": 0,
            "dist": {
              "1": 0,
              "2": 0,
              "3": 0,
              "4": 0,
              "5": 0
            }
          }
        },
        {
          "type": "item",
          "title": "Frisch gegrillte Sardinen",
          "desc": "Serviert mit grünem Salat",
          "price": "",
          "cover": "",
          "id": "14",
          "score": {
            "stars": 0,
            "votes": 0,
            "dist": {
              "1": 0,
              "2": 0,
              "3": 0,
              "4": 0,
              "5": 0
            }
          }
        },
        {
          "type": "item",
          "title": "Frisches Lachssteak",
          "desc": "Serviert mit Gemüse",
          "price": "",
          "cover": "",
          "id": "15",
          "score": {
            "stars": 0,
            "votes": 0,
            "dist": {
              "1": 0,
              "2": 0,
              "3": 0,
              "4": 0,
              "5": 0
            }
          }
        },
        {
          "type": "item",
          "title": "Frische Tagliatelle mit frischem Gemüse",
          "desc": "Vegetarisches Gericht",
          "price": "",
          "cover": "",
          "id": "16",
          "score": {
            "stars": 0,
            "votes": 0,
            "dist": {
              "1": 0,
              "2": 0,
              "3": 0,
              "4": 0,
              "5": 0
            }
          }
        },
        {
          "type": "item",
          "title": "Bouchot Muscheln mit Marinière (1Kg)",
          "desc": "Serviert mit Pommes",
          "price": "",
          "cover": "",
          "id": "17",
          "score": {
            "stars": 0,
            "votes": 0,
            "dist": {
              "1": 0,
              "2": 0,
              "3": 0,
              "4": 0,
              "5": 0
            }
          }
        },
        {
          "type": "subcategory",
          "title": "Desserts",
          "desc": ""
        },
        {
          "type": "item",
          "title": "Torte der jungen Damen",
          "desc": "",
          "price": "",
          "cover": "",
          "id": "18",
          "score": {
            "stars": 0,
            "votes": 0,
            "dist": {
              "1": 0,
              "2": 0,
              "3": 0,
              "4": 0,
              "5": 0
            }
          }
        },
        {
          "type": "item",
          "title": "Weiße Dame",
          "desc": "",
          "price": "",
          "cover": "",
          "id": "19",
          "score": {
            "stars": 0,
            "votes": 0,
            "dist": {
              "1": 0,
              "2": 0,
              "3": 0,
              "4": 0,
              "5": 0
            }
          }
        },
        {
          "type": "item",
          "title": "Creme Brulee",
          "desc": "",
          "price": "",
          "cover": "",
          "id": "20",
          "score": {
            "stars": 0,
            "votes": 0,
            "dist": {
              "1": 0,
              "2": 0,
              "3": 0,
              "4": 0,
              "5": 0
            }
          }
        },
        {
          "type": "item",
          "title": "Schwimmende Inseln",
          "desc": "",
          "price": "",
          "cover": "",
          "id": "21",
          "score": {
            "stars": 0,
            "votes": 0,
            "dist": {
              "1": 0,
              "2": 0,
              "3": 0,
              "4": 0,
              "5": 0
            }
          }
        },
        {
          "type": "item",
          "title": "Eiscreme zwei Bälle",
          "desc": "",
          "price": "",
          "cover": "",
          "id": "22",
          "score": {
            "stars": 0,
            "votes": 0,
            "dist": {
              "1": 0,
              "2": 0,
              "3": 0,
              "4": 0,
              "5": 0
            }
          }
        },
        {
          "type": "item",
          "title": "Schokoladenfreude",
          "desc": "",
          "price": "",
          "cover": "",
          "id": "23",
          "score": {
            "stars": 0,
            "votes": 0,
            "dist": {
              "1": 0,
              "2": 0,
              "3": 0,
              "4": 0,
              "5": 0
            }
          }
        }
      ]
    }
  ]
}
