{
  "pages": [
    {
      "id": "0",
      "title": "Starters",
      "desc": "",
      "items": [
        {
          "type": "item",
          "title": "RUSTICO",
          "desc": "Plate of cold cuts and Italian cheeses",
          "price": "18",
          "cover": "",
          "id": "0",
          "score": {
            "stars": 0,
            "votes": 0,
            "dist": {
              "1": 0,
              "2": 0,
              "3": 0,
              "4": 0,
              "5": 0
            }
          }
        },
        {
          "type": "item",
          "title": "TARTARE IMPERIAL",
          "desc": "Salmon, Saint-Jacques, Saint-Pierre and mangoes seasoned with olive oil, lemon and peppers 5 berries",
          "price": "14",
          "cover": "",
          "id": "1",
          "score": {
            "stars": 0,
            "votes": 0,
            "dist": {
              "1": 0,
              "2": 0,
              "3": 0,
              "4": 0,
              "5": 0
            }
          }
        },
        {
          "type": "item",
          "title": "small white parmigiana",
          "desc": "Eggplant fritters with mozzarella, parmesana and arugula",
          "price": "10",
          "cover": "",
          "id": "2",
          "score": {
            "stars": 0,
            "votes": 0,
            "dist": {
              "1": 0,
              "2": 0,
              "3": 0,
              "4": 0,
              "5": 0
            }
          }
        },
        {
          "type": "item",
          "title": "VITELLO TONNATO",
          "desc": "Cultured veal carpaccio and brandy cream",
          "price": "15",
          "cover": "",
          "id": "3",
          "score": {
            "stars": 0,
            "votes": 0,
            "dist": {
              "1": 0,
              "2": 0,
              "3": 0,
              "4": 0,
              "5": 0
            }
          }
        },
        {
          "type": "item",
          "title": "Chef's grilled and marinated octopus",
          "desc": "Octopus grilled and marinated on its mashed beans",
          "price": "15",
          "cover": "",
          "id": "4",
          "score": {
            "stars": 0,
            "votes": 0,
            "dist": {
              "1": 0,
              "2": 0,
              "3": 0,
              "4": 0,
              "5": 0
            }
          }
        }
      ]
    },
    {
      "id": "1",
      "title": "Dishes",
      "desc": "",
      "items": [
        {
          "type": "item",
          "title": "SCOGLIO",
          "desc": "Spaghetti with seafood, cherry tomatoes",
          "price": "19,9",
          "cover": "",
          "id": "0",
          "score": {
            "stars": 0,
            "votes": 0,
            "dist": {
              "1": 0,
              "2": 0,
              "3": 0,
              "4": 0,
              "5": 0
            }
          }
        },
        {
          "type": "item",
          "title": "ORECCHIETTE ALLE VONGOLE",
          "desc": "Orecchiette with clams, Bottarga of mullet",
          "price": "19,9",
          "cover": "",
          "id": "1",
          "score": {
            "stars": 0,
            "votes": 0,
            "dist": {
              "1": 0,
              "2": 0,
              "3": 0,
              "4": 0,
              "5": 0
            }
          }
        },
        {
          "type": "item",
          "title": "gnocchetti",
          "desc": "Gorgonzola gnocchi, walnuts and arugula",
          "price": "14,9",
          "cover": "",
          "id": "2",
          "score": {
            "stars": 0,
            "votes": 0,
            "dist": {
              "1": 0,
              "2": 0,
              "3": 0,
              "4": 0,
              "5": 0
            }
          }
        },
        {
          "type": "item",
          "title": "ravioli with ricotta and spinach",
          "desc": "Ricotta / spinach ravioli with ratatouille",
          "price": "14,9",
          "cover": "",
          "id": "3",
          "score": {
            "stars": 0,
            "votes": 0,
            "dist": {
              "1": 0,
              "2": 0,
              "3": 0,
              "4": 0,
              "5": 0
            }
          }
        },
        {
          "type": "item",
          "title": "ORECCHIETTE CITEMMUERTE",
          "desc": "Orecchiette with broccoli, anchovies, garlic and pepper from Apulia",
          "price": "12",
          "cover": "",
          "id": "4",
          "score": {
            "stars": 0,
            "votes": 0,
            "dist": {
              "1": 0,
              "2": 0,
              "3": 0,
              "4": 0,
              "5": 0
            }
          }
        },
        {
          "type": "item",
          "title": "risotto with gorgonzola and asparagus",
          "desc": "Risotto with asparagus and gorgonzola",
          "price": "17",
          "cover": "",
          "id": "5",
          "score": {
            "stars": 0,
            "votes": 0,
            "dist": {
              "1": 0,
              "2": 0,
              "3": 0,
              "4": 0,
              "5": 0
            }
          }
        },
        {
          "type": "item",
          "title": "PUTTANESCA PENNe",
          "desc": "Penne with tomato sauce, capers, anchovies, olives and Apulian peppers",
          "price": "12",
          "cover": "",
          "id": "6",
          "score": {
            "stars": 0,
            "votes": 0,
            "dist": {
              "1": 0,
              "2": 0,
              "3": 0,
              "4": 0,
              "5": 0
            }
          }
        }
      ]
    },
    {
      "id": "2",
      "title": "Fish",
      "desc": "Outdoor breeding",
      "items": [
        {
          "type": "item",
          "title": "OMBRINA ALLA NAPOLETANA",
          "desc": "Lean with potatoes, olives, white wine and artichokes",
          "price": "28",
          "cover": "",
          "id": "0",
          "score": {
            "stars": 0,
            "votes": 0,
            "dist": {
              "1": 0,
              "2": 0,
              "3": 0,
              "4": 0,
              "5": 0
            }
          }
        },
        {
          "type": "item",
          "title": "SMALL POULPE IN MEDITERRANEAN SAUCE",
          "desc": "Tomato sauce, olives, capers and potatoes",
          "price": "25",
          "cover": "",
          "id": "1",
          "score": {
            "stars": 0,
            "votes": 0,
            "dist": {
              "1": 0,
              "2": 0,
              "3": 0,
              "4": 0,
              "5": 0
            }
          }
        },
        {
          "type": "item",
          "title": "half cooked yellowfin tuna",
          "desc": "with sesame and sunflower seeds, accompanied by its variegated seasonal vegetables",
          "price": "25",
          "cover": "",
          "id": "2",
          "score": {
            "stars": 0,
            "votes": 0,
            "dist": {
              "1": 0,
              "2": 0,
              "3": 0,
              "4": 0,
              "5": 0
            }
          }
        }
      ]
    },
    {
      "id": "3",
      "title": "Meat",
      "desc": "Outdoor Breeding Accompaniments: French fries, mixed salad, vegetables of the day or baked potatoes",
      "items": [
        {
          "type": "item",
          "title": "BEEF TAGLIATA",
          "desc": "Roquette, Artichokes, Parmesan",
          "price": "29",
          "cover": "",
          "id": "0",
          "score": {
            "stars": 0,
            "votes": 0,
            "dist": {
              "1": 0,
              "2": 0,
              "3": 0,
              "4": 0,
              "5": 0
            }
          }
        },
        {
          "type": "item",
          "title": "ITALIAN  HAMBURGER",
          "desc": "Minced meat, mozzarella, tomatoes, onions, mesclun and fries",
          "price": "19",
          "cover": "",
          "id": "1",
          "score": {
            "stars": 0,
            "votes": 0,
            "dist": {
              "1": 0,
              "2": 0,
              "3": 0,
              "4": 0,
              "5": 0
            }
          }
        },
        {
          "type": "item",
          "title": "TIMBALLO MILANESE",
          "desc": "Milanese veal cutlet, au gratin with tomato and mozzarella cheese and crushed terracotta apple Aghata, flavored with spices",
          "price": "25",
          "cover": "",
          "id": "2",
          "score": {
            "stars": 0,
            "votes": 0,
            "dist": {
              "1": 0,
              "2": 0,
              "3": 0,
              "4": 0,
              "5": 0
            }
          }
        }
      ]
    },
    {
      "id": "4",
      "title": "Pizza",
      "desc": "",
      "items": [
        {
          "type": "item",
          "title": "Pomodoro, mozzarella",
          "desc": "",
          "price": "10",
          "cover": "",
          "id": "0",
          "score": {
            "stars": 0,
            "votes": 0,
            "dist": {
              "1": 0,
              "2": 0,
              "3": 0,
              "4": 0,
              "5": 0
            }
          }
        },
        {
          "type": "item",
          "title": "FOUR SEASONS",
          "desc": "Tomato, mozzarella, mushrooms, olives, ham, artichokes",
          "price": "12",
          "cover": "",
          "id": "1",
          "score": {
            "stars": 0,
            "votes": 0,
            "dist": {
              "1": 0,
              "2": 0,
              "3": 0,
              "4": 0,
              "5": 0
            }
          }
        },
        {
          "type": "item",
          "title": "AMERICA",
          "desc": "Tomato, mozzarella, sausage, onion, mushrooms, garlic, oregano, peppers, cooked ham",
          "price": "17",
          "cover": "",
          "id": "2",
          "score": {
            "stars": 0,
            "votes": 0,
            "dist": {
              "1": 0,
              "2": 0,
              "3": 0,
              "4": 0,
              "5": 0
            }
          }
        },
        {
          "type": "item",
          "title": "PICCANTE",
          "desc": "Tomato, mozzarella, spicy salami, gorgonzola, peppers",
          "price": "12",
          "cover": "",
          "id": "3",
          "score": {
            "stars": 0,
            "votes": 0,
            "dist": {
              "1": 0,
              "2": 0,
              "3": 0,
              "4": 0,
              "5": 0
            }
          }
        },
        {
          "type": "item",
          "title": "CALABRESE",
          "desc": "Tomato, mozzarella, sausage, pepper, ricotta",
          "price": "12",
          "cover": "",
          "id": "4",
          "score": {
            "stars": 0,
            "votes": 0,
            "dist": {
              "1": 0,
              "2": 0,
              "3": 0,
              "4": 0,
              "5": 0
            }
          }
        },
        {
          "type": "item",
          "title": "FUNGHI",
          "desc": "Tomato, mozzarella, mushroom mix, raw ham",
          "price": "15",
          "cover": "",
          "id": "5",
          "score": {
            "stars": 0,
            "votes": 0,
            "dist": {
              "1": 0,
              "2": 0,
              "3": 0,
              "4": 0,
              "5": 0
            }
          }
        },
        {
          "type": "item",
          "title": "Vegetarian",
          "desc": "Mozzarella, mix of fresh vegetables, zucchini, eggplant, pepper, cherry tomatoes, mushrooms, onion",
          "price": "15",
          "cover": "",
          "id": "6",
          "score": {
            "stars": 0,
            "votes": 0,
            "dist": {
              "1": 0,
              "2": 0,
              "3": 0,
              "4": 0,
              "5": 0
            }
          }
        },
        {
          "type": "item",
          "title": "Calzone VICOLO",
          "desc": "Tomato, mozzarella, cooked ham, mushrooms",
          "price": "14",
          "cover": "",
          "id": "7",
          "score": {
            "stars": 0,
            "votes": 0,
            "dist": {
              "1": 0,
              "2": 0,
              "3": 0,
              "4": 0,
              "5": 0
            }
          }
        },
        {
          "type": "item",
          "title": "DON GIOVANNI",
          "desc": "Focaccia, arugula, tomatoes",
          "price": "14",
          "cover": "",
          "id": "8",
          "score": {
            "stars": 0,
            "votes": 0,
            "dist": {
              "1": 0,
              "2": 0,
              "3": 0,
              "4": 0,
              "5": 0
            }
          }
        },
        {
          "type": "item",
          "title": "4 CHEESES",
          "desc": "Mozzarella, gorgonzola, mascarpone, smoked provolone, nuts",
          "price": "14",
          "cover": "",
          "id": "9",
          "score": {
            "stars": 0,
            "votes": 0,
            "dist": {
              "1": 0,
              "2": 0,
              "3": 0,
              "4": 0,
              "5": 0
            }
          }
        },
        {
          "type": "item",
          "title": "Pizzaiolo",
          "desc": "mozzarella, fresh tomatoes, onions, thou, olives",
          "price": "14",
          "cover": "",
          "id": "10",
          "score": {
            "stars": 0,
            "votes": 0,
            "dist": {
              "1": 0,
              "2": 0,
              "3": 0,
              "4": 0,
              "5": 0
            }
          }
        }
      ]
    },
    {
      "id": "5",
      "title": "Dessert",
      "desc": "",
      "items": [
        {
          "type": "item",
          "title": "Italian cheese platter",
          "desc": "",
          "price": "12",
          "cover": "",
          "id": "0",
          "score": {
            "stars": 0,
            "votes": 0,
            "dist": {
              "1": 0,
              "2": 0,
              "3": 0,
              "4": 0,
              "5": 0
            }
          }
        },
        {
          "type": "item",
          "title": "Homemade sorbet",
          "desc": "",
          "price": "7",
          "cover": "",
          "id": "1",
          "score": {
            "stars": 0,
            "votes": 0,
            "dist": {
              "1": 0,
              "2": 0,
              "3": 0,
              "4": 0,
              "5": 0
            }
          }
        },
        {
          "type": "item",
          "title": "Tiramisù il vicoletto",
          "desc": "",
          "price": "9",
          "cover": "",
          "id": "2",
          "score": {
            "stars": 0,
            "votes": 0,
            "dist": {
              "1": 0,
              "2": 0,
              "3": 0,
              "4": 0,
              "5": 0
            }
          }
        },
        {
          "type": "item",
          "title": "Gourmet coffee",
          "desc": "Coffee and assortment of small desserts",
          "price": "9",
          "cover": "",
          "id": "3",
          "score": {
            "stars": 0,
            "votes": 0,
            "dist": {
              "1": 0,
              "2": 0,
              "3": 0,
              "4": 0,
              "5": 0
            }
          }
        },
        {
          "type": "item",
          "title": "Panna cotta",
          "desc": "",
          "price": "9",
          "cover": "",
          "id": "4",
          "score": {
            "stars": 0,
            "votes": 0,
            "dist": {
              "1": 0,
              "2": 0,
              "3": 0,
              "4": 0,
              "5": 0
            }
          }
        },
        {
          "type": "item",
          "title": "Pineapple Carpaccio",
          "desc": "Served hot with speculos, whipped cream, caramel",
          "price": "9",
          "cover": "",
          "id": "5",
          "score": {
            "stars": 0,
            "votes": 0,
            "dist": {
              "1": 0,
              "2": 0,
              "3": 0,
              "4": 0,
              "5": 0
            }
          }
        },
        {
          "type": "item",
          "title": "Rum baba with whipped cream",
          "desc": "",
          "price": "9",
          "cover": "",
          "id": "6",
          "score": {
            "stars": 0,
            "votes": 0,
            "dist": {
              "1": 0,
              "2": 0,
              "3": 0,
              "4": 0,
              "5": 0
            }
          }
        }
      ]
    }
  ]
}
